{
  "noteSteps": [
    {
      "tapTimeFrame": [
        1.18421769,
        1.32353735,
        1.76471651,
        2.3219955,
        2.71673465,
        2.90249419,
        3.088254,
        3.29723358,
        3.48299313,
        3.66875267,
        3.85451245,
        4.040272,
        4.226032
      ],
      "railNumbers": [
        3
      ]
    },
    {
      "tapTimeFrame": [
        4.43501139
      ],
      "railNumbers": [
        2
      ]
    },
    {
      "tapTimeFrame": [
        4.620771
      ],
      "railNumbers": [
        3
      ]
    },
    {
      "tapTimeFrame": [
        4.80653048
      ],
      "railNumbers": [
        3
      ]
    },
    {
      "tapTimeFrame": [
        4.99229
      ],
      "railNumbers": [
        2
      ]
    },
    {
      "tapTimeFrame": [
        5.20126963
      ],
      "railNumbers": [
        3
      ]
    },
    {
      "tapTimeFrame": [
        5.387029
      ],
      "railNumbers": [
        3
      ]
    },
    {
      "tapTimeFrame": [
        5.75854874
      ],
      "railNumbers": [
        1
      ]
    },
    {
      "tapTimeFrame": [
        5.96752834
      ],
      "railNumbers": [
        2
      ]
    },
    {
      "tapTimeFrame": [
        6.153288
      ],
      "railNumbers": [
        2
      ]
    },
    {
      "tapTimeFrame": [
        6.33904743
      ],
      "railNumbers": [
        3
      ]
    },
    {
      "tapTimeFrame": [
        6.524807
      ],
      "railNumbers": [
        1
      ]
    },
    {
      "tapTimeFrame": [
        6.73378658
      ],
      "railNumbers": [
        3
      ]
    },
    {
      "tapTimeFrame": [
        6.919546
      ],
      "railNumbers": [
        2
      ]
    },
    {
      "tapTimeFrame": [
        7.29106569
      ],
      "railNumbers": [
        1
      ]
    },
    {
      "tapTimeFrame": [
        7.5000453
      ],
      "railNumbers": [
        2
      ]
    },
    {
      "tapTimeFrame": [
        7.87156439
      ],
      "railNumbers": [
        3
      ]
    },
    {
      "tapTimeFrame": [
        8.057324
      ],
      "railNumbers": [
        1
      ]
    },
    {
      "tapTimeFrame": [
        8.243084
      ],
      "railNumbers": [
        2
      ]
    },
    {
      "tapTimeFrame": [
        8.452064
      ],
      "railNumbers": [
        2
      ]
    },
    {
      "tapTimeFrame": [
        8.823583
      ],
      "railNumbers": [
        1
      ]
    },
    {
      "tapTimeFrame": [
        9.009342
      ],
      "railNumbers": [
        3
      ]
    },
    {
      "tapTimeFrame": [
        9.195102
      ],
      "railNumbers": [
        3
      ]
    },
    {
      "tapTimeFrame": [
        9.404081
      ],
      "railNumbers": [
        1
      ]
    },
    {
      "tapTimeFrame": [
        9.589841
      ],
      "railNumbers": [
        1
      ]
    },
    {
      "tapTimeFrame": [
        9.7756
      ],
      "railNumbers": [
        0
      ]
    },
    {
      "tapTimeFrame": [
        9.96136
      ],
      "railNumbers": [
        1
      ]
    },
    {
      "tapTimeFrame": [
        10.3560991
      ],
      "railNumbers": [
        1
      ]
    },
    {
      "tapTimeFrame": [
        10.54186
      ],
      "railNumbers": [
        0
      ]
    },
    {
      "tapTimeFrame": [
        10.7276192
      ],
      "railNumbers": [
        1
      ]
    },
    {
      "tapTimeFrame": [
        10.9365988
      ],
      "railNumbers": [
        2
      ]
    },
    {
      "tapTimeFrame": [
        11.1223583
      ],
      "railNumbers": [
        1
      ]
    },
    {
      "tapTimeFrame": [
        11.3081179
      ],
      "railNumbers": [
        0
      ]
    },
    {
      "tapTimeFrame": [
        11.4938774
      ],
      "railNumbers": [
        0
      ]
    },
    {
      "tapTimeFrame": [
        11.679637
      ],
      "railNumbers": [
        1
      ]
    },
    {
      "tapTimeFrame": [
        11.8886166
      ],
      "railNumbers": [
        3
      ]
    },
    {
      "tapTimeFrame": [
        12.0743761
      ],
      "railNumbers": [
        0
      ]
    },
    {
      "tapTimeFrame": [
        12.2601357
      ],
      "railNumbers": [
        1
      ]
    },
    {
      "tapTimeFrame": [
        12.4691153
      ],
      "railNumbers": [
        3
      ]
    },
    {
      "tapTimeFrame": [
        12.6316547
      ],
      "railNumbers": [
        1
      ]
    },
    {
      "tapTimeFrame": [
        12.8406343
      ],
      "railNumbers": [
        0
      ]
    },
    {
      "tapTimeFrame": [
        13.0263939
      ],
      "railNumbers": [
        1
      ]
    },
    {
      "tapTimeFrame": [
        13.2121544
      ],
      "railNumbers": [
        3
      ]
    },
    {
      "tapTimeFrame": [
        13.3979139
      ],
      "railNumbers": [
        1
      ]
    },
    {
      "tapTimeFrame": [
        13.6068935
      ],
      "railNumbers": [
        1
      ]
    },
    {
      "tapTimeFrame": [
        13.7926531
      ],
      "railNumbers": [
        2
      ]
    },
    {
      "tapTimeFrame": [
        13.9784126
      ],
      "railNumbers": [
        1
      ]
    },
    {
      "tapTimeFrame": [
        14.1641722
      ],
      "railNumbers": [
        0
      ]
    },
    {
      "tapTimeFrame": [
        14.3731518
      ],
      "railNumbers": [
        1
      ]
    },
    {
      "tapTimeFrame": [
        14.5589113
      ],
      "railNumbers": [
        1
      ]
    },
    {
      "tapTimeFrame": [
        14.7446709
      ],
      "railNumbers": [
        2
      ]
    },
    {
      "tapTimeFrame": [
        14.93043
      ],
      "railNumbers": [
        0
      ]
    },
    {
      "tapTimeFrame": [
        15.13941
      ],
      "railNumbers": [
        2
      ]
    },
    {
      "tapTimeFrame": [
        15.32517
      ],
      "railNumbers": [
        3
      ]
    },
    {
      "tapTimeFrame": [
        15.5109291
      ],
      "railNumbers": [
        1
      ]
    },
    {
      "tapTimeFrame": [
        15.6966887
      ],
      "railNumbers": [
        0
      ]
    },
    {
      "tapTimeFrame": [
        15.9056683
      ],
      "railNumbers": [
        2
      ]
    },
    {
      "tapTimeFrame": [
        16.0914288
      ],
      "railNumbers": [
        1
      ]
    },
    {
      "tapTimeFrame": [
        16.2771873
      ],
      "railNumbers": [
        1
      ]
    },
    {
      "tapTimeFrame": [
        16.4629478
      ],
      "railNumbers": [
        0
      ]
    },
    {
      "tapTimeFrame": [
        16.6719265
      ],
      "railNumbers": [
        1
      ]
    },
    {
      "tapTimeFrame": [
        16.857687
      ],
      "railNumbers": [
        1
      ]
    },
    {
      "tapTimeFrame": [
        17.0434456
      ],
      "railNumbers": [
        1
      ]
    },
    {
      "tapTimeFrame": [
        17.2292061
      ],
      "railNumbers": [
        0
      ]
    },
    {
      "tapTimeFrame": [
        17.4149666
      ],
      "railNumbers": [
        1
      ]
    },
    {
      "tapTimeFrame": [
        17.6239452
      ],
      "railNumbers": [
        2
      ]
    },
    {
      "tapTimeFrame": [
        17.8097057
      ],
      "railNumbers": [
        2
      ]
    },
    {
      "tapTimeFrame": [
        17.9954643
      ],
      "railNumbers": [
        0
      ]
    },
    {
      "tapTimeFrame": [
        18.1812248
      ],
      "railNumbers": [
        0
      ]
    },
    {
      "tapTimeFrame": [
        18.3669834
      ],
      "railNumbers": [
        2
      ]
    },
    {
      "tapTimeFrame": [
        18.575964
      ],
      "railNumbers": [
        1
      ]
    },
    {
      "tapTimeFrame": [
        18.7617226
      ],
      "railNumbers": [
        0
      ]
    },
    {
      "tapTimeFrame": [
        18.9474831
      ],
      "railNumbers": [
        0
      ]
    },
    {
      "tapTimeFrame": [
        19.1332417
      ],
      "railNumbers": [
        1
      ]
    },
    {
      "tapTimeFrame": [
        19.3422222
      ],
      "railNumbers": [
        2
      ]
    },
    {
      "tapTimeFrame": [
        19.52798
      ],
      "railNumbers": [
        1
      ]
    },
    {
      "tapTimeFrame": [
        19.7137413
      ],
      "railNumbers": [
        0
      ]
    },
    {
      "tapTimeFrame": [
        19.8995
      ],
      "railNumbers": [
        2
      ]
    },
    {
      "tapTimeFrame": [
        20.10848
      ],
      "railNumbers": [
        1
      ]
    },
    {
      "tapTimeFrame": [
        20.294239
      ],
      "railNumbers": [
        1
      ]
    },
    {
      "tapTimeFrame": [
        20.48
      ],
      "railNumbers": [
        0
      ]
    },
    {
      "tapTimeFrame": [
        20.66576
      ],
      "railNumbers": [
        0
      ]
    },
    {
      "tapTimeFrame": [
        20.8515186
      ],
      "railNumbers": [
        2
      ]
    },
    {
      "tapTimeFrame": [
        21.0605
      ],
      "railNumbers": [
        3
      ]
    },
    {
      "tapTimeFrame": [
        21.2462578
      ],
      "railNumbers": [
        1
      ]
    },
    {
      "tapTimeFrame": [
        21.4320183
      ],
      "railNumbers": [
        1
      ]
    },
    {
      "tapTimeFrame": [
        21.6177769
      ],
      "railNumbers": [
        1
      ]
    },
    {
      "tapTimeFrame": [
        21.8267574
      ],
      "railNumbers": [
        2
      ]
    },
    {
      "tapTimeFrame": [
        22.012516
      ],
      "railNumbers": [
        1
      ]
    },
    {
      "tapTimeFrame": [
        22.1982765
      ],
      "railNumbers": [
        0
      ]
    },
    {
      "tapTimeFrame": [
        22.3840351
      ],
      "railNumbers": [
        1
      ]
    },
    {
      "tapTimeFrame": [
        22.5697956
      ],
      "railNumbers": [
        1
      ]
    },
    {
      "tapTimeFrame": [
        22.7787743
      ],
      "railNumbers": [
        0
      ]
    },
    {
      "tapTimeFrame": [
        22.9645348
      ],
      "railNumbers": [
        2
      ]
    },
    {
      "tapTimeFrame": [
        23.1502953
      ],
      "railNumbers": [
        1
      ]
    },
    {
      "tapTimeFrame": [
        23.3360538
      ],
      "railNumbers": [
        0
      ]
    },
    {
      "tapTimeFrame": [
        23.5450344
      ],
      "railNumbers": [
        1
      ]
    },
    {
      "tapTimeFrame": [
        23.730793
      ],
      "railNumbers": [
        0
      ]
    },
    {
      "tapTimeFrame": [
        23.9165535
      ],
      "railNumbers": [
        0
      ]
    },
    {
      "tapTimeFrame": [
        24.1023121
      ],
      "railNumbers": [
        0
      ]
    },
    {
      "tapTimeFrame": [
        24.3112926
      ],
      "railNumbers": [
        1
      ]
    },
    {
      "tapTimeFrame": [
        24.4970512
      ],
      "railNumbers": [
        1
      ]
    },
    {
      "tapTimeFrame": [
        24.6828117
      ],
      "railNumbers": [
        1
      ]
    },
    {
      "tapTimeFrame": [
        24.86857
      ],
      "railNumbers": [
        1
      ]
    },
    {
      "tapTimeFrame": [
        25.07755
      ],
      "railNumbers": [
        3
      ]
    },
    {
      "tapTimeFrame": [
        25.26331
      ],
      "railNumbers": [
        2
      ]
    },
    {
      "tapTimeFrame": [
        25.6348286
      ],
      "railNumbers": [
        0
      ]
    },
    {
      "tapTimeFrame": [
        25.84381
      ],
      "railNumbers": [
        1
      ]
    },
    {
      "tapTimeFrame": [
        26.2153282
      ],
      "railNumbers": [
        1
      ]
    },
    {
      "tapTimeFrame": [
        26.4010887
      ],
      "railNumbers": [
        1
      ]
    },
    {
      "tapTimeFrame": [
        26.5868473
      ],
      "railNumbers": [
        2
      ]
    },
    {
      "tapTimeFrame": [
        26.7958279
      ],
      "railNumbers": [
        1
      ]
    },
    {
      "tapTimeFrame": [
        27.0048065
      ],
      "railNumbers": [
        3
      ]
    },
    {
      "tapTimeFrame": [
        27.167347
      ],
      "railNumbers": [
        1
      ]
    },
    {
      "tapTimeFrame": [
        27.3763256
      ],
      "railNumbers": [
        1
      ]
    },
    {
      "tapTimeFrame": [
        27.5620861
      ],
      "railNumbers": [
        3
      ]
    },
    {
      "tapTimeFrame": [
        27.7478447
      ],
      "railNumbers": [
        1
      ]
    },
    {
      "tapTimeFrame": [
        27.9336052
      ],
      "railNumbers": [
        1
      ]
    },
    {
      "tapTimeFrame": [
        28.1193638
      ],
      "railNumbers": [
        1
      ]
    },
    {
      "tapTimeFrame": [
        28.3051243
      ],
      "railNumbers": [
        1
      ]
    },
    {
      "tapTimeFrame": [
        28.6998634
      ],
      "railNumbers": [
        2
      ]
    },
    {
      "tapTimeFrame": [
        28.8856239
      ],
      "railNumbers": [
        1
      ]
    },
    {
      "tapTimeFrame": [
        29.0713825
      ],
      "railNumbers": [
        2
      ]
    },
    {
      "tapTimeFrame": [
        29.2803631
      ],
      "railNumbers": [
        2
      ]
    },
    {
      "tapTimeFrame": [
        29.4661217
      ],
      "railNumbers": [
        2
      ]
    },
    {
      "tapTimeFrame": [
        29.6518822
      ],
      "railNumbers": [
        1
      ]
    },
    {
      "tapTimeFrame": [
        29.86086
      ],
      "railNumbers": [
        0
      ]
    },
    {
      "tapTimeFrame": [
        30.0466213
      ],
      "railNumbers": [
        1
      ]
    },
    {
      "tapTimeFrame": [
        30.23238
      ],
      "railNumbers": [
        2
      ]
    },
    {
      "tapTimeFrame": [
        30.44136
      ],
      "railNumbers": [
        1
      ]
    },
    {
      "tapTimeFrame": [
        30.603899
      ],
      "railNumbers": [
        1
      ]
    },
    {
      "tapTimeFrame": [
        30.81288
      ],
      "railNumbers": [
        2
      ]
    },
    {
      "tapTimeFrame": [
        30.9754181
      ],
      "railNumbers": [
        1
      ]
    },
    {
      "tapTimeFrame": [
        31.1843987
      ],
      "railNumbers": [
        1
      ]
    },
    {
      "tapTimeFrame": [
        31.3701572
      ],
      "railNumbers": [
        1
      ]
    },
    {
      "tapTimeFrame": [
        31.5559177
      ],
      "railNumbers": [
        2
      ]
    },
    {
      "tapTimeFrame": [
        31.7416782
      ],
      "railNumbers": [
        1
      ]
    },
    {
      "tapTimeFrame": [
        31.9506569
      ],
      "railNumbers": [
        0
      ]
    },
    {
      "tapTimeFrame": [
        32.1364174
      ],
      "railNumbers": [
        3
      ]
    },
    {
      "tapTimeFrame": [
        32.3221779
      ],
      "railNumbers": [
        2
      ]
    },
    {
      "tapTimeFrame": [
        32.5079346
      ],
      "railNumbers": [
        0
      ]
    },
    {
      "tapTimeFrame": [
        32.7169151
      ],
      "railNumbers": [
        2
      ]
    },
    {
      "tapTimeFrame": [
        32.9026756
      ],
      "railNumbers": [
        0
      ]
    },
    {
      "tapTimeFrame": [
        33.0884361
      ],
      "railNumbers": [
        2
      ]
    },
    {
      "tapTimeFrame": [
        33.2741928
      ],
      "railNumbers": [
        1
      ]
    },
    {
      "tapTimeFrame": [
        33.4831734
      ],
      "railNumbers": [
        1
      ]
    },
    {
      "tapTimeFrame": [
        33.6689339
      ],
      "railNumbers": [
        1
      ]
    },
    {
      "tapTimeFrame": [
        33.8546944
      ],
      "railNumbers": [
        3
      ]
    },
    {
      "tapTimeFrame": [
        34.04045
      ],
      "railNumbers": [
        0
      ]
    },
    {
      "tapTimeFrame": [
        34.24943
      ],
      "railNumbers": [
        3
      ]
    },
    {
      "tapTimeFrame": [
        34.4351921
      ],
      "railNumbers": [
        2
      ]
    },
    {
      "tapTimeFrame": [
        34.6209526
      ],
      "railNumbers": [
        2
      ]
    },
    {
      "tapTimeFrame": [
        34.8067131
      ],
      "railNumbers": [
        0
      ]
    },
    {
      "tapTimeFrame": [
        35.01569
      ],
      "railNumbers": [
        1
      ]
    },
    {
      "tapTimeFrame": [
        35.38721
      ],
      "railNumbers": [
        1
      ]
    },
    {
      "tapTimeFrame": [
        35.50331
      ],
      "railNumbers": [
        2
      ]
    },
    {
      "tapTimeFrame": [
        35.758728
      ],
      "railNumbers": [
        0
      ]
    },
    {
      "tapTimeFrame": [
        35.96771
      ],
      "railNumbers": [
        0
      ]
    },
    {
      "tapTimeFrame": [
        36.15347
      ],
      "railNumbers": [
        2
      ]
    },
    {
      "tapTimeFrame": [
        36.33923
      ],
      "railNumbers": [
        0
      ]
    },
    {
      "tapTimeFrame": [
        36.5249863
      ],
      "railNumbers": [
        0
      ]
    },
    {
      "tapTimeFrame": [
        36.7107468
      ],
      "railNumbers": [
        2
      ]
    },
    {
      "tapTimeFrame": [
        37.1054878
      ],
      "railNumbers": [
        1
      ]
    },
    {
      "tapTimeFrame": [
        37.29125
      ],
      "railNumbers": [
        0
      ]
    },
    {
      "tapTimeFrame": [
        37.477005
      ],
      "railNumbers": [
        2
      ]
    },
    {
      "tapTimeFrame": [
        37.6859856
      ],
      "railNumbers": [
        3
      ]
    },
    {
      "tapTimeFrame": [
        37.8717461
      ],
      "railNumbers": [
        1
      ]
    },
    {
      "tapTimeFrame": [
        38.0575066
      ],
      "railNumbers": [
        0
      ]
    },
    {
      "tapTimeFrame": [
        38.1736031
      ],
      "railNumbers": [
        3
      ]
    },
    {
      "tapTimeFrame": [
        38.5451241
      ],
      "railNumbers": [
        2
      ]
    },
    {
      "tapTimeFrame": [
        38.6612244
      ],
      "railNumbers": [
        3
      ]
    },
    {
      "tapTimeFrame": [
        38.8237648
      ],
      "railNumbers": [
        0
      ]
    },
    {
      "tapTimeFrame": [
        39.00952
      ],
      "railNumbers": [
        1
      ]
    },
    {
      "tapTimeFrame": [
        39.4274826
      ],
      "railNumbers": [
        2
      ]
    },
    {
      "tapTimeFrame": [
        39.590023
      ],
      "railNumbers": [
        0
      ]
    },
    {
      "tapTimeFrame": [
        39.77578
      ],
      "railNumbers": [
        2
      ]
    },
    {
      "tapTimeFrame": [
        39.96154
      ],
      "railNumbers": [
        1
      ]
    },
    {
      "tapTimeFrame": [
        40.1473
      ],
      "railNumbers": [
        1
      ]
    },
    {
      "tapTimeFrame": [
        40.35628
      ],
      "railNumbers": [
        1
      ]
    },
    {
      "tapTimeFrame": [
        40.54204
      ],
      "railNumbers": [
        0
      ]
    },
    {
      "tapTimeFrame": [
        40.91356
      ],
      "railNumbers": [
        0
      ]
    },
    {
      "tapTimeFrame": [
        41.12254
      ],
      "railNumbers": [
        0
      ]
    },
    {
      "tapTimeFrame": [
        41.3083
      ],
      "railNumbers": [
        0
      ]
    },
    {
      "tapTimeFrame": [
        41.5172768
      ],
      "railNumbers": [
        1
      ]
    },
    {
      "tapTimeFrame": [
        41.6798172
      ],
      "railNumbers": [
        0
      ]
    },
    {
      "tapTimeFrame": [
        41.8887978
      ],
      "railNumbers": [
        1
      ]
    },
    {
      "tapTimeFrame": [
        42.07456
      ],
      "railNumbers": [
        1
      ]
    },
    {
      "tapTimeFrame": [
        42.283535
      ],
      "railNumbers": [
        2
      ]
    },
    {
      "tapTimeFrame": [
        42.4460754
      ],
      "railNumbers": [
        0
      ]
    },
    {
      "tapTimeFrame": [
        42.6318359
      ],
      "railNumbers": [
        1
      ]
    },
    {
      "tapTimeFrame": [
        42.8408165
      ],
      "railNumbers": [
        2
      ]
    },
    {
      "tapTimeFrame": [
        43.026577
      ],
      "railNumbers": [
        2
      ]
    },
    {
      "tapTimeFrame": [
        43.2123337
      ],
      "railNumbers": [
        0
      ]
    },
    {
      "tapTimeFrame": [
        43.4213142
      ],
      "railNumbers": [
        1
      ]
    },
    {
      "tapTimeFrame": [
        43.6070747
      ],
      "railNumbers": [
        2
      ]
    },
    {
      "tapTimeFrame": [
        43.7928352
      ],
      "railNumbers": [
        3
      ]
    },
    {
      "tapTimeFrame": [
        43.9785919
      ],
      "railNumbers": [
        0
      ]
    },
    {
      "tapTimeFrame": [
        44.1643524
      ],
      "railNumbers": [
        0
      ]
    },
    {
      "tapTimeFrame": [
        44.2804527
      ],
      "railNumbers": [
        1
      ]
    },
    {
      "tapTimeFrame": [
        44.5590935
      ],
      "railNumbers": [
        0
      ]
    },
    {
      "tapTimeFrame": [
        44.6751938
      ],
      "railNumbers": [
        3
      ]
    },
    {
      "tapTimeFrame": [
        44.79129
      ],
      "railNumbers": [
        3
      ]
    },
    {
      "tapTimeFrame": [
        44.93061
      ],
      "railNumbers": [
        0
      ]
    },
    {
      "tapTimeFrame": [
        45.13959
      ],
      "railNumbers": [
        1
      ]
    },
    {
      "tapTimeFrame": [
        45.51111
      ],
      "railNumbers": [
        0
      ]
    },
    {
      "tapTimeFrame": [
        45.69687
      ],
      "railNumbers": [
        0
      ]
    },
    {
      "tapTimeFrame": [
        45.88263
      ],
      "railNumbers": [
        3
      ]
    },
    {
      "tapTimeFrame": [
        46.09161
      ],
      "railNumbers": [
        1
      ]
    },
    {
      "tapTimeFrame": [
        46.27737
      ],
      "railNumbers": [
        0
      ]
    },
    {
      "tapTimeFrame": [
        46.4631271
      ],
      "railNumbers": [
        1
      ]
    },
    {
      "tapTimeFrame": [
        46.6488876
      ],
      "railNumbers": [
        0
      ]
    },
    {
      "tapTimeFrame": [
        46.85787
      ],
      "railNumbers": [
        2
      ]
    },
    {
      "tapTimeFrame": [
        47.04363
      ],
      "railNumbers": [
        0
      ]
    },
    {
      "tapTimeFrame": [
        47.2293854
      ],
      "railNumbers": [
        0
      ]
    },
    {
      "tapTimeFrame": [
        47.4151459
      ],
      "railNumbers": [
        2
      ]
    },
    {
      "tapTimeFrame": [
        47.6241264
      ],
      "railNumbers": [
        1
      ]
    },
    {
      "tapTimeFrame": [
        47.8098869
      ],
      "railNumbers": [
        1
      ]
    },
    {
      "tapTimeFrame": [
        47.9956436
      ],
      "railNumbers": [
        0
      ]
    },
    {
      "tapTimeFrame": [
        48.1814041
      ],
      "railNumbers": [
        0
      ]
    },
    {
      "tapTimeFrame": [
        48.3903847
      ],
      "railNumbers": [
        1
      ]
    },
    {
      "tapTimeFrame": [
        48.5761452
      ],
      "railNumbers": [
        1
      ]
    },
    {
      "tapTimeFrame": [
        48.7619057
      ],
      "railNumbers": [
        2
      ]
    },
    {
      "tapTimeFrame": [
        48.9476624
      ],
      "railNumbers": [
        0
      ]
    },
    {
      "tapTimeFrame": [
        49.1566429
      ],
      "railNumbers": [
        3
      ]
    },
    {
      "tapTimeFrame": [
        49.3424034
      ],
      "railNumbers": [
        1
      ]
    },
    {
      "tapTimeFrame": [
        49.5281639
      ],
      "railNumbers": [
        1
      ]
    },
    {
      "tapTimeFrame": [
        49.71392
      ],
      "railNumbers": [
        0
      ]
    },
    {
      "tapTimeFrame": [
        49.89968
      ],
      "railNumbers": [
        0
      ]
    },
    {
      "tapTimeFrame": [
        50.08544
      ],
      "railNumbers": [
        0
      ]
    },
    {
      "tapTimeFrame": [
        50.2944221
      ],
      "railNumbers": [
        0
      ]
    },
    {
      "tapTimeFrame": [
        50.48018
      ],
      "railNumbers": [
        0
      ]
    },
    {
      "tapTimeFrame": [
        50.66594
      ],
      "railNumbers": [
        1
      ]
    },
    {
      "tapTimeFrame": [
        50.78204
      ],
      "railNumbers": [
        2
      ]
    },
    {
      "tapTimeFrame": [
        51.06068
      ],
      "railNumbers": [
        1
      ]
    },
    {
      "tapTimeFrame": [
        51.2464371
      ],
      "railNumbers": [
        0
      ]
    },
    {
      "tapTimeFrame": [
        51.6179581
      ],
      "railNumbers": [
        0
      ]
    },
    {
      "tapTimeFrame": [
        51.80372
      ],
      "railNumbers": [
        0
      ]
    },
    {
      "tapTimeFrame": [
        52.0127
      ],
      "railNumbers": [
        1
      ]
    },
    {
      "tapTimeFrame": [
        52.1984558
      ],
      "railNumbers": [
        1
      ]
    },
    {
      "tapTimeFrame": [
        52.3842163
      ],
      "railNumbers": [
        0
      ]
    },
    {
      "tapTimeFrame": [
        52.5699768
      ],
      "railNumbers": [
        1
      ]
    },
    {
      "tapTimeFrame": [
        52.7789574
      ],
      "railNumbers": [
        1
      ]
    },
    {
      "tapTimeFrame": [
        52.9647141
      ],
      "railNumbers": [
        0
      ]
    },
    {
      "tapTimeFrame": [
        53.1504745
      ],
      "railNumbers": [
        0
      ]
    },
    {
      "tapTimeFrame": [
        53.336235
      ],
      "railNumbers": [
        0
      ]
    },
    {
      "tapTimeFrame": [
        53.4523354
      ],
      "railNumbers": [
        3
      ]
    },
    {
      "tapTimeFrame": [
        53.7309723
      ],
      "railNumbers": [
        0
      ]
    },
    {
      "tapTimeFrame": [
        53.9167328
      ],
      "railNumbers": [
        0
      ]
    },
    {
      "tapTimeFrame": [
        54.1024933
      ],
      "railNumbers": [
        0
      ]
    },
    {
      "tapTimeFrame": [
        54.3114738
      ],
      "railNumbers": [
        1
      ]
    },
    {
      "tapTimeFrame": [
        54.4972343
      ],
      "railNumbers": [
        1
      ]
    },
    {
      "tapTimeFrame": [
        54.68299
      ],
      "railNumbers": [
        0
      ]
    },
    {
      "tapTimeFrame": [
        54.86875
      ],
      "railNumbers": [
        0
      ]
    },
    {
      "tapTimeFrame": [
        55.054512
      ],
      "railNumbers": [
        1
      ]
    },
    {
      "tapTimeFrame": [
        55.44925
      ],
      "railNumbers": [
        0
      ]
    },
    {
      "tapTimeFrame": [
        55.63501
      ],
      "railNumbers": [
        0
      ]
    },
    {
      "tapTimeFrame": [
        55.82077
      ],
      "railNumbers": [
        1
      ]
    },
    {
      "tapTimeFrame": [
        56.02975
      ],
      "railNumbers": [
        1
      ]
    },
    {
      "tapTimeFrame": [
        56.2155075
      ],
      "railNumbers": [
        0
      ]
    },
    {
      "tapTimeFrame": [
        56.401268
      ],
      "railNumbers": [
        0
      ]
    },
    {
      "tapTimeFrame": [
        56.58703
      ],
      "railNumbers": [
        3
      ]
    },
    {
      "tapTimeFrame": [
        56.79601
      ],
      "railNumbers": [
        2
      ]
    },
    {
      "tapTimeFrame": [
        56.98177
      ],
      "railNumbers": [
        0
      ]
    },
    {
      "tapTimeFrame": [
        57.1675262
      ],
      "railNumbers": [
        0
      ]
    },
    {
      "tapTimeFrame": [
        57.3532867
      ],
      "railNumbers": [
        0
      ]
    },
    {
      "tapTimeFrame": [
        57.7480278
      ],
      "railNumbers": [
        1
      ]
    },
    {
      "tapTimeFrame": [
        57.9337845
      ],
      "railNumbers": [
        0
      ]
    },
    {
      "tapTimeFrame": [
        58.119545
      ],
      "railNumbers": [
        0
      ]
    },
    {
      "tapTimeFrame": [
        58.3053055
      ],
      "railNumbers": [
        1
      ]
    },
    {
      "tapTimeFrame": [
        58.491066
      ],
      "railNumbers": [
        2
      ]
    },
    {
      "tapTimeFrame": [
        58.7000427
      ],
      "railNumbers": [
        0
      ]
    },
    {
      "tapTimeFrame": [
        58.8858032
      ],
      "railNumbers": [
        1
      ]
    },
    {
      "tapTimeFrame": [
        59.2573242
      ],
      "railNumbers": [
        0
      ]
    },
    {
      "tapTimeFrame": [
        59.4663
      ],
      "railNumbers": [
        0
      ]
    },
    {
      "tapTimeFrame": [
        59.65206
      ],
      "railNumbers": [
        1
      ]
    },
    {
      "tapTimeFrame": [
        59.9539223
      ],
      "railNumbers": [
        2
      ]
    },
    {
      "tapTimeFrame": [
        60.209343
      ],
      "railNumbers": [
        1
      ]
    },
    {
      "tapTimeFrame": [
        60.41832
      ],
      "railNumbers": [
        3
      ]
    },
    {
      "tapTimeFrame": [
        60.60408
      ],
      "railNumbers": [
        1
      ]
    },
    {
      "tapTimeFrame": [
        60.78984
      ],
      "railNumbers": [
        0
      ]
    },
    {
      "tapTimeFrame": [
        60.9756
      ],
      "railNumbers": [
        2
      ]
    },
    {
      "tapTimeFrame": [
        61.1845779
      ],
      "railNumbers": [
        2
      ]
    },
    {
      "tapTimeFrame": [
        61.37034
      ],
      "railNumbers": [
        1
      ]
    },
    {
      "tapTimeFrame": [
        61.5561
      ],
      "railNumbers": [
        0
      ]
    },
    {
      "tapTimeFrame": [
        61.76508
      ],
      "railNumbers": [
        3
      ]
    },
    {
      "tapTimeFrame": [
        61.9508362
      ],
      "railNumbers": [
        1
      ]
    },
    {
      "tapTimeFrame": [
        62.1365967
      ],
      "railNumbers": [
        0
      ]
    },
    {
      "tapTimeFrame": [
        62.3223572
      ],
      "railNumbers": [
        0
      ]
    },
    {
      "tapTimeFrame": [
        62.5081177
      ],
      "railNumbers": [
        0
      ]
    },
    {
      "tapTimeFrame": [
        62.624218
      ],
      "railNumbers": [
        3
      ]
    },
    {
      "tapTimeFrame": [
        62.9028549
      ],
      "railNumbers": [
        0
      ]
    },
    {
      "tapTimeFrame": [
        63.0189552
      ],
      "railNumbers": [
        3
      ]
    },
    {
      "tapTimeFrame": [
        63.1350555
      ],
      "railNumbers": [
        3
      ]
    },
    {
      "tapTimeFrame": [
        63.2743759
      ],
      "railNumbers": [
        0
      ]
    },
    {
      "tapTimeFrame": [
        63.4833565
      ],
      "railNumbers": [
        1
      ]
    },
    {
      "tapTimeFrame": [
        63.8548737
      ],
      "railNumbers": [
        0
      ]
    },
    {
      "tapTimeFrame": [
        64.0406342
      ],
      "railNumbers": [
        0
      ]
    },
    {
      "tapTimeFrame": [
        64.2263947
      ],
      "railNumbers": [
        1
      ]
    },
    {
      "tapTimeFrame": [
        64.43537
      ],
      "railNumbers": [
        1
      ]
    },
    {
      "tapTimeFrame": [
        64.62113
      ],
      "railNumbers": [
        0
      ]
    },
    {
      "tapTimeFrame": [
        64.80689
      ],
      "railNumbers": [
        0
      ]
    },
    {
      "tapTimeFrame": [
        64.99265
      ],
      "railNumbers": [
        0
      ]
    },
    {
      "tapTimeFrame": [
        65.20163
      ],
      "railNumbers": [
        1
      ]
    },
    {
      "tapTimeFrame": [
        65.38739
      ],
      "railNumbers": [
        0
      ]
    },
    {
      "tapTimeFrame": [
        65.57315
      ],
      "railNumbers": [
        0
      ]
    },
    {
      "tapTimeFrame": [
        65.75891
      ],
      "railNumbers": [
        0
      ]
    },
    {
      "tapTimeFrame": [
        65.96789
      ],
      "railNumbers": [
        1
      ]
    },
    {
      "tapTimeFrame": [
        66.15365
      ],
      "railNumbers": [
        1
      ]
    },
    {
      "tapTimeFrame": [
        66.33941
      ],
      "railNumbers": [
        0
      ]
    },
    {
      "tapTimeFrame": [
        66.52517
      ],
      "railNumbers": [
        0
      ]
    },
    {
      "tapTimeFrame": [
        66.71093
      ],
      "railNumbers": [
        3
      ]
    },
    {
      "tapTimeFrame": [
        66.91991
      ],
      "railNumbers": [
        0
      ]
    },
    {
      "tapTimeFrame": [
        67.10567
      ],
      "railNumbers": [
        1
      ]
    },
    {
      "tapTimeFrame": [
        67.29143
      ],
      "railNumbers": [
        0
      ]
    },
    {
      "tapTimeFrame": [
        67.6861649
      ],
      "railNumbers": [
        0
      ]
    },
    {
      "tapTimeFrame": [
        67.8719254
      ],
      "railNumbers": [
        0
      ]
    },
    {
      "tapTimeFrame": [
        68.0576859
      ],
      "railNumbers": [
        0
      ]
    },
    {
      "tapTimeFrame": [
        68.24345
      ],
      "railNumbers": [
        0
      ]
    },
    {
      "tapTimeFrame": [
        68.42921
      ],
      "railNumbers": [
        0
      ]
    },
    {
      "tapTimeFrame": [
        68.63818
      ],
      "railNumbers": [
        0
      ]
    },
    {
      "tapTimeFrame": [
        68.8239441
      ],
      "railNumbers": [
        1
      ]
    },
    {
      "tapTimeFrame": [
        69.0097046
      ],
      "railNumbers": [
        2
      ]
    },
    {
      "tapTimeFrame": [
        69.1258
      ],
      "railNumbers": [
        2
      ]
    },
    {
      "tapTimeFrame": [
        69.40444
      ],
      "railNumbers": [
        0
      ]
    },
    {
      "tapTimeFrame": [
        69.5902
      ],
      "railNumbers": [
        0
      ]
    },
    {
      "tapTimeFrame": [
        69.96172
      ],
      "railNumbers": [
        0
      ]
    },
    {
      "tapTimeFrame": [
        70.1474838
      ],
      "railNumbers": [
        1
      ]
    },
    {
      "tapTimeFrame": [
        70.35646
      ],
      "railNumbers": [
        0
      ]
    },
    {
      "tapTimeFrame": [
        70.54222
      ],
      "railNumbers": [
        0
      ]
    },
    {
      "tapTimeFrame": [
        70.72798
      ],
      "railNumbers": [
        0
      ]
    },
    {
      "tapTimeFrame": [
        70.93696
      ],
      "railNumbers": [
        1
      ]
    },
    {
      "tapTimeFrame": [
        71.12272
      ],
      "railNumbers": [
        1
      ]
    },
    {
      "tapTimeFrame": [
        71.30848
      ],
      "railNumbers": [
        2
      ]
    },
    {
      "tapTimeFrame": [
        71.49424
      ],
      "railNumbers": [
        0
      ]
    },
    {
      "tapTimeFrame": [
        71.68
      ],
      "railNumbers": [
        1
      ]
    },
    {
      "tapTimeFrame": [
        71.7961
      ],
      "railNumbers": [
        3
      ]
    },
    {
      "tapTimeFrame": [
        71.9122
      ],
      "railNumbers": [
        3
      ]
    },
    {
      "tapTimeFrame": [
        72.2605
      ],
      "railNumbers": [
        0
      ]
    },
    {
      "tapTimeFrame": [
        72.44626
      ],
      "railNumbers": [
        0
      ]
    },
    {
      "tapTimeFrame": [
        72.8409958
      ],
      "railNumbers": [
        3
      ]
    },
    {
      "tapTimeFrame": [
        73.02676
      ],
      "railNumbers": [
        0
      ]
    },
    {
      "tapTimeFrame": [
        73.21252
      ],
      "railNumbers": [
        0
      ]
    },
    {
      "tapTimeFrame": [
        73.42149
      ],
      "railNumbers": [
        1
      ]
    },
    {
      "tapTimeFrame": [
        73.607254
      ],
      "railNumbers": [
        3
      ]
    },
    {
      "tapTimeFrame": [
        73.7930145
      ],
      "railNumbers": [
        1
      ]
    },
    {
      "tapTimeFrame": [
        73.978775
      ],
      "railNumbers": [
        0
      ]
    },
    {
      "tapTimeFrame": [
        74.1645355
      ],
      "railNumbers": [
        1
      ]
    },
    {
      "tapTimeFrame": [
        74.37351
      ],
      "railNumbers": [
        2
      ]
    },
    {
      "tapTimeFrame": [
        74.55927
      ],
      "railNumbers": [
        0
      ]
    },
    {
      "tapTimeFrame": [
        74.74503
      ],
      "railNumbers": [
        0
      ]
    },
    {
      "tapTimeFrame": [
        74.93079
      ],
      "railNumbers": [
        1
      ]
    },
    {
      "tapTimeFrame": [
        75.13977
      ],
      "railNumbers": [
        2
      ]
    },
    {
      "tapTimeFrame": [
        75.32553
      ],
      "railNumbers": [
        0
      ]
    },
    {
      "tapTimeFrame": [
        75.51129
      ],
      "railNumbers": [
        0
      ]
    },
    {
      "tapTimeFrame": [
        75.69705
      ],
      "railNumbers": [
        1
      ]
    },
    {
      "tapTimeFrame": [
        75.88281
      ],
      "railNumbers": [
        2
      ]
    },
    {
      "tapTimeFrame": [
        76.09179
      ],
      "railNumbers": [
        1
      ]
    },
    {
      "tapTimeFrame": [
        76.27755
      ],
      "railNumbers": [
        0
      ]
    },
    {
      "tapTimeFrame": [
        76.46331
      ],
      "railNumbers": [
        0
      ]
    },
    {
      "tapTimeFrame": [
        76.85805
      ],
      "railNumbers": [
        0
      ]
    },
    {
      "tapTimeFrame": [
        77.04381
      ],
      "railNumbers": [
        1
      ]
    },
    {
      "tapTimeFrame": [
        77.22957
      ],
      "railNumbers": [
        0
      ]
    },
    {
      "tapTimeFrame": [
        77.41533
      ],
      "railNumbers": [
        1
      ]
    },
    {
      "tapTimeFrame": [
        77.60109
      ],
      "railNumbers": [
        0
      ]
    },
    {
      "tapTimeFrame": [
        77.81007
      ],
      "railNumbers": [
        0
      ]
    },
    {
      "tapTimeFrame": [
        77.99583
      ],
      "railNumbers": [
        0
      ]
    },
    {
      "tapTimeFrame": [
        78.18159
      ],
      "railNumbers": [
        1
      ]
    },
    {
      "tapTimeFrame": [
        78.36735
      ],
      "railNumbers": [
        0
      ]
    },
    {
      "tapTimeFrame": [
        78.5763245
      ],
      "railNumbers": [
        0
      ]
    },
    {
      "tapTimeFrame": [
        78.762085
      ],
      "railNumbers": [
        0
      ]
    },
    {
      "tapTimeFrame": [
        78.9478455
      ],
      "railNumbers": [
        2
      ]
    },
    {
      "tapTimeFrame": [
        79.133606
      ],
      "railNumbers": [
        0
      ]
    },
    {
      "tapTimeFrame": [
        79.31937
      ],
      "railNumbers": [
        1
      ]
    },
    {
      "tapTimeFrame": [
        79.52834
      ],
      "railNumbers": [
        1
      ]
    },
    {
      "tapTimeFrame": [
        79.7141
      ],
      "railNumbers": [
        2
      ]
    },
    {
      "tapTimeFrame": [
        79.8998642
      ],
      "railNumbers": [
        0
      ]
    },
    {
      "tapTimeFrame": [
        80.10884
      ],
      "railNumbers": [
        2
      ]
    },
    {
      "tapTimeFrame": [
        80.2946
      ],
      "railNumbers": [
        1
      ]
    },
    {
      "tapTimeFrame": [
        80.48036
      ],
      "railNumbers": [
        2
      ]
    },
    {
      "tapTimeFrame": [
        80.66612
      ],
      "railNumbers": [
        0
      ]
    },
    {
      "tapTimeFrame": [
        80.85188
      ],
      "railNumbers": [
        0
      ]
    },
    {
      "tapTimeFrame": [
        81.06086
      ],
      "railNumbers": [
        3
      ]
    },
    {
      "tapTimeFrame": [
        81.24662
      ],
      "railNumbers": [
        1
      ]
    },
    {
      "tapTimeFrame": [
        81.43238
      ],
      "railNumbers": [
        0
      ]
    },
    {
      "tapTimeFrame": [
        81.61814
      ],
      "railNumbers": [
        0
      ]
    },
    {
      "tapTimeFrame": [
        81.82712
      ],
      "railNumbers": [
        1
      ]
    },
    {
      "tapTimeFrame": [
        82.01288
      ],
      "railNumbers": [
        2
      ]
    },
    {
      "tapTimeFrame": [
        82.19864
      ],
      "railNumbers": [
        0
      ]
    },
    {
      "tapTimeFrame": [
        82.3844
      ],
      "railNumbers": [
        0
      ]
    },
    {
      "tapTimeFrame": [
        82.57016
      ],
      "railNumbers": [
        1
      ]
    },
    {
      "tapTimeFrame": [
        82.77914
      ],
      "railNumbers": [
        1
      ]
    },
    {
      "tapTimeFrame": [
        82.9649
      ],
      "railNumbers": [
        0
      ]
    },
    {
      "tapTimeFrame": [
        83.15066
      ],
      "railNumbers": [
        0
      ]
    },
    {
      "tapTimeFrame": [
        83.33642
      ],
      "railNumbers": [
        2
      ]
    },
    {
      "tapTimeFrame": [
        83.5453949
      ],
      "railNumbers": [
        1
      ]
    },
    {
      "tapTimeFrame": [
        83.7311554
      ],
      "railNumbers": [
        1
      ]
    },
    {
      "tapTimeFrame": [
        83.9169159
      ],
      "railNumbers": [
        0
      ]
    },
    {
      "tapTimeFrame": [
        84.10268
      ],
      "railNumbers": [
        3
      ]
    },
    {
      "tapTimeFrame": [
        84.31165
      ],
      "railNumbers": [
        1
      ]
    },
    {
      "tapTimeFrame": [
        84.49741
      ],
      "railNumbers": [
        1
      ]
    },
    {
      "tapTimeFrame": [
        84.6831741
      ],
      "railNumbers": [
        0
      ]
    },
    {
      "tapTimeFrame": [
        84.8689346
      ],
      "railNumbers": [
        0
      ]
    },
    {
      "tapTimeFrame": [
        85.26367
      ],
      "railNumbers": [
        0
      ]
    },
    {
      "tapTimeFrame": [
        85.44943
      ],
      "railNumbers": [
        0
      ]
    },
    {
      "tapTimeFrame": [
        85.63519
      ],
      "railNumbers": [
        1
      ]
    },
    {
      "tapTimeFrame": [
        85.84417
      ],
      "railNumbers": [
        3
      ]
    },
    {
      "tapTimeFrame": [
        86.02993
      ],
      "railNumbers": [
        1
      ]
    },
    {
      "tapTimeFrame": [
        86.40145
      ],
      "railNumbers": [
        1
      ]
    },
    {
      "tapTimeFrame": [
        86.58721
      ],
      "railNumbers": [
        0
      ]
    },
    {
      "tapTimeFrame": [
        86.77297
      ],
      "railNumbers": [
        1
      ]
    },
    {
      "tapTimeFrame": [
        86.98195
      ],
      "railNumbers": [
        1
      ]
    },
    {
      "tapTimeFrame": [
        87.16771
      ],
      "railNumbers": [
        1
      ]
    },
    {
      "tapTimeFrame": [
        87.35347
      ],
      "railNumbers": [
        0
      ]
    },
    {
      "tapTimeFrame": [
        87.53923
      ],
      "railNumbers": [
        0
      ]
    },
    {
      "tapTimeFrame": [
        87.74821
      ],
      "railNumbers": [
        1
      ]
    },
    {
      "tapTimeFrame": [
        87.93397
      ],
      "railNumbers": [
        0
      ]
    },
    {
      "tapTimeFrame": [
        88.11973
      ],
      "railNumbers": [
        1
      ]
    },
    {
      "tapTimeFrame": [
        88.30549
      ],
      "railNumbers": [
        0
      ]
    },
    {
      "tapTimeFrame": [
        88.5144653
      ],
      "railNumbers": [
        1
      ]
    },
    {
      "tapTimeFrame": [
        88.7002258
      ],
      "railNumbers": [
        0
      ]
    },
    {
      "tapTimeFrame": [
        88.88599
      ],
      "railNumbers": [
        3
      ]
    },
    {
      "tapTimeFrame": [
        89.07175
      ],
      "railNumbers": [
        0
      ]
    },
    {
      "tapTimeFrame": [
        89.28072
      ],
      "railNumbers": [
        2
      ]
    },
    {
      "tapTimeFrame": [
        89.4664841
      ],
      "railNumbers": [
        2
      ]
    },
    {
      "tapTimeFrame": [
        89.6522446
      ],
      "railNumbers": [
        0
      ]
    },
    {
      "tapTimeFrame": [
        89.8380051
      ],
      "railNumbers": [
        0
      ]
    },
    {
      "tapTimeFrame": [
        90.0237656
      ],
      "railNumbers": [
        1
      ]
    },
    {
      "tapTimeFrame": [
        90.23274
      ],
      "railNumbers": [
        3
      ]
    },
    {
      "tapTimeFrame": [
        90.4185
      ],
      "railNumbers": [
        0
      ]
    },
    {
      "tapTimeFrame": [
        90.60426
      ],
      "railNumbers": [
        1
      ]
    },
    {
      "tapTimeFrame": [
        90.79002
      ],
      "railNumbers": [
        0
      ]
    },
    {
      "tapTimeFrame": [
        90.999
      ],
      "railNumbers": [
        1
      ]
    },
    {
      "tapTimeFrame": [
        91.18476
      ],
      "railNumbers": [
        1
      ]
    },
    {
      "tapTimeFrame": [
        91.37052
      ],
      "railNumbers": [
        0
      ]
    },
    {
      "tapTimeFrame": [
        91.55628
      ],
      "railNumbers": [
        0
      ]
    },
    {
      "tapTimeFrame": [
        91.74204
      ],
      "railNumbers": [
        1
      ]
    },
    {
      "tapTimeFrame": [
        91.95102
      ],
      "railNumbers": [
        1
      ]
    },
    {
      "tapTimeFrame": [
        92.13678
      ],
      "railNumbers": [
        1
      ]
    },
    {
      "tapTimeFrame": [
        92.32254
      ],
      "railNumbers": [
        0
      ]
    },
    {
      "tapTimeFrame": [
        92.53152
      ],
      "railNumbers": [
        2
      ]
    },
    {
      "tapTimeFrame": [
        92.67084
      ],
      "railNumbers": [
        3
      ]
    },
    {
      "tapTimeFrame": [
        92.90304
      ],
      "railNumbers": [
        0
      ]
    },
    {
      "tapTimeFrame": [
        93.0888
      ],
      "railNumbers": [
        0
      ]
    },
    {
      "tapTimeFrame": [
        93.27456
      ],
      "railNumbers": [
        2
      ]
    },
    {
      "tapTimeFrame": [
        93.46032
      ],
      "railNumbers": [
        1
      ]
    },
    {
      "tapTimeFrame": [
        93.6693
      ],
      "railNumbers": [
        0
      ]
    },
    {
      "tapTimeFrame": [
        93.85506
      ],
      "railNumbers": [
        0
      ]
    },
    {
      "tapTimeFrame": [
        94.04082
      ],
      "railNumbers": [
        0
      ]
    },
    {
      "tapTimeFrame": [
        94.22658
      ],
      "railNumbers": [
        1
      ]
    },
    {
      "tapTimeFrame": [
        94.4355545
      ],
      "railNumbers": [
        1
      ]
    },
    {
      "tapTimeFrame": [
        94.621315
      ],
      "railNumbers": [
        0
      ]
    },
    {
      "tapTimeFrame": [
        94.8070755
      ],
      "railNumbers": [
        0
      ]
    },
    {
      "tapTimeFrame": [
        94.992836
      ],
      "railNumbers": [
        2
      ]
    },
    {
      "tapTimeFrame": [
        95.20181
      ],
      "railNumbers": [
        1
      ]
    },
    {
      "tapTimeFrame": [
        95.38757
      ],
      "railNumbers": [
        2
      ]
    },
    {
      "tapTimeFrame": [
        95.57333
      ],
      "railNumbers": [
        0
      ]
    },
    {
      "tapTimeFrame": [
        95.7590942
      ],
      "railNumbers": [
        1
      ]
    },
    {
      "tapTimeFrame": [
        95.94485
      ],
      "railNumbers": [
        1
      ]
    },
    {
      "tapTimeFrame": [
        96.15383
      ],
      "railNumbers": [
        0
      ]
    },
    {
      "tapTimeFrame": [
        96.33959
      ],
      "railNumbers": [
        1
      ]
    },
    {
      "tapTimeFrame": [
        96.52535
      ],
      "railNumbers": [
        0
      ]
    },
    {
      "tapTimeFrame": [
        96.71111
      ],
      "railNumbers": [
        0
      ]
    },
    {
      "tapTimeFrame": [
        96.92009
      ],
      "railNumbers": [
        0
      ]
    },
    {
      "tapTimeFrame": [
        97.10585
      ],
      "railNumbers": [
        0
      ]
    },
    {
      "tapTimeFrame": [
        97.29161
      ],
      "railNumbers": [
        0
      ]
    },
    {
      "tapTimeFrame": [
        97.47737
      ],
      "railNumbers": [
        0
      ]
    },
    {
      "tapTimeFrame": [
        97.6631241
      ],
      "railNumbers": [
        1
      ]
    },
    {
      "tapTimeFrame": [
        97.87211
      ],
      "railNumbers": [
        0
      ]
    },
    {
      "tapTimeFrame": [
        98.05787
      ],
      "railNumbers": [
        1
      ]
    },
    {
      "tapTimeFrame": [
        98.24363
      ],
      "railNumbers": [
        3
      ]
    },
    {
      "tapTimeFrame": [
        98.63837
      ],
      "railNumbers": [
        0
      ]
    },
    {
      "tapTimeFrame": [
        99.19565
      ],
      "railNumbers": [
        1
      ]
    },
    {
      "tapTimeFrame": [
        99.5903854
      ],
      "railNumbers": [
        0
      ]
    },
    {
      "tapTimeFrame": [
        99.7761459
      ],
      "railNumbers": [
        1
      ]
    },
    {
      "tapTimeFrame": [
        99.98512
      ],
      "railNumbers": [
        2
      ]
    },
    {
      "tapTimeFrame": [
        100.170883
      ],
      "railNumbers": [
        1
      ]
    },
    {
      "tapTimeFrame": [
        100.356644
      ],
      "railNumbers": [
        3
      ]
    },
    {
      "tapTimeFrame": [
        100.542404
      ],
      "railNumbers": [
        1
      ]
    },
    {
      "tapTimeFrame": [
        100.728165
      ],
      "railNumbers": [
        0
      ]
    },
    {
      "tapTimeFrame": [
        100.937141
      ],
      "railNumbers": [
        1
      ]
    },
    {
      "tapTimeFrame": [
        101.1229
      ],
      "railNumbers": [
        1
      ]
    },
    {
      "tapTimeFrame": [
        101.7034
      ],
      "railNumbers": [
        1
      ]
    },
    {
      "tapTimeFrame": [
        102.074921
      ],
      "railNumbers": [
        1
      ]
    },
    {
      "tapTimeFrame": [
        102.260681
      ],
      "railNumbers": [
        1
      ]
    },
    {
      "tapTimeFrame": [
        102.446442
      ],
      "railNumbers": [
        1
      ]
    },
    {
      "tapTimeFrame": [
        102.655418
      ],
      "railNumbers": [
        3
      ]
    },
    {
      "tapTimeFrame": [
        102.841179
      ],
      "railNumbers": [
        2
      ]
    },
    {
      "tapTimeFrame": [
        103.026939
      ],
      "railNumbers": [
        1
      ]
    },
    {
      "tapTimeFrame": [
        103.421677
      ],
      "railNumbers": [
        2
      ]
    },
    {
      "tapTimeFrame": [
        103.607437
      ],
      "railNumbers": [
        2
      ]
    },
    {
      "tapTimeFrame": [
        103.7932
      ],
      "railNumbers": [
        1
      ]
    },
    {
      "tapTimeFrame": [
        103.978958
      ],
      "railNumbers": [
        0
      ]
    },
    {
      "tapTimeFrame": [
        104.187935
      ],
      "railNumbers": [
        2
      ]
    },
    {
      "tapTimeFrame": [
        104.373695
      ],
      "railNumbers": [
        1
      ]
    },
    {
      "tapTimeFrame": [
        104.559456
      ],
      "railNumbers": [
        1
      ]
    },
    {
      "tapTimeFrame": [
        104.745216
      ],
      "railNumbers": [
        1
      ]
    },
    {
      "tapTimeFrame": [
        104.930977
      ],
      "railNumbers": [
        1
      ]
    },
    {
      "tapTimeFrame": [
        105.11673
      ],
      "railNumbers": [
        0
      ]
    },
    {
      "tapTimeFrame": [
        105.325714
      ],
      "railNumbers": [
        1
      ]
    },
    {
      "tapTimeFrame": [
        105.511475
      ],
      "railNumbers": [
        1
      ]
    },
    {
      "tapTimeFrame": [
        105.697235
      ],
      "railNumbers": [
        1
      ]
    },
    {
      "tapTimeFrame": [
        105.813332
      ],
      "railNumbers": [
        2
      ]
    },
    {
      "tapTimeFrame": [
        106.091972
      ],
      "railNumbers": [
        1
      ]
    },
    {
      "tapTimeFrame": [
        106.277733
      ],
      "railNumbers": [
        0
      ]
    },
    {
      "tapTimeFrame": [
        106.649246
      ],
      "railNumbers": [
        0
      ]
    },
    {
      "tapTimeFrame": [
        106.858231
      ],
      "railNumbers": [
        1
      ]
    },
    {
      "tapTimeFrame": [
        107.043991
      ],
      "railNumbers": [
        0
      ]
    },
    {
      "tapTimeFrame": [
        107.229752
      ],
      "railNumbers": [
        1
      ]
    },
    {
      "tapTimeFrame": [
        107.415504
      ],
      "railNumbers": [
        0
      ]
    },
    {
      "tapTimeFrame": [
        107.601265
      ],
      "railNumbers": [
        3
      ]
    },
    {
      "tapTimeFrame": [
        107.810249
      ],
      "railNumbers": [
        0
      ]
    },
    {
      "tapTimeFrame": [
        107.99601
      ],
      "railNumbers": [
        0
      ]
    },
    {
      "tapTimeFrame": [
        108.18177
      ],
      "railNumbers": [
        0
      ]
    },
    {
      "tapTimeFrame": [
        108.367523
      ],
      "railNumbers": [
        0
      ]
    },
    {
      "tapTimeFrame": [
        108.483627
      ],
      "railNumbers": [
        3
      ]
    },
    {
      "tapTimeFrame": [
        108.762268
      ],
      "railNumbers": [
        0
      ]
    },
    {
      "tapTimeFrame": [
        108.878365
      ],
      "railNumbers": [
        3
      ]
    },
    {
      "tapTimeFrame": [
        109.133781
      ],
      "railNumbers": [
        0
      ]
    },
    {
      "tapTimeFrame": [
        109.342766
      ],
      "railNumbers": [
        1
      ]
    },
    {
      "tapTimeFrame": [
        109.528526
      ],
      "railNumbers": [
        2
      ]
    },
    {
      "tapTimeFrame": [
        109.714287
      ],
      "railNumbers": [
        0
      ]
    },
    {
      "tapTimeFrame": [
        109.90004
      ],
      "railNumbers": [
        0
      ]
    },
    {
      "tapTimeFrame": [
        110.0858
      ],
      "railNumbers": [
        1
      ]
    },
    {
      "tapTimeFrame": [
        110.294785
      ],
      "railNumbers": [
        2
      ]
    },
    {
      "tapTimeFrame": [
        110.480545
      ],
      "railNumbers": [
        0
      ]
    },
    {
      "tapTimeFrame": [
        110.666306
      ],
      "railNumbers": [
        0
      ]
    },
    {
      "tapTimeFrame": [
        110.852058
      ],
      "railNumbers": [
        2
      ]
    },
    {
      "tapTimeFrame": [
        111.061043
      ],
      "railNumbers": [
        1
      ]
    },
    {
      "tapTimeFrame": [
        111.2468
      ],
      "railNumbers": [
        0
      ]
    },
    {
      "tapTimeFrame": [
        111.432564
      ],
      "railNumbers": [
        0
      ]
    },
    {
      "tapTimeFrame": [
        111.54866
      ],
      "railNumbers": [
        3
      ]
    },
    {
      "tapTimeFrame": [
        111.8273
      ],
      "railNumbers": [
        1
      ]
    },
    {
      "tapTimeFrame": [
        112.013062
      ],
      "railNumbers": [
        0
      ]
    },
    {
      "tapTimeFrame": [
        112.198822
      ],
      "railNumbers": [
        0
      ]
    },
    {
      "tapTimeFrame": [
        112.384575
      ],
      "railNumbers": [
        0
      ]
    },
    {
      "tapTimeFrame": [
        112.77932
      ],
      "railNumbers": [
        0
      ]
    },
    {
      "tapTimeFrame": [
        112.96508
      ],
      "railNumbers": [
        0
      ]
    },
    {
      "tapTimeFrame": [
        113.150833
      ],
      "railNumbers": [
        0
      ]
    },
    {
      "tapTimeFrame": [
        113.336594
      ],
      "railNumbers": [
        1
      ]
    },
    {
      "tapTimeFrame": [
        113.522354
      ],
      "railNumbers": [
        2
      ]
    },
    {
      "tapTimeFrame": [
        113.731339
      ],
      "railNumbers": [
        0
      ]
    },
    {
      "tapTimeFrame": [
        113.9171
      ],
      "railNumbers": [
        0
      ]
    },
    {
      "tapTimeFrame": [
        114.288612
      ],
      "railNumbers": [
        0
      ]
    },
    {
      "tapTimeFrame": [
        114.4976
      ],
      "railNumbers": [
        0
      ]
    },
    {
      "tapTimeFrame": [
        114.683357
      ],
      "railNumbers": [
        1
      ]
    },
    {
      "tapTimeFrame": [
        114.985214
      ],
      "railNumbers": [
        3
      ]
    },
    {
      "tapTimeFrame": [
        115.124535
      ],
      "railNumbers": [
        3
      ]
    },
    {
      "tapTimeFrame": [
        115.240631
      ],
      "railNumbers": [
        1
      ]
    },
    {
      "tapTimeFrame": [
        115.449615
      ],
      "railNumbers": [
        3
      ]
    },
    {
      "tapTimeFrame": [
        115.635368
      ],
      "railNumbers": [
        1
      ]
    },
    {
      "tapTimeFrame": [
        115.821129
      ],
      "railNumbers": [
        0
      ]
    },
    {
      "tapTimeFrame": [
        116.030113
      ],
      "railNumbers": [
        2
      ]
    },
    {
      "tapTimeFrame": [
        116.215874
      ],
      "railNumbers": [
        0
      ]
    },
    {
      "tapTimeFrame": [
        116.401634
      ],
      "railNumbers": [
        3
      ]
    },
    {
      "tapTimeFrame": [
        116.587387
      ],
      "railNumbers": [
        0
      ]
    },
    {
      "tapTimeFrame": [
        116.796371
      ],
      "railNumbers": [
        2
      ]
    },
    {
      "tapTimeFrame": [
        116.982132
      ],
      "railNumbers": [
        1
      ]
    },
    {
      "tapTimeFrame": [
        117.167892
      ],
      "railNumbers": [
        1
      ]
    },
    {
      "tapTimeFrame": [
        117.353645
      ],
      "railNumbers": [
        0
      ]
    },
    {
      "tapTimeFrame": [
        117.539406
      ],
      "railNumbers": [
        0
      ]
    },
    {
      "tapTimeFrame": [
        117.65551
      ],
      "railNumbers": [
        2
      ]
    },
    {
      "tapTimeFrame": [
        117.934151
      ],
      "railNumbers": [
        1
      ]
    },
    {
      "tapTimeFrame": [
        118.1199
      ],
      "railNumbers": [
        0
      ]
    },
    {
      "tapTimeFrame": [
        118.305664
      ],
      "railNumbers": [
        0
      ]
    },
    {
      "tapTimeFrame": [
        118.514648
      ],
      "railNumbers": [
        1
      ]
    },
    {
      "tapTimeFrame": [
        118.886169
      ],
      "railNumbers": [
        0
      ]
    },
    {
      "tapTimeFrame": [
        119.071922
      ],
      "railNumbers": [
        0
      ]
    },
    {
      "tapTimeFrame": [
        119.257683
      ],
      "railNumbers": [
        1
      ]
    },
    {
      "tapTimeFrame": [
        119.466667
      ],
      "railNumbers": [
        1
      ]
    },
    {
      "tapTimeFrame": [
        119.652428
      ],
      "railNumbers": [
        1
      ]
    },
    {
      "tapTimeFrame": [
        119.838181
      ],
      "railNumbers": [
        0
      ]
    },
    {
      "tapTimeFrame": [
        120.023941
      ],
      "railNumbers": [
        1
      ]
    },
    {
      "tapTimeFrame": [
        120.232925
      ],
      "railNumbers": [
        1
      ]
    },
    {
      "tapTimeFrame": [
        120.418686
      ],
      "railNumbers": [
        0
      ]
    },
    {
      "tapTimeFrame": [
        120.604439
      ],
      "railNumbers": [
        0
      ]
    },
    {
      "tapTimeFrame": [
        120.7902
      ],
      "railNumbers": [
        1
      ]
    },
    {
      "tapTimeFrame": [
        120.999184
      ],
      "railNumbers": [
        3
      ]
    },
    {
      "tapTimeFrame": [
        121.184944
      ],
      "railNumbers": [
        0
      ]
    },
    {
      "tapTimeFrame": [
        121.3707
      ],
      "railNumbers": [
        0
      ]
    },
    {
      "tapTimeFrame": [
        121.556458
      ],
      "railNumbers": [
        0
      ]
    },
    {
      "tapTimeFrame": [
        121.765442
      ],
      "railNumbers": [
        3
      ]
    },
    {
      "tapTimeFrame": [
        121.9512
      ],
      "railNumbers": [
        1
      ]
    },
    {
      "tapTimeFrame": [
        122.136963
      ],
      "railNumbers": [
        1
      ]
    },
    {
      "tapTimeFrame": [
        122.322716
      ],
      "railNumbers": [
        0
      ]
    },
    {
      "tapTimeFrame": [
        122.5317
      ],
      "railNumbers": [
        2
      ]
    },
    {
      "tapTimeFrame": [
        122.717461
      ],
      "railNumbers": [
        1
      ]
    },
    {
      "tapTimeFrame": [
        122.903221
      ],
      "railNumbers": [
        0
      ]
    },
    {
      "tapTimeFrame": [
        123.088974
      ],
      "railNumbers": [
        0
      ]
    },
    {
      "tapTimeFrame": [
        123.274734
      ],
      "railNumbers": [
        1
      ]
    },
    {
      "tapTimeFrame": [
        123.483719
      ],
      "railNumbers": [
        1
      ]
    },
    {
      "tapTimeFrame": [
        123.669479
      ],
      "railNumbers": [
        0
      ]
    },
    {
      "tapTimeFrame": [
        123.855232
      ],
      "railNumbers": [
        3
      ]
    },
    {
      "tapTimeFrame": [
        124.064217
      ],
      "railNumbers": [
        1
      ]
    },
    {
      "tapTimeFrame": [
        124.226753
      ],
      "railNumbers": [
        0
      ]
    },
    {
      "tapTimeFrame": [
        124.435738
      ],
      "railNumbers": [
        1
      ]
    },
    {
      "tapTimeFrame": [
        124.6215
      ],
      "railNumbers": [
        0
      ]
    },
    {
      "tapTimeFrame": [
        124.993011
      ],
      "railNumbers": [
        0
      ]
    },
    {
      "tapTimeFrame": [
        125.201996
      ],
      "railNumbers": [
        1
      ]
    },
    {
      "tapTimeFrame": [
        125.387756
      ],
      "railNumbers": [
        0
      ]
    },
    {
      "tapTimeFrame": [
        125.573509
      ],
      "railNumbers": [
        0
      ]
    },
    {
      "tapTimeFrame": [
        125.75927
      ],
      "railNumbers": [
        0
      ]
    },
    {
      "tapTimeFrame": [
        125.968254
      ],
      "railNumbers": [
        1
      ]
    },
    {
      "tapTimeFrame": [
        126.154015
      ],
      "railNumbers": [
        0
      ]
    },
    {
      "tapTimeFrame": [
        126.339767
      ],
      "railNumbers": [
        1
      ]
    },
    {
      "tapTimeFrame": [
        126.525528
      ],
      "railNumbers": [
        0
      ]
    },
    {
      "tapTimeFrame": [
        126.711288
      ],
      "railNumbers": [
        1
      ]
    },
    {
      "tapTimeFrame": [
        126.920273
      ],
      "railNumbers": [
        2
      ]
    },
    {
      "tapTimeFrame": [
        127.106026
      ],
      "railNumbers": [
        3
      ]
    },
    {
      "tapTimeFrame": [
        127.291786
      ],
      "railNumbers": [
        0
      ]
    },
    {
      "tapTimeFrame": [
        127.477547
      ],
      "railNumbers": [
        0
      ]
    },
    {
      "tapTimeFrame": [
        128.058044
      ],
      "railNumbers": [
        0
      ]
    },
    {
      "tapTimeFrame": [
        128.2438
      ],
      "railNumbers": [
        0
      ]
    },
    {
      "tapTimeFrame": [
        128.452789
      ],
      "railNumbers": [
        1
      ]
    },
    {
      "tapTimeFrame": [
        128.63855
      ],
      "railNumbers": [
        1
      ]
    },
    {
      "tapTimeFrame": [
        128.82431
      ],
      "railNumbers": [
        1
      ]
    },
    {
      "tapTimeFrame": [
        129.010071
      ],
      "railNumbers": [
        1
      ]
    },
    {
      "tapTimeFrame": [
        129.4048
      ],
      "railNumbers": [
        1
      ]
    },
    {
      "tapTimeFrame": [
        129.590561
      ],
      "railNumbers": [
        0
      ]
    },
    {
      "tapTimeFrame": [
        129.776321
      ],
      "railNumbers": [
        0
      ]
    },
    {
      "tapTimeFrame": [
        129.962082
      ],
      "railNumbers": [
        2
      ]
    },
    {
      "tapTimeFrame": [
        130.171066
      ],
      "railNumbers": [
        1
      ]
    },
    {
      "tapTimeFrame": [
        130.356827
      ],
      "railNumbers": [
        0
      ]
    },
    {
      "tapTimeFrame": [
        130.542587
      ],
      "railNumbers": [
        0
      ]
    },
    {
      "tapTimeFrame": [
        130.728348
      ],
      "railNumbers": [
        0
      ]
    },
    {
      "tapTimeFrame": [
        131.123077
      ],
      "railNumbers": [
        2
      ]
    },
    {
      "tapTimeFrame": [
        131.308838
      ],
      "railNumbers": [
        0
      ]
    },
    {
      "tapTimeFrame": [
        131.4946
      ],
      "railNumbers": [
        0
      ]
    },
    {
      "tapTimeFrame": [
        131.703583
      ],
      "railNumbers": [
        1
      ]
    },
    {
      "tapTimeFrame": [
        131.889343
      ],
      "railNumbers": [
        1
      ]
    },
    {
      "tapTimeFrame": [
        132.0751
      ],
      "railNumbers": [
        1
      ]
    },
    {
      "tapTimeFrame": [
        132.260864
      ],
      "railNumbers": [
        1
      ]
    },
    {
      "tapTimeFrame": [
        132.446625
      ],
      "railNumbers": [
        1
      ]
    },
    {
      "tapTimeFrame": [
        132.632385
      ],
      "railNumbers": [
        1
      ]
    },
    {
      "tapTimeFrame": [
        132.841354
      ],
      "railNumbers": [
        0
      ]
    },
    {
      "tapTimeFrame": [
        133.027115
      ],
      "railNumbers": [
        1
      ]
    },
    {
      "tapTimeFrame": [
        133.212875
      ],
      "railNumbers": [
        1
      ]
    },
    {
      "tapTimeFrame": [
        133.398636
      ],
      "railNumbers": [
        0
      ]
    },
    {
      "tapTimeFrame": [
        133.60762
      ],
      "railNumbers": [
        0
      ]
    },
    {
      "tapTimeFrame": [
        133.793381
      ],
      "railNumbers": [
        1
      ]
    },
    {
      "tapTimeFrame": [
        133.979141
      ],
      "railNumbers": [
        0
      ]
    },
    {
      "tapTimeFrame": [
        134.1649
      ],
      "railNumbers": [
        0
      ]
    },
    {
      "tapTimeFrame": [
        134.373871
      ],
      "railNumbers": [
        2
      ]
    },
    {
      "tapTimeFrame": [
        134.559631
      ],
      "railNumbers": [
        1
      ]
    },
    {
      "tapTimeFrame": [
        134.675735
      ],
      "railNumbers": [
        3
      ]
    },
    {
      "tapTimeFrame": [
        134.931152
      ],
      "railNumbers": [
        0
      ]
    },
    {
      "tapTimeFrame": [
        135.140137
      ],
      "railNumbers": [
        2
      ]
    },
    {
      "tapTimeFrame": [
        135.3259
      ],
      "railNumbers": [
        1
      ]
    },
    {
      "tapTimeFrame": [
        135.511658
      ],
      "railNumbers": [
        1
      ]
    },
    {
      "tapTimeFrame": [
        135.697418
      ],
      "railNumbers": [
        0
      ]
    },
    {
      "tapTimeFrame": [
        135.883179
      ],
      "railNumbers": [
        1
      ]
    },
    {
      "tapTimeFrame": [
        136.092148
      ],
      "railNumbers": [
        3
      ]
    },
    {
      "tapTimeFrame": [
        136.277908
      ],
      "railNumbers": [
        1
      ]
    },
    {
      "tapTimeFrame": [
        136.463669
      ],
      "railNumbers": [
        0
      ]
    },
    {
      "tapTimeFrame": [
        136.649429
      ],
      "railNumbers": [
        0
      ]
    },
    {
      "tapTimeFrame": [
        136.858414
      ],
      "railNumbers": [
        2
      ]
    },
    {
      "tapTimeFrame": [
        137.044174
      ],
      "railNumbers": [
        2
      ]
    },
    {
      "tapTimeFrame": [
        137.229935
      ],
      "railNumbers": [
        0
      ]
    },
    {
      "tapTimeFrame": [
        137.4157
      ],
      "railNumbers": [
        0
      ]
    },
    {
      "tapTimeFrame": [
        137.601456
      ],
      "railNumbers": [
        1
      ]
    },
    {
      "tapTimeFrame": [
        137.810425
      ],
      "railNumbers": [
        1
      ]
    },
    {
      "tapTimeFrame": [
        137.996185
      ],
      "railNumbers": [
        0
      ]
    },
    {
      "tapTimeFrame": [
        138.181946
      ],
      "railNumbers": [
        0
      ]
    },
    {
      "tapTimeFrame": [
        138.39093
      ],
      "railNumbers": [
        2
      ]
    },
    {
      "tapTimeFrame": [
        138.576691
      ],
      "railNumbers": [
        2
      ]
    },
    {
      "tapTimeFrame": [
        138.762451
      ],
      "railNumbers": [
        0
      ]
    },
    {
      "tapTimeFrame": [
        138.948212
      ],
      "railNumbers": [
        0
      ]
    },
    {
      "tapTimeFrame": [
        139.133972
      ],
      "railNumbers": [
        2
      ]
    },
    {
      "tapTimeFrame": [
        139.342941
      ],
      "railNumbers": [
        2
      ]
    },
    {
      "tapTimeFrame": [
        139.5287
      ],
      "railNumbers": [
        1
      ]
    },
    {
      "tapTimeFrame": [
        139.714462
      ],
      "railNumbers": [
        0
      ]
    },
    {
      "tapTimeFrame": [
        139.900223
      ],
      "railNumbers": [
        1
      ]
    },
    {
      "tapTimeFrame": [
        140.085983
      ],
      "railNumbers": [
        2
      ]
    },
    {
      "tapTimeFrame": [
        140.294968
      ],
      "railNumbers": [
        1
      ]
    },
    {
      "tapTimeFrame": [
        140.480728
      ],
      "railNumbers": [
        1
      ]
    },
    {
      "tapTimeFrame": [
        140.666489
      ],
      "railNumbers": [
        0
      ]
    },
    {
      "tapTimeFrame": [
        140.875458
      ],
      "railNumbers": [
        1
      ]
    },
    {
      "tapTimeFrame": [
        141.061218
      ],
      "railNumbers": [
        1
      ]
    },
    {
      "tapTimeFrame": [
        141.246979
      ],
      "railNumbers": [
        1
      ]
    },
    {
      "tapTimeFrame": [
        141.432739
      ],
      "railNumbers": [
        1
      ]
    },
    {
      "tapTimeFrame": [
        141.6185
      ],
      "railNumbers": [
        1
      ]
    },
    {
      "tapTimeFrame": [
        141.827484
      ],
      "railNumbers": [
        0
      ]
    },
    {
      "tapTimeFrame": [
        142.013245
      ],
      "railNumbers": [
        0
      ]
    },
    {
      "tapTimeFrame": [
        142.384766
      ],
      "railNumbers": [
        0
      ]
    },
    {
      "tapTimeFrame": [
        142.570526
      ],
      "railNumbers": [
        0
      ]
    },
    {
      "tapTimeFrame": [
        142.7795
      ],
      "railNumbers": [
        1
      ]
    },
    {
      "tapTimeFrame": [
        142.965256
      ],
      "railNumbers": [
        0
      ]
    },
    {
      "tapTimeFrame": [
        143.336777
      ],
      "railNumbers": [
        0
      ]
    },
    {
      "tapTimeFrame": [
        143.545761
      ],
      "railNumbers": [
        2
      ]
    },
    {
      "tapTimeFrame": [
        143.731522
      ],
      "railNumbers": [
        0
      ]
    },
    {
      "tapTimeFrame": [
        143.917282
      ],
      "railNumbers": [
        2
      ]
    },
    {
      "tapTimeFrame": [
        144.103043
      ],
      "railNumbers": [
        0
      ]
    },
    {
      "tapTimeFrame": [
        144.2888
      ],
      "railNumbers": [
        1
      ]
    },
    {
      "tapTimeFrame": [
        144.497772
      ],
      "railNumbers": [
        2
      ]
    },
    {
      "tapTimeFrame": [
        144.683533
      ],
      "railNumbers": [
        1
      ]
    },
    {
      "tapTimeFrame": [
        144.8693
      ],
      "railNumbers": [
        0
      ]
    },
    {
      "tapTimeFrame": [
        145.055054
      ],
      "railNumbers": [
        1
      ]
    },
    {
      "tapTimeFrame": [
        145.171158
      ],
      "railNumbers": [
        2
      ]
    },
    {
      "tapTimeFrame": [
        145.4498
      ],
      "railNumbers": [
        0
      ]
    },
    {
      "tapTimeFrame": [
        145.635559
      ],
      "railNumbers": [
        0
      ]
    },
    {
      "tapTimeFrame": [
        145.82132
      ],
      "railNumbers": [
        0
      ]
    },
    {
      "tapTimeFrame": [
        146.030289
      ],
      "railNumbers": [
        1
      ]
    },
    {
      "tapTimeFrame": [
        146.216049
      ],
      "railNumbers": [
        3
      ]
    },
    {
      "tapTimeFrame": [
        146.40181
      ],
      "railNumbers": [
        0
      ]
    },
    {
      "tapTimeFrame": [
        146.58757
      ],
      "railNumbers": [
        0
      ]
    },
    {
      "tapTimeFrame": [
        146.773331
      ],
      "railNumbers": [
        2
      ]
    },
    {
      "tapTimeFrame": [
        146.982315
      ],
      "railNumbers": [
        1
      ]
    },
    {
      "tapTimeFrame": [
        147.168076
      ],
      "railNumbers": [
        2
      ]
    },
    {
      "tapTimeFrame": [
        147.377045
      ],
      "railNumbers": [
        2
      ]
    },
    {
      "tapTimeFrame": [
        147.5396
      ],
      "railNumbers": [
        0
      ]
    },
    {
      "tapTimeFrame": [
        147.748566
      ],
      "railNumbers": [
        1
      ]
    },
    {
      "tapTimeFrame": [
        147.934326
      ],
      "railNumbers": [
        0
      ]
    },
    {
      "tapTimeFrame": [
        148.120087
      ],
      "railNumbers": [
        1
      ]
    },
    {
      "tapTimeFrame": [
        148.305847
      ],
      "railNumbers": [
        0
      ]
    },
    {
      "tapTimeFrame": [
        148.514832
      ],
      "railNumbers": [
        2
      ]
    },
    {
      "tapTimeFrame": [
        148.700592
      ],
      "railNumbers": [
        2
      ]
    },
    {
      "tapTimeFrame": [
        148.886353
      ],
      "railNumbers": [
        0
      ]
    },
    {
      "tapTimeFrame": [
        149.072113
      ],
      "railNumbers": [
        0
      ]
    },
    {
      "tapTimeFrame": [
        149.1882
      ],
      "railNumbers": [
        3
      ]
    },
    {
      "tapTimeFrame": [
        149.466843
      ],
      "railNumbers": [
        1
      ]
    },
    {
      "tapTimeFrame": [
        149.6526
      ],
      "railNumbers": [
        1
      ]
    },
    {
      "tapTimeFrame": [
        149.838364
      ],
      "railNumbers": [
        0
      ]
    },
    {
      "tapTimeFrame": [
        150.047348
      ],
      "railNumbers": [
        1
      ]
    },
    {
      "tapTimeFrame": [
        150.233109
      ],
      "railNumbers": [
        1
      ]
    },
    {
      "tapTimeFrame": [
        150.418869
      ],
      "railNumbers": [
        2
      ]
    },
    {
      "tapTimeFrame": [
        150.60463
      ],
      "railNumbers": [
        0
      ]
    },
    {
      "tapTimeFrame": [
        150.79039
      ],
      "railNumbers": [
        2
      ]
    },
    {
      "tapTimeFrame": [
        150.999359
      ],
      "railNumbers": [
        0
      ]
    },
    {
      "tapTimeFrame": [
        151.18512
      ],
      "railNumbers": [
        1
      ]
    },
    {
      "tapTimeFrame": [
        151.37088
      ],
      "railNumbers": [
        0
      ]
    },
    {
      "tapTimeFrame": [
        151.556641
      ],
      "railNumbers": [
        1
      ]
    },
    {
      "tapTimeFrame": [
        151.672745
      ],
      "railNumbers": [
        3
      ]
    },
    {
      "tapTimeFrame": [
        151.951385
      ],
      "railNumbers": [
        0
      ]
    },
    {
      "tapTimeFrame": [
        152.137146
      ],
      "railNumbers": [
        1
      ]
    },
    {
      "tapTimeFrame": [
        152.508652
      ],
      "railNumbers": [
        0
      ]
    },
    {
      "tapTimeFrame": [
        152.694412
      ],
      "railNumbers": [
        2
      ]
    },
    {
      "tapTimeFrame": [
        152.9034
      ],
      "railNumbers": [
        0
      ]
    },
    {
      "tapTimeFrame": [
        153.089157
      ],
      "railNumbers": [
        2
      ]
    },
    {
      "tapTimeFrame": [
        153.274918
      ],
      "railNumbers": [
        0
      ]
    },
    {
      "tapTimeFrame": [
        153.4839
      ],
      "railNumbers": [
        2
      ]
    },
    {
      "tapTimeFrame": [
        153.669662
      ],
      "railNumbers": [
        0
      ]
    },
    {
      "tapTimeFrame": [
        153.855423
      ],
      "railNumbers": [
        0
      ]
    },
    {
      "tapTimeFrame": [
        154.041183
      ],
      "railNumbers": [
        0
      ]
    },
    {
      "tapTimeFrame": [
        154.226929
      ],
      "railNumbers": [
        1
      ]
    },
    {
      "tapTimeFrame": [
        154.343033
      ],
      "railNumbers": [
        2
      ]
    },
    {
      "tapTimeFrame": [
        154.621674
      ],
      "railNumbers": [
        1
      ]
    },
    {
      "tapTimeFrame": [
        154.807434
      ],
      "railNumbers": [
        0
      ]
    },
    {
      "tapTimeFrame": [
        154.9932
      ],
      "railNumbers": [
        0
      ]
    },
    {
      "tapTimeFrame": [
        155.202179
      ],
      "railNumbers": [
        1
      ]
    },
    {
      "tapTimeFrame": [
        155.5737
      ],
      "railNumbers": [
        0
      ]
    },
    {
      "tapTimeFrame": [
        155.75946
      ],
      "railNumbers": [
        0
      ]
    },
    {
      "tapTimeFrame": [
        155.96843
      ],
      "railNumbers": [
        1
      ]
    },
    {
      "tapTimeFrame": [
        156.15419
      ],
      "railNumbers": [
        1
      ]
    },
    {
      "tapTimeFrame": [
        156.339951
      ],
      "railNumbers": [
        0
      ]
    },
    {
      "tapTimeFrame": [
        156.525711
      ],
      "railNumbers": [
        0
      ]
    },
    {
      "tapTimeFrame": [
        156.711472
      ],
      "railNumbers": [
        1
      ]
    },
    {
      "tapTimeFrame": [
        156.920456
      ],
      "railNumbers": [
        1
      ]
    },
    {
      "tapTimeFrame": [
        157.106216
      ],
      "railNumbers": [
        0
      ]
    },
    {
      "tapTimeFrame": [
        157.291977
      ],
      "railNumbers": [
        0
      ]
    },
    {
      "tapTimeFrame": [
        157.477722
      ],
      "railNumbers": [
        1
      ]
    },
    {
      "tapTimeFrame": [
        157.6867
      ],
      "railNumbers": [
        1
      ]
    },
    {
      "tapTimeFrame": [
        157.872467
      ],
      "railNumbers": [
        0
      ]
    },
    {
      "tapTimeFrame": [
        158.058228
      ],
      "railNumbers": [
        0
      ]
    },
    {
      "tapTimeFrame": [
        158.243988
      ],
      "railNumbers": [
        0
      ]
    },
    {
      "tapTimeFrame": [
        158.638733
      ],
      "railNumbers": [
        1
      ]
    },
    {
      "tapTimeFrame": [
        158.8245
      ],
      "railNumbers": [
        0
      ]
    },
    {
      "tapTimeFrame": [
        159.010254
      ],
      "railNumbers": [
        0
      ]
    },
    {
      "tapTimeFrame": [
        159.219223
      ],
      "railNumbers": [
        3
      ]
    },
    {
      "tapTimeFrame": [
        159.404984
      ],
      "railNumbers": [
        0
      ]
    },
    {
      "tapTimeFrame": [
        159.590744
      ],
      "railNumbers": [
        1
      ]
    },
    {
      "tapTimeFrame": [
        159.7765
      ],
      "railNumbers": [
        0
      ]
    },
    {
      "tapTimeFrame": [
        159.962265
      ],
      "railNumbers": [
        1
      ]
    },
    {
      "tapTimeFrame": [
        160.148026
      ],
      "railNumbers": [
        1
      ]
    },
    {
      "tapTimeFrame": [
        160.35701
      ],
      "railNumbers": [
        0
      ]
    },
    {
      "tapTimeFrame": [
        160.54277
      ],
      "railNumbers": [
        2
      ]
    },
    {
      "tapTimeFrame": [
        160.75174
      ],
      "railNumbers": [
        1
      ]
    },
    {
      "tapTimeFrame": [
        160.914276
      ],
      "railNumbers": [
        0
      ]
    },
    {
      "tapTimeFrame": [
        161.12326
      ],
      "railNumbers": [
        1
      ]
    },
    {
      "tapTimeFrame": [
        161.309021
      ],
      "railNumbers": [
        0
      ]
    },
    {
      "tapTimeFrame": [
        161.680542
      ],
      "railNumbers": [
        0
      ]
    },
    {
      "tapTimeFrame": [
        161.8663
      ],
      "railNumbers": [
        1
      ]
    },
    {
      "tapTimeFrame": [
        162.075287
      ],
      "railNumbers": [
        0
      ]
    },
    {
      "tapTimeFrame": [
        162.261047
      ],
      "railNumbers": [
        0
      ]
    },
    {
      "tapTimeFrame": [
        162.4468
      ],
      "railNumbers": [
        0
      ]
    },
    {
      "tapTimeFrame": [
        162.655777
      ],
      "railNumbers": [
        1
      ]
    },
    {
      "tapTimeFrame": [
        162.841537
      ],
      "railNumbers": [
        0
      ]
    },
    {
      "tapTimeFrame": [
        163.0273
      ],
      "railNumbers": [
        2
      ]
    },
    {
      "tapTimeFrame": [
        163.213058
      ],
      "railNumbers": [
        0
      ]
    },
    {
      "tapTimeFrame": [
        163.398819
      ],
      "railNumbers": [
        1
      ]
    },
    {
      "tapTimeFrame": [
        163.514923
      ],
      "railNumbers": [
        3
      ]
    },
    {
      "tapTimeFrame": [
        163.909653
      ],
      "railNumbers": [
        3
      ]
    },
    {
      "tapTimeFrame": [
        164.16507
      ],
      "railNumbers": [
        0
      ]
    },
    {
      "tapTimeFrame": [
        164.745575
      ],
      "railNumbers": [
        1
      ]
    },
    {
      "tapTimeFrame": [
        164.931335
      ],
      "railNumbers": [
        0
      ]
    },
    {
      "tapTimeFrame": [
        165.14032
      ],
      "railNumbers": [
        1
      ]
    },
    {
      "tapTimeFrame": [
        165.256409
      ],
      "railNumbers": [
        3
      ]
    },
    {
      "tapTimeFrame": [
        165.535049
      ],
      "railNumbers": [
        3
      ]
    },
    {
      "tapTimeFrame": [
        166.092331
      ],
      "railNumbers": [
        2
      ]
    },
    {
      "tapTimeFrame": [
        166.278091
      ],
      "railNumbers": [
        3
      ]
    },
    {
      "tapTimeFrame": [
        166.579956
      ],
      "railNumbers": [
        2
      ]
    },
    {
      "tapTimeFrame": [
        166.696045
      ],
      "railNumbers": [
        3
      ]
    },
    {
      "tapTimeFrame": [
        166.951477
      ],
      "railNumbers": [
        2
      ]
    },
    {
      "tapTimeFrame": [
        167.230118
      ],
      "railNumbers": [
        0
      ]
    },
    {
      "tapTimeFrame": [
        167.415863
      ],
      "railNumbers": [
        2
      ]
    },
    {
      "tapTimeFrame": [
        167.810608
      ],
      "railNumbers": [
        1
      ]
    },
    {
      "tapTimeFrame": [
        167.996368
      ],
      "railNumbers": [
        1
      ]
    },
    {
      "tapTimeFrame": [
        168.182129
      ],
      "railNumbers": [
        1
      ]
    },
    {
      "tapTimeFrame": [
        168.391113
      ],
      "railNumbers": [
        2
      ]
    },
    {
      "tapTimeFrame": [
        168.576874
      ],
      "railNumbers": [
        1
      ]
    },
    {
      "tapTimeFrame": [
        168.762634
      ],
      "railNumbers": [
        2
      ]
    },
    {
      "tapTimeFrame": [
        168.94838
      ],
      "railNumbers": [
        0
      ]
    },
    {
      "tapTimeFrame": [
        169.343124
      ],
      "railNumbers": [
        1
      ]
    },
    {
      "tapTimeFrame": [
        169.528885
      ],
      "railNumbers": [
        0
      ]
    },
    {
      "tapTimeFrame": [
        169.9004
      ],
      "railNumbers": [
        0
      ]
    },
    {
      "tapTimeFrame": [
        170.086166
      ],
      "railNumbers": [
        0
      ]
    },
    {
      "tapTimeFrame": [
        170.295151
      ],
      "railNumbers": [
        1
      ]
    },
    {
      "tapTimeFrame": [
        170.480911
      ],
      "railNumbers": [
        0
      ]
    },
    {
      "tapTimeFrame": [
        170.852417
      ],
      "railNumbers": [
        0
      ]
    },
    {
      "tapTimeFrame": [
        171.0614
      ],
      "railNumbers": [
        2
      ]
    },
    {
      "tapTimeFrame": [
        171.247162
      ],
      "railNumbers": [
        0
      ]
    },
    {
      "tapTimeFrame": [
        171.432922
      ],
      "railNumbers": [
        1
      ]
    },
    {
      "tapTimeFrame": [
        171.618683
      ],
      "railNumbers": [
        0
      ]
    },
    {
      "tapTimeFrame": [
        171.827667
      ],
      "railNumbers": [
        1
      ]
    },
    {
      "tapTimeFrame": [
        172.013428
      ],
      "railNumbers": [
        0
      ]
    },
    {
      "tapTimeFrame": [
        172.199173
      ],
      "railNumbers": [
        1
      ]
    },
    {
      "tapTimeFrame": [
        172.384933
      ],
      "railNumbers": [
        0
      ]
    },
    {
      "tapTimeFrame": [
        172.5707
      ],
      "railNumbers": [
        1
      ]
    },
    {
      "tapTimeFrame": [
        172.779678
      ],
      "railNumbers": [
        3
      ]
    },
    {
      "tapTimeFrame": [
        172.965439
      ],
      "railNumbers": [
        0
      ]
    },
    {
      "tapTimeFrame": [
        173.1512
      ],
      "railNumbers": [
        0
      ]
    },
    {
      "tapTimeFrame": [
        173.33696
      ],
      "railNumbers": [
        0
      ]
    },
    {
      "tapTimeFrame": [
        173.545944
      ],
      "railNumbers": [
        2
      ]
    },
    {
      "tapTimeFrame": [
        173.7317
      ],
      "railNumbers": [
        2
      ]
    },
    {
      "tapTimeFrame": [
        173.91745
      ],
      "railNumbers": [
        0
      ]
    },
    {
      "tapTimeFrame": [
        174.10321
      ],
      "railNumbers": [
        1
      ]
    },
    {
      "tapTimeFrame": [
        174.288971
      ],
      "railNumbers": [
        2
      ]
    },
    {
      "tapTimeFrame": [
        174.497955
      ],
      "railNumbers": [
        3
      ]
    },
    {
      "tapTimeFrame": [
        174.683716
      ],
      "railNumbers": [
        0
      ]
    },
    {
      "tapTimeFrame": [
        174.869476
      ],
      "railNumbers": [
        0
      ]
    },
    {
      "tapTimeFrame": [
        175.055237
      ],
      "railNumbers": [
        2
      ]
    },
    {
      "tapTimeFrame": [
        175.264221
      ],
      "railNumbers": [
        2
      ]
    },
    {
      "tapTimeFrame": [
        175.449982
      ],
      "railNumbers": [
        0
      ]
    },
    {
      "tapTimeFrame": [
        175.635727
      ],
      "railNumbers": [
        0
      ]
    },
    {
      "tapTimeFrame": [
        176.030472
      ],
      "railNumbers": [
        1
      ]
    },
    {
      "tapTimeFrame": [
        176.216232
      ],
      "railNumbers": [
        1
      ]
    },
    {
      "tapTimeFrame": [
        176.402
      ],
      "railNumbers": [
        0
      ]
    },
    {
      "tapTimeFrame": [
        176.587753
      ],
      "railNumbers": [
        0
      ]
    },
    {
      "tapTimeFrame": [
        176.9825
      ],
      "railNumbers": [
        1
      ]
    },
    {
      "tapTimeFrame": [
        177.168243
      ],
      "railNumbers": [
        0
      ]
    },
    {
      "tapTimeFrame": [
        177.354
      ],
      "railNumbers": [
        0
      ]
    },
    {
      "tapTimeFrame": [
        177.562988
      ],
      "railNumbers": [
        1
      ]
    },
    {
      "tapTimeFrame": [
        177.934509
      ],
      "railNumbers": [
        0
      ]
    },
    {
      "tapTimeFrame": [
        178.12027
      ],
      "railNumbers": [
        0
      ]
    },
    {
      "tapTimeFrame": [
        178.30603
      ],
      "railNumbers": [
        0
      ]
    },
    {
      "tapTimeFrame": [
        178.515015
      ],
      "railNumbers": [
        1
      ]
    },
    {
      "tapTimeFrame": [
        178.700775
      ],
      "railNumbers": [
        0
      ]
    },
    {
      "tapTimeFrame": [
        178.88652
      ],
      "railNumbers": [
        1
      ]
    },
    {
      "tapTimeFrame": [
        179.072281
      ],
      "railNumbers": [
        3
      ]
    },
    {
      "tapTimeFrame": [
        179.281265
      ],
      "railNumbers": [
        3
      ]
    },
    {
      "tapTimeFrame": [
        179.4438
      ],
      "railNumbers": [
        1
      ]
    },
    {
      "tapTimeFrame": [
        179.5599
      ],
      "railNumbers": [
        3
      ]
    },
    {
      "tapTimeFrame": [
        180.0243
      ],
      "railNumbers": [
        0
      ]
    },
    {
      "tapTimeFrame": [
        180.6048
      ],
      "railNumbers": [
        0
      ]
    },
    {
      "tapTimeFrame": [
        180.790558
      ],
      "railNumbers": [
        0
      ]
    }
  ]
}