{
  "noteSteps": [
    {
      "tapTimeFrame": [
        1.18421769
      ],
      "railNumbers": [
        1
      ]
    },
    {
      "tapTimeFrame": [
        1.3931973
      ],
      "railNumbers": [
        1
      ]
    },
    {
      "tapTimeFrame": [
        1.57895684
      ],
      "railNumbers": [
        1
      ]
    },
    {
      "tapTimeFrame": [
        1.76471651
      ],
      "railNumbers": [
        1
      ]
    },
    {
      "tapTimeFrame": [
        1.97369611
      ],
      "railNumbers": [
        1
      ]
    },
    {
      "tapTimeFrame": [
        2.15945578
      ],
      "railNumbers": [
        0
      ]
    },
    {
      "tapTimeFrame": [
        2.36843538
      ],
      "railNumbers": [
        2
      ]
    },
    {
      "tapTimeFrame": [
        2.554195
      ],
      "railNumbers": [
        1
      ]
    },
    {
      "tapTimeFrame": [
        2.73995471
      ],
      "railNumbers": [
        0
      ]
    },
    {
      "tapTimeFrame": [
        2.92571425
      ],
      "railNumbers": [
        1
      ]
    },
    {
      "tapTimeFrame": [
        3.13469386
      ],
      "railNumbers": [
        1
      ]
    },
    {
      "tapTimeFrame": [
        3.32045341
      ],
      "railNumbers": [
        0
      ]
    },
    {
      "tapTimeFrame": [
        3.50621319
      ],
      "railNumbers": [
        1
      ]
    },
    {
      "tapTimeFrame": [
        3.71519279
      ],
      "railNumbers": [
        1
      ]
    },
    {
      "tapTimeFrame": [
        3.90095234
      ],
      "railNumbers": [
        0
      ]
    },
    {
      "tapTimeFrame": [
        4.086712
      ],
      "railNumbers": [
        2
      ]
    },
    {
      "tapTimeFrame": [
        4.29569149
      ],
      "railNumbers": [
        1
      ]
    },
    {
      "tapTimeFrame": [
        4.481451
      ],
      "railNumbers": [
        0
      ]
    },
    {
      "tapTimeFrame": [
        4.66721058
      ],
      "railNumbers": [
        1
      ]
    },
    {
      "tapTimeFrame": [
        4.87619
      ],
      "railNumbers": [
        1
      ]
    },
    {
      "tapTimeFrame": [
        5.06195
      ],
      "railNumbers": [
        0
      ]
    },
    {
      "tapTimeFrame": [
        5.24770975
      ],
      "railNumbers": [
        1
      ]
    },
    {
      "tapTimeFrame": [
        5.45668936
      ],
      "railNumbers": [
        1
      ]
    },
    {
      "tapTimeFrame": [
        5.642449
      ],
      "railNumbers": [
        1
      ]
    },
    {
      "tapTimeFrame": [
        5.82820845
      ],
      "railNumbers": [
        2
      ]
    },
    {
      "tapTimeFrame": [
        6.037188
      ],
      "railNumbers": [
        1
      ]
    },
    {
      "tapTimeFrame": [
        6.2229476
      ],
      "railNumbers": [
        0
      ]
    },
    {
      "tapTimeFrame": [
        6.408707
      ],
      "railNumbers": [
        2
      ]
    },
    {
      "tapTimeFrame": [
        6.61768675
      ],
      "railNumbers": [
        0
      ]
    },
    {
      "tapTimeFrame": [
        6.803447
      ],
      "railNumbers": [
        1
      ]
    },
    {
      "tapTimeFrame": [
        6.98920631
      ],
      "railNumbers": [
        0
      ]
    },
    {
      "tapTimeFrame": [
        7.198186
      ],
      "railNumbers": [
        2
      ]
    },
    {
      "tapTimeFrame": [
        7.38394547
      ],
      "railNumbers": [
        0
      ]
    },
    {
      "tapTimeFrame": [
        7.592925
      ],
      "railNumbers": [
        2
      ]
    },
    {
      "tapTimeFrame": [
        7.77868462
      ],
      "railNumbers": [
        1
      ]
    },
    {
      "tapTimeFrame": [
        7.964444
      ],
      "railNumbers": [
        1
      ]
    },
    {
      "tapTimeFrame": [
        8.173424
      ],
      "railNumbers": [
        2
      ]
    },
    {
      "tapTimeFrame": [
        8.359183
      ],
      "railNumbers": [
        1
      ]
    },
    {
      "tapTimeFrame": [
        8.544943
      ],
      "railNumbers": [
        0
      ]
    },
    {
      "tapTimeFrame": [
        8.753922
      ],
      "railNumbers": [
        2
      ]
    },
    {
      "tapTimeFrame": [
        8.939682
      ],
      "railNumbers": [
        0
      ]
    },
    {
      "tapTimeFrame": [
        9.125442
      ],
      "railNumbers": [
        1
      ]
    },
    {
      "tapTimeFrame": [
        9.311202
      ],
      "railNumbers": [
        0
      ]
    },
    {
      "tapTimeFrame": [
        9.520182
      ],
      "railNumbers": [
        2
      ]
    },
    {
      "tapTimeFrame": [
        9.705941
      ],
      "railNumbers": [
        0
      ]
    },
    {
      "tapTimeFrame": [
        9.914921
      ],
      "railNumbers": [
        1
      ]
    },
    {
      "tapTimeFrame": [
        10.10068
      ],
      "railNumbers": [
        1
      ]
    },
    {
      "tapTimeFrame": [
        10.28644
      ],
      "railNumbers": [
        1
      ]
    },
    {
      "tapTimeFrame": [
        10.4954195
      ],
      "railNumbers": [
        2
      ]
    },
    {
      "tapTimeFrame": [
        10.681179
      ],
      "railNumbers": [
        1
      ]
    },
    {
      "tapTimeFrame": [
        10.8669386
      ],
      "railNumbers": [
        0
      ]
    },
    {
      "tapTimeFrame": [
        11.2616777
      ],
      "railNumbers": [
        0
      ]
    },
    {
      "tapTimeFrame": [
        11.4474373
      ],
      "railNumbers": [
        1
      ]
    },
    {
      "tapTimeFrame": [
        11.6331968
      ],
      "railNumbers": [
        2
      ]
    },
    {
      "tapTimeFrame": [
        11.8421764
      ],
      "railNumbers": [
        1
      ]
    },
    {
      "tapTimeFrame": [
        12.027936
      ],
      "railNumbers": [
        0
      ]
    },
    {
      "tapTimeFrame": [
        12.2136955
      ],
      "railNumbers": [
        2
      ]
    },
    {
      "tapTimeFrame": [
        12.4226751
      ],
      "railNumbers": [
        1
      ]
    },
    {
      "tapTimeFrame": [
        12.7941952
      ],
      "railNumbers": [
        2
      ]
    },
    {
      "tapTimeFrame": [
        13.0031748
      ],
      "railNumbers": [
        2
      ]
    },
    {
      "tapTimeFrame": [
        13.1889343
      ],
      "railNumbers": [
        1
      ]
    },
    {
      "tapTimeFrame": [
        13.5836735
      ],
      "railNumbers": [
        2
      ]
    },
    {
      "tapTimeFrame": [
        13.769433
      ],
      "railNumbers": [
        2
      ]
    },
    {
      "tapTimeFrame": [
        13.9551926
      ],
      "railNumbers": [
        1
      ]
    },
    {
      "tapTimeFrame": [
        14.1641722
      ],
      "railNumbers": [
        1
      ]
    },
    {
      "tapTimeFrame": [
        14.3499317
      ],
      "railNumbers": [
        0
      ]
    },
    {
      "tapTimeFrame": [
        14.5589113
      ],
      "railNumbers": [
        2
      ]
    },
    {
      "tapTimeFrame": [
        14.7446709
      ],
      "railNumbers": [
        2
      ]
    },
    {
      "tapTimeFrame": [
        14.93043
      ],
      "railNumbers": [
        1
      ]
    },
    {
      "tapTimeFrame": [
        15.11619
      ],
      "railNumbers": [
        2
      ]
    },
    {
      "tapTimeFrame": [
        15.5109291
      ],
      "railNumbers": [
        1
      ]
    },
    {
      "tapTimeFrame": [
        15.7199087
      ],
      "railNumbers": [
        2
      ]
    },
    {
      "tapTimeFrame": [
        15.9056683
      ],
      "railNumbers": [
        2
      ]
    },
    {
      "tapTimeFrame": [
        16.0914288
      ],
      "railNumbers": [
        1
      ]
    },
    {
      "tapTimeFrame": [
        16.3004074
      ],
      "railNumbers": [
        1
      ]
    },
    {
      "tapTimeFrame": [
        16.6719265
      ],
      "railNumbers": [
        0
      ]
    },
    {
      "tapTimeFrame": [
        17.0666656
      ],
      "railNumbers": [
        2
      ]
    },
    {
      "tapTimeFrame": [
        17.2524261
      ],
      "railNumbers": [
        1
      ]
    },
    {
      "tapTimeFrame": [
        17.8329239
      ],
      "railNumbers": [
        1
      ]
    },
    {
      "tapTimeFrame": [
        18.4134235
      ],
      "railNumbers": [
        2
      ]
    },
    {
      "tapTimeFrame": [
        18.8081627
      ],
      "railNumbers": [
        2
      ]
    },
    {
      "tapTimeFrame": [
        18.9939232
      ],
      "railNumbers": [
        1
      ]
    },
    {
      "tapTimeFrame": [
        19.3886623
      ],
      "railNumbers": [
        2
      ]
    },
    {
      "tapTimeFrame": [
        19.57442
      ],
      "railNumbers": [
        1
      ]
    },
    {
      "tapTimeFrame": [
        19.96916
      ],
      "railNumbers": [
        2
      ]
    },
    {
      "tapTimeFrame": [
        20.15492
      ],
      "railNumbers": [
        0
      ]
    },
    {
      "tapTimeFrame": [
        20.3639
      ],
      "railNumbers": [
        1
      ]
    },
    {
      "tapTimeFrame": [
        20.54966
      ],
      "railNumbers": [
        2
      ]
    },
    {
      "tapTimeFrame": [
        20.7354183
      ],
      "railNumbers": [
        2
      ]
    },
    {
      "tapTimeFrame": [
        21.1301575
      ],
      "railNumbers": [
        1
      ]
    },
    {
      "tapTimeFrame": [
        21.315918
      ],
      "railNumbers": [
        0
      ]
    },
    {
      "tapTimeFrame": [
        21.7106571
      ],
      "railNumbers": [
        1
      ]
    },
    {
      "tapTimeFrame": [
        21.8964176
      ],
      "railNumbers": [
        2
      ]
    },
    {
      "tapTimeFrame": [
        22.1053963
      ],
      "railNumbers": [
        2
      ]
    },
    {
      "tapTimeFrame": [
        22.2911568
      ],
      "railNumbers": [
        2
      ]
    },
    {
      "tapTimeFrame": [
        22.4769154
      ],
      "railNumbers": [
        1
      ]
    },
    {
      "tapTimeFrame": [
        22.6626759
      ],
      "railNumbers": [
        2
      ]
    },
    {
      "tapTimeFrame": [
        22.8716545
      ],
      "railNumbers": [
        1
      ]
    },
    {
      "tapTimeFrame": [
        23.057415
      ],
      "railNumbers": [
        2
      ]
    },
    {
      "tapTimeFrame": [
        23.2663937
      ],
      "railNumbers": [
        2
      ]
    },
    {
      "tapTimeFrame": [
        23.4521542
      ],
      "railNumbers": [
        1
      ]
    },
    {
      "tapTimeFrame": [
        23.6379128
      ],
      "railNumbers": [
        1
      ]
    },
    {
      "tapTimeFrame": [
        23.8468933
      ],
      "railNumbers": [
        2
      ]
    },
    {
      "tapTimeFrame": [
        24.0326519
      ],
      "railNumbers": [
        2
      ]
    },
    {
      "tapTimeFrame": [
        24.2184124
      ],
      "railNumbers": [
        0
      ]
    },
    {
      "tapTimeFrame": [
        24.798912
      ],
      "railNumbers": [
        0
      ]
    },
    {
      "tapTimeFrame": [
        25.1936512
      ],
      "railNumbers": [
        1
      ]
    },
    {
      "tapTimeFrame": [
        25.37941
      ],
      "railNumbers": [
        2
      ]
    },
    {
      "tapTimeFrame": [
        25.58839
      ],
      "railNumbers": [
        1
      ]
    },
    {
      "tapTimeFrame": [
        25.7741489
      ],
      "railNumbers": [
        2
      ]
    },
    {
      "tapTimeFrame": [
        25.95991
      ],
      "railNumbers": [
        0
      ]
    },
    {
      "tapTimeFrame": [
        26.3546486
      ],
      "railNumbers": [
        1
      ]
    },
    {
      "tapTimeFrame": [
        26.5404072
      ],
      "railNumbers": [
        2
      ]
    },
    {
      "tapTimeFrame": [
        26.7493877
      ],
      "railNumbers": [
        2
      ]
    },
    {
      "tapTimeFrame": [
        27.1209068
      ],
      "railNumbers": [
        2
      ]
    },
    {
      "tapTimeFrame": [
        27.4227657
      ],
      "railNumbers": [
        2
      ]
    },
    {
      "tapTimeFrame": [
        27.7014046
      ],
      "railNumbers": [
        1
      ]
    },
    {
      "tapTimeFrame": [
        28.0961437
      ],
      "railNumbers": [
        1
      ]
    },
    {
      "tapTimeFrame": [
        28.2819042
      ],
      "railNumbers": [
        2
      ]
    },
    {
      "tapTimeFrame": [
        28.6766434
      ],
      "railNumbers": [
        1
      ]
    },
    {
      "tapTimeFrame": [
        28.8624039
      ],
      "railNumbers": [
        1
      ]
    },
    {
      "tapTimeFrame": [
        29.0713825
      ],
      "railNumbers": [
        2
      ]
    },
    {
      "tapTimeFrame": [
        29.257143
      ],
      "railNumbers": [
        2
      ]
    },
    {
      "tapTimeFrame": [
        29.4429016
      ],
      "railNumbers": [
        1
      ]
    },
    {
      "tapTimeFrame": [
        29.74476
      ],
      "railNumbers": [
        2
      ]
    },
    {
      "tapTimeFrame": [
        30.41814
      ],
      "railNumbers": [
        0
      ]
    },
    {
      "tapTimeFrame": [
        30.603899
      ],
      "railNumbers": [
        1
      ]
    },
    {
      "tapTimeFrame": [
        30.90576
      ],
      "railNumbers": [
        2
      ]
    },
    {
      "tapTimeFrame": [
        31.2540588
      ],
      "railNumbers": [
        2
      ]
    },
    {
      "tapTimeFrame": [
        31.973877
      ],
      "railNumbers": [
        1
      ]
    },
    {
      "tapTimeFrame": [
        32.1596375
      ],
      "railNumbers": [
        0
      ]
    },
    {
      "tapTimeFrame": [
        32.3453979
      ],
      "railNumbers": [
        2
      ]
    },
    {
      "tapTimeFrame": [
        32.7401352
      ],
      "railNumbers": [
        0
      ]
    },
    {
      "tapTimeFrame": [
        32.9258957
      ],
      "railNumbers": [
        2
      ]
    },
    {
      "tapTimeFrame": [
        33.1348763
      ],
      "railNumbers": [
        2
      ]
    },
    {
      "tapTimeFrame": [
        33.4135132
      ],
      "railNumbers": [
        2
      ]
    },
    {
      "tapTimeFrame": [
        33.715374
      ],
      "railNumbers": [
        2
      ]
    },
    {
      "tapTimeFrame": [
        33.9011345
      ],
      "railNumbers": [
        2
      ]
    },
    {
      "tapTimeFrame": [
        34.08689
      ],
      "railNumbers": [
        0
      ]
    },
    {
      "tapTimeFrame": [
        34.29587
      ],
      "railNumbers": [
        2
      ]
    },
    {
      "tapTimeFrame": [
        34.4816322
      ],
      "railNumbers": [
        0
      ]
    },
    {
      "tapTimeFrame": [
        34.6673927
      ],
      "railNumbers": [
        2
      ]
    },
    {
      "tapTimeFrame": [
        34.87637
      ],
      "railNumbers": [
        2
      ]
    },
    {
      "tapTimeFrame": [
        35.06213
      ],
      "railNumbers": [
        0
      ]
    },
    {
      "tapTimeFrame": [
        35.24789
      ],
      "railNumbers": [
        0
      ]
    },
    {
      "tapTimeFrame": [
        35.45687
      ],
      "railNumbers": [
        1
      ]
    },
    {
      "tapTimeFrame": [
        35.64263
      ],
      "railNumbers": [
        0
      ]
    },
    {
      "tapTimeFrame": [
        35.82839
      ],
      "railNumbers": [
        2
      ]
    },
    {
      "tapTimeFrame": [
        36.13025
      ],
      "railNumbers": [
        2
      ]
    },
    {
      "tapTimeFrame": [
        36.40889
      ],
      "railNumbers": [
        1
      ]
    },
    {
      "tapTimeFrame": [
        36.803627
      ],
      "railNumbers": [
        0
      ]
    },
    {
      "tapTimeFrame": [
        36.9893875
      ],
      "railNumbers": [
        1
      ]
    },
    {
      "tapTimeFrame": [
        37.3841248
      ],
      "railNumbers": [
        2
      ]
    },
    {
      "tapTimeFrame": [
        37.5698853
      ],
      "railNumbers": [
        1
      ]
    },
    {
      "tapTimeFrame": [
        37.7788658
      ],
      "railNumbers": [
        1
      ]
    },
    {
      "tapTimeFrame": [
        37.9646263
      ],
      "railNumbers": [
        1
      ]
    },
    {
      "tapTimeFrame": [
        38.150383
      ],
      "railNumbers": [
        0
      ]
    },
    {
      "tapTimeFrame": [
        38.3593636
      ],
      "railNumbers": [
        1
      ]
    },
    {
      "tapTimeFrame": [
        38.5451241
      ],
      "railNumbers": [
        1
      ]
    },
    {
      "tapTimeFrame": [
        38.7308846
      ],
      "railNumbers": [
        0
      ]
    },
    {
      "tapTimeFrame": [
        38.9398651
      ],
      "railNumbers": [
        1
      ]
    },
    {
      "tapTimeFrame": [
        39.12562
      ],
      "railNumbers": [
        0
      ]
    },
    {
      "tapTimeFrame": [
        39.3346024
      ],
      "railNumbers": [
        2
      ]
    },
    {
      "tapTimeFrame": [
        39.6132431
      ],
      "railNumbers": [
        2
      ]
    },
    {
      "tapTimeFrame": [
        39.89188
      ],
      "railNumbers": [
        1
      ]
    },
    {
      "tapTimeFrame": [
        40.10086
      ],
      "railNumbers": [
        2
      ]
    },
    {
      "tapTimeFrame": [
        40.28662
      ],
      "railNumbers": [
        0
      ]
    },
    {
      "tapTimeFrame": [
        40.68136
      ],
      "railNumbers": [
        0
      ]
    },
    {
      "tapTimeFrame": [
        40.86712
      ],
      "railNumbers": [
        0
      ]
    },
    {
      "tapTimeFrame": [
        41.0761
      ],
      "railNumbers": [
        1
      ]
    },
    {
      "tapTimeFrame": [
        41.26186
      ],
      "railNumbers": [
        0
      ]
    },
    {
      "tapTimeFrame": [
        41.4476166
      ],
      "railNumbers": [
        0
      ]
    },
    {
      "tapTimeFrame": [
        41.6565971,
        41.8423576,
        42.02812,
        42.21388,
        42.4228554,
        42.6086159,
        42.7943764
      ],
      "railNumbers": [
        1
      ]
    },
    {
      "tapTimeFrame": [
        43.0033569
      ],
      "railNumbers": [
        0
      ]
    },
    {
      "tapTimeFrame": [
        43.1891136
      ],
      "railNumbers": [
        0
      ]
    },
    {
      "tapTimeFrame": [
        43.3980942
      ],
      "railNumbers": [
        2
      ]
    },
    {
      "tapTimeFrame": [
        43.5838547
      ],
      "railNumbers": [
        2
      ]
    },
    {
      "tapTimeFrame": [
        43.7696152
      ],
      "railNumbers": [
        2
      ]
    },
    {
      "tapTimeFrame": [
        44.1643524
      ],
      "railNumbers": [
        1
      ]
    },
    {
      "tapTimeFrame": [
        44.3501129
      ],
      "railNumbers": [
        2
      ]
    },
    {
      "tapTimeFrame": [
        44.5590935
      ],
      "railNumbers": [
        2
      ]
    },
    {
      "tapTimeFrame": [
        44.74485
      ],
      "railNumbers": [
        1
      ]
    },
    {
      "tapTimeFrame": [
        44.93061
      ],
      "railNumbers": [
        0
      ]
    },
    {
      "tapTimeFrame": [
        45.13959
      ],
      "railNumbers": [
        2
      ]
    },
    {
      "tapTimeFrame": [
        45.418232
      ],
      "railNumbers": [
        2
      ]
    },
    {
      "tapTimeFrame": [
        45.69687
      ],
      "railNumbers": [
        1
      ]
    },
    {
      "tapTimeFrame": [
        45.90585
      ],
      "railNumbers": [
        1
      ]
    },
    {
      "tapTimeFrame": [
        46.09161
      ],
      "railNumbers": [
        1
      ]
    },
    {
      "tapTimeFrame": [
        46.30059
      ],
      "railNumbers": [
        2
      ]
    },
    {
      "tapTimeFrame": [
        46.4863472
      ],
      "railNumbers": [
        1
      ]
    },
    {
      "tapTimeFrame": [
        46.6721077
      ],
      "railNumbers": [
        2
      ]
    },
    {
      "tapTimeFrame": [
        46.88109
      ],
      "railNumbers": [
        2
      ]
    },
    {
      "tapTimeFrame": [
        47.06685
      ],
      "railNumbers": [
        1
      ]
    },
    {
      "tapTimeFrame": [
        47.2526054
      ],
      "railNumbers": [
        0
      ]
    },
    {
      "tapTimeFrame": [
        47.461586
      ],
      "railNumbers": [
        2
      ]
    },
    {
      "tapTimeFrame": [
        47.6473465
      ],
      "railNumbers": [
        1
      ]
    },
    {
      "tapTimeFrame": [
        47.833107
      ],
      "railNumbers": [
        1
      ]
    },
    {
      "tapTimeFrame": [
        48.0188637
      ],
      "railNumbers": [
        2
      ]
    },
    {
      "tapTimeFrame": [
        48.4136047
      ],
      "railNumbers": [
        0
      ]
    },
    {
      "tapTimeFrame": [
        48.808342
      ],
      "railNumbers": [
        1
      ]
    },
    {
      "tapTimeFrame": [
        48.9941025
      ],
      "railNumbers": [
        0
      ]
    },
    {
      "tapTimeFrame": [
        49.3888435
      ],
      "railNumbers": [
        0
      ]
    },
    {
      "tapTimeFrame": [
        49.574604
      ],
      "railNumbers": [
        0
      ]
    },
    {
      "tapTimeFrame": [
        49.78358
      ],
      "railNumbers": [
        2
      ]
    },
    {
      "tapTimeFrame": [
        49.96934
      ],
      "railNumbers": [
        2
      ]
    },
    {
      "tapTimeFrame": [
        50.1551
      ],
      "railNumbers": [
        2
      ]
    },
    {
      "tapTimeFrame": [
        50.3640823
      ],
      "railNumbers": [
        2
      ]
    },
    {
      "tapTimeFrame": [
        50.54984
      ],
      "railNumbers": [
        1
      ]
    },
    {
      "tapTimeFrame": [
        50.7356
      ],
      "railNumbers": [
        1
      ]
    },
    {
      "tapTimeFrame": [
        51.13034
      ],
      "railNumbers": [
        0
      ]
    },
    {
      "tapTimeFrame": [
        51.3160973
      ],
      "railNumbers": [
        2
      ]
    },
    {
      "tapTimeFrame": [
        51.6179581
      ],
      "railNumbers": [
        2
      ]
    },
    {
      "tapTimeFrame": [
        51.8966
      ],
      "railNumbers": [
        2
      ]
    },
    {
      "tapTimeFrame": [
        52.2913361
      ],
      "railNumbers": [
        1
      ]
    },
    {
      "tapTimeFrame": [
        52.4770966
      ],
      "railNumbers": [
        2
      ]
    },
    {
      "tapTimeFrame": [
        52.8718376
      ],
      "railNumbers": [
        2
      ]
    },
    {
      "tapTimeFrame": [
        53.0575943
      ],
      "railNumbers": [
        1
      ]
    },
    {
      "tapTimeFrame": [
        53.4523354
      ],
      "railNumbers": [
        0
      ]
    },
    {
      "tapTimeFrame": [
        53.6380959
      ],
      "railNumbers": [
        1
      ]
    },
    {
      "tapTimeFrame": [
        53.8470726
      ],
      "railNumbers": [
        2
      ]
    },
    {
      "tapTimeFrame": [
        54.0328331
      ],
      "railNumbers": [
        1
      ]
    },
    {
      "tapTimeFrame": [
        54.2185936
      ],
      "railNumbers": [
        1
      ]
    },
    {
      "tapTimeFrame": [
        54.79909
      ],
      "railNumbers": [
        2
      ]
    },
    {
      "tapTimeFrame": [
        55.1938324
      ],
      "railNumbers": [
        1
      ]
    },
    {
      "tapTimeFrame": [
        55.37959
      ],
      "railNumbers": [
        1
      ]
    },
    {
      "tapTimeFrame": [
        55.77433
      ],
      "railNumbers": [
        1
      ]
    },
    {
      "tapTimeFrame": [
        56.05297
      ],
      "railNumbers": [
        2
      ]
    },
    {
      "tapTimeFrame": [
        56.54059
      ],
      "railNumbers": [
        2
      ]
    },
    {
      "tapTimeFrame": [
        56.93533
      ],
      "railNumbers": [
        1
      ]
    },
    {
      "tapTimeFrame": [
        57.1210861
      ],
      "railNumbers": [
        2
      ]
    },
    {
      "tapTimeFrame": [
        57.3300667
      ],
      "railNumbers": [
        2
      ]
    },
    {
      "tapTimeFrame": [
        57.5158272
      ],
      "railNumbers": [
        1
      ]
    },
    {
      "tapTimeFrame": [
        57.7015877
      ],
      "railNumbers": [
        1
      ]
    },
    {
      "tapTimeFrame": [
        58.0963249
      ],
      "railNumbers": [
        2
      ]
    },
    {
      "tapTimeFrame": [
        58.2820854
      ],
      "railNumbers": [
        1
      ]
    },
    {
      "tapTimeFrame": [
        58.491066
      ],
      "railNumbers": [
        2
      ]
    },
    {
      "tapTimeFrame": [
        58.6768227
      ],
      "railNumbers": [
        1
      ]
    },
    {
      "tapTimeFrame": [
        58.8625832
      ],
      "railNumbers": [
        1
      ]
    },
    {
      "tapTimeFrame": [
        59.2573242
      ],
      "railNumbers": [
        2
      ]
    },
    {
      "tapTimeFrame": [
        59.4430847
      ],
      "railNumbers": [
        2
      ]
    },
    {
      "tapTimeFrame": [
        59.837822
      ],
      "railNumbers": [
        2
      ]
    },
    {
      "tapTimeFrame": [
        60.0235825
      ],
      "railNumbers": [
        1
      ]
    },
    {
      "tapTimeFrame": [
        60.41832
      ],
      "railNumbers": [
        1
      ]
    },
    {
      "tapTimeFrame": [
        60.81306
      ],
      "railNumbers": [
        2
      ]
    },
    {
      "tapTimeFrame": [
        61.1845779
      ],
      "railNumbers": [
        2
      ]
    },
    {
      "tapTimeFrame": [
        61.57932
      ],
      "railNumbers": [
        1
      ]
    },
    {
      "tapTimeFrame": [
        61.76508
      ],
      "railNumbers": [
        2
      ]
    },
    {
      "tapTimeFrame": [
        61.9740562
      ],
      "railNumbers": [
        2
      ]
    },
    {
      "tapTimeFrame": [
        62.1598167
      ],
      "railNumbers": [
        2
      ]
    },
    {
      "tapTimeFrame": [
        62.3455772
      ],
      "railNumbers": [
        1
      ]
    },
    {
      "tapTimeFrame": [
        62.7403145
      ],
      "railNumbers": [
        1
      ]
    },
    {
      "tapTimeFrame": [
        62.926075
      ],
      "railNumbers": [
        2
      ]
    },
    {
      "tapTimeFrame": [
        63.1350555
      ],
      "railNumbers": [
        2
      ]
    },
    {
      "tapTimeFrame": [
        63.320816
      ],
      "railNumbers": [
        2
      ]
    },
    {
      "tapTimeFrame": [
        63.5065765
      ],
      "railNumbers": [
        1
      ]
    },
    {
      "tapTimeFrame": [
        63.7155533
      ],
      "railNumbers": [
        2
      ]
    },
    {
      "tapTimeFrame": [
        63.9013138
      ],
      "railNumbers": [
        0
      ]
    },
    {
      "tapTimeFrame": [
        64.0870743
      ],
      "railNumbers": [
        2
      ]
    },
    {
      "tapTimeFrame": [
        64.38893
      ],
      "railNumbers": [
        2
      ]
    },
    {
      "tapTimeFrame": [
        64.66757
      ],
      "railNumbers": [
        1
      ]
    },
    {
      "tapTimeFrame": [
        65.06231
      ],
      "railNumbers": [
        1
      ]
    },
    {
      "tapTimeFrame": [
        65.64281
      ],
      "railNumbers": [
        1
      ]
    },
    {
      "tapTimeFrame": [
        65.82857
      ],
      "railNumbers": [
        2
      ]
    },
    {
      "tapTimeFrame": [
        66.22331
      ],
      "railNumbers": [
        1
      ]
    },
    {
      "tapTimeFrame": [
        66.61805
      ],
      "railNumbers": [
        1
      ]
    },
    {
      "tapTimeFrame": [
        66.80381
      ],
      "railNumbers": [
        1
      ]
    },
    {
      "tapTimeFrame": [
        66.98957
      ],
      "railNumbers": [
        2
      ]
    },
    {
      "tapTimeFrame": [
        67.38431
      ],
      "railNumbers": [
        1
      ]
    },
    {
      "tapTimeFrame": [
        67.57007
      ],
      "railNumbers": [
        2
      ]
    },
    {
      "tapTimeFrame": [
        67.9183655
      ],
      "railNumbers": [
        2
      ]
    },
    {
      "tapTimeFrame": [
        68.1505661
      ],
      "railNumbers": [
        2
      ]
    },
    {
      "tapTimeFrame": [
        68.5453
      ],
      "railNumbers": [
        0
      ]
    },
    {
      "tapTimeFrame": [
        68.94004
      ],
      "railNumbers": [
        1
      ]
    },
    {
      "tapTimeFrame": [
        69.1258
      ],
      "railNumbers": [
        2
      ]
    },
    {
      "tapTimeFrame": [
        69.31156
      ],
      "railNumbers": [
        1
      ]
    },
    {
      "tapTimeFrame": [
        69.7063
      ],
      "railNumbers": [
        0
      ]
    },
    {
      "tapTimeFrame": [
        70.10104
      ],
      "railNumbers": [
        1
      ]
    },
    {
      "tapTimeFrame": [
        70.2868042
      ],
      "railNumbers": [
        1
      ]
    },
    {
      "tapTimeFrame": [
        70.49578
      ],
      "railNumbers": [
        1
      ]
    },
    {
      "tapTimeFrame": [
        70.68154
      ],
      "railNumbers": [
        1
      ]
    },
    {
      "tapTimeFrame": [
        70.8673
      ],
      "railNumbers": [
        0
      ]
    },
    {
      "tapTimeFrame": [
        71.26204
      ],
      "railNumbers": [
        2
      ]
    },
    {
      "tapTimeFrame": [
        71.4478
      ],
      "railNumbers": [
        1
      ]
    },
    {
      "tapTimeFrame": [
        71.63356
      ],
      "railNumbers": [
        1
      ]
    },
    {
      "tapTimeFrame": [
        71.84254
      ],
      "railNumbers": [
        1
      ]
    },
    {
      "tapTimeFrame": [
        72.0283
      ],
      "railNumbers": [
        1
      ]
    },
    {
      "tapTimeFrame": [
        72.21406
      ],
      "railNumbers": [
        2
      ]
    },
    {
      "tapTimeFrame": [
        72.4230347
      ],
      "railNumbers": [
        1
      ]
    },
    {
      "tapTimeFrame": [
        72.6087952
      ],
      "railNumbers": [
        1
      ]
    },
    {
      "tapTimeFrame": [
        72.7945557
      ],
      "railNumbers": [
        1
      ]
    },
    {
      "tapTimeFrame": [
        73.00353
      ],
      "railNumbers": [
        2
      ]
    },
    {
      "tapTimeFrame": [
        73.18929
      ],
      "railNumbers": [
        0
      ]
    },
    {
      "tapTimeFrame": [
        73.58404
      ],
      "railNumbers": [
        0
      ]
    },
    {
      "tapTimeFrame": [
        73.7698
      ],
      "railNumbers": [
        0
      ]
    },
    {
      "tapTimeFrame": [
        73.95555
      ],
      "railNumbers": [
        1
      ]
    },
    {
      "tapTimeFrame": [
        74.1645355
      ],
      "railNumbers": [
        1
      ]
    },
    {
      "tapTimeFrame": [
        74.350296
      ],
      "railNumbers": [
        0
      ]
    },
    {
      "tapTimeFrame": [
        74.74503
      ],
      "railNumbers": [
        1
      ]
    },
    {
      "tapTimeFrame": [
        74.93079
      ],
      "railNumbers": [
        1
      ]
    },
    {
      "tapTimeFrame": [
        75.13977
      ],
      "railNumbers": [
        2
      ]
    },
    {
      "tapTimeFrame": [
        75.32553
      ],
      "railNumbers": [
        0
      ]
    },
    {
      "tapTimeFrame": [
        75.51129
      ],
      "railNumbers": [
        0
      ]
    },
    {
      "tapTimeFrame": [
        75.72027
      ],
      "railNumbers": [
        2
      ]
    },
    {
      "tapTimeFrame": [
        75.90603
      ],
      "railNumbers": [
        0
      ]
    },
    {
      "tapTimeFrame": [
        76.09179
      ],
      "railNumbers": [
        1
      ]
    },
    {
      "tapTimeFrame": [
        76.27755
      ],
      "railNumbers": [
        2
      ]
    },
    {
      "tapTimeFrame": [
        76.48653
      ],
      "railNumbers": [
        1
      ]
    },
    {
      "tapTimeFrame": [
        76.67229
      ],
      "railNumbers": [
        1
      ]
    },
    {
      "tapTimeFrame": [
        76.85805
      ],
      "railNumbers": [
        1
      ]
    },
    {
      "tapTimeFrame": [
        77.06703
      ],
      "railNumbers": [
        0
      ]
    },
    {
      "tapTimeFrame": [
        77.2527847
      ],
      "railNumbers": [
        1
      ]
    },
    {
      "tapTimeFrame": [
        77.4385452
      ],
      "railNumbers": [
        2
      ]
    },
    {
      "tapTimeFrame": [
        77.64753
      ],
      "railNumbers": [
        2
      ]
    },
    {
      "tapTimeFrame": [
        77.83329
      ],
      "railNumbers": [
        0
      ]
    },
    {
      "tapTimeFrame": [
        78.04227
      ],
      "railNumbers": [
        1
      ]
    },
    {
      "tapTimeFrame": [
        78.22803
      ],
      "railNumbers": [
        1
      ]
    },
    {
      "tapTimeFrame": [
        78.41379
      ],
      "railNumbers": [
        0
      ]
    },
    {
      "tapTimeFrame": [
        78.59955
      ],
      "railNumbers": [
        2
      ]
    },
    {
      "tapTimeFrame": [
        78.8085251
      ],
      "railNumbers": [
        1
      ]
    },
    {
      "tapTimeFrame": [
        78.9942856
      ],
      "railNumbers": [
        0
      ]
    },
    {
      "tapTimeFrame": [
        79.20326
      ],
      "railNumbers": [
        2
      ]
    },
    {
      "tapTimeFrame": [
        79.38902
      ],
      "railNumbers": [
        0
      ]
    },
    {
      "tapTimeFrame": [
        79.57478
      ],
      "railNumbers": [
        1
      ]
    },
    {
      "tapTimeFrame": [
        79.78376
      ],
      "railNumbers": [
        2
      ]
    },
    {
      "tapTimeFrame": [
        79.96952
      ],
      "railNumbers": [
        1
      ]
    },
    {
      "tapTimeFrame": [
        80.15528
      ],
      "railNumbers": [
        0
      ]
    },
    {
      "tapTimeFrame": [
        80.45714,
        80.73578,
        80.94476,
        81.13052,
        81.31628,
        81.50204
      ],
      "railNumbers": [
        2
      ]
    },
    {
      "tapTimeFrame": [
        81.71102
      ],
      "railNumbers": [
        0
      ]
    },
    {
      "tapTimeFrame": [
        81.89678
      ],
      "railNumbers": [
        1
      ]
    },
    {
      "tapTimeFrame": [
        82.0825348
      ],
      "railNumbers": [
        2
      ]
    },
    {
      "tapTimeFrame": [
        82.29152
      ],
      "railNumbers": [
        0
      ]
    },
    {
      "tapTimeFrame": [
        82.47728
      ],
      "railNumbers": [
        0
      ]
    },
    {
      "tapTimeFrame": [
        82.68626
      ],
      "railNumbers": [
        2
      ]
    },
    {
      "tapTimeFrame": [
        82.87202
      ],
      "railNumbers": [
        0
      ]
    },
    {
      "tapTimeFrame": [
        83.05778
      ],
      "railNumbers": [
        0
      ]
    },
    {
      "tapTimeFrame": [
        83.24354
      ],
      "railNumbers": [
        2
      ]
    },
    {
      "tapTimeFrame": [
        83.4525146
      ],
      "railNumbers": [
        1
      ]
    },
    {
      "tapTimeFrame": [
        83.6382751
      ],
      "railNumbers": [
        0
      ]
    },
    {
      "tapTimeFrame": [
        83.84725
      ],
      "railNumbers": [
        1
      ]
    },
    {
      "tapTimeFrame": [
        84.03301
      ],
      "railNumbers": [
        0
      ]
    },
    {
      "tapTimeFrame": [
        84.21877
      ],
      "railNumbers": [
        1
      ]
    },
    {
      "tapTimeFrame": [
        84.42776
      ],
      "railNumbers": [
        1
      ]
    },
    {
      "tapTimeFrame": [
        84.61351
      ],
      "railNumbers": [
        0
      ]
    },
    {
      "tapTimeFrame": [
        84.79927
      ],
      "railNumbers": [
        0
      ]
    },
    {
      "tapTimeFrame": [
        85.008255
      ],
      "railNumbers": [
        1
      ]
    },
    {
      "tapTimeFrame": [
        85.1940155
      ],
      "railNumbers": [
        0
      ]
    },
    {
      "tapTimeFrame": [
        85.37977
      ],
      "railNumbers": [
        1
      ]
    },
    {
      "tapTimeFrame": [
        85.58875
      ],
      "railNumbers": [
        1
      ]
    },
    {
      "tapTimeFrame": [
        85.77451
      ],
      "railNumbers": [
        1
      ]
    },
    {
      "tapTimeFrame": [
        85.96027
      ],
      "railNumbers": [
        0
      ]
    },
    {
      "tapTimeFrame": [
        86.16925
      ],
      "railNumbers": [
        2
      ]
    },
    {
      "tapTimeFrame": [
        86.35501
      ],
      "railNumbers": [
        0
      ]
    },
    {
      "tapTimeFrame": [
        86.54077
      ],
      "railNumbers": [
        1
      ]
    },
    {
      "tapTimeFrame": [
        86.74975
      ],
      "railNumbers": [
        1
      ]
    },
    {
      "tapTimeFrame": [
        86.93551
      ],
      "railNumbers": [
        2
      ]
    },
    {
      "tapTimeFrame": [
        87.12127
      ],
      "railNumbers": [
        1
      ]
    },
    {
      "tapTimeFrame": [
        87.330246
      ],
      "railNumbers": [
        2
      ]
    },
    {
      "tapTimeFrame": [
        87.51601
      ],
      "railNumbers": [
        0
      ]
    },
    {
      "tapTimeFrame": [
        87.70177
      ],
      "railNumbers": [
        2
      ]
    },
    {
      "tapTimeFrame": [
        87.91074
      ],
      "railNumbers": [
        2
      ]
    },
    {
      "tapTimeFrame": [
        88.0965042
      ],
      "railNumbers": [
        1
      ]
    },
    {
      "tapTimeFrame": [
        88.2822647
      ],
      "railNumbers": [
        0
      ]
    },
    {
      "tapTimeFrame": [
        88.49125
      ],
      "railNumbers": [
        2
      ]
    },
    {
      "tapTimeFrame": [
        88.677
      ],
      "railNumbers": [
        1
      ]
    },
    {
      "tapTimeFrame": [
        88.86276
      ],
      "railNumbers": [
        2
      ]
    },
    {
      "tapTimeFrame": [
        89.07175
      ],
      "railNumbers": [
        2
      ]
    },
    {
      "tapTimeFrame": [
        89.25751
      ],
      "railNumbers": [
        1
      ]
    },
    {
      "tapTimeFrame": [
        89.44326
      ],
      "railNumbers": [
        1
      ]
    },
    {
      "tapTimeFrame": [
        89.6522446
      ],
      "railNumbers": [
        1
      ]
    },
    {
      "tapTimeFrame": [
        89.8380051
      ],
      "railNumbers": [
        0
      ]
    },
    {
      "tapTimeFrame": [
        90.0237656
      ],
      "railNumbers": [
        2
      ]
    },
    {
      "tapTimeFrame": [
        90.23274
      ],
      "railNumbers": [
        1
      ]
    },
    {
      "tapTimeFrame": [
        90.4185
      ],
      "railNumbers": [
        1
      ]
    },
    {
      "tapTimeFrame": [
        90.60426
      ],
      "railNumbers": [
        0
      ]
    },
    {
      "tapTimeFrame": [
        90.81324
      ],
      "railNumbers": [
        2
      ]
    },
    {
      "tapTimeFrame": [
        90.999,
        91.18476,
        91.39374,
        91.5795,
        91.76526,
        91.9742355
      ],
      "railNumbers": [
        1
      ]
    },
    {
      "tapTimeFrame": [
        92.159996
      ],
      "railNumbers": [
        0
      ]
    },
    {
      "tapTimeFrame": [
        92.34576
      ],
      "railNumbers": [
        2
      ]
    },
    {
      "tapTimeFrame": [
        92.55474
      ],
      "railNumbers": [
        1
      ]
    },
    {
      "tapTimeFrame": [
        92.74049
      ],
      "railNumbers": [
        1
      ]
    },
    {
      "tapTimeFrame": [
        92.9262543
      ],
      "railNumbers": [
        1
      ]
    },
    {
      "tapTimeFrame": [
        93.13524
      ],
      "railNumbers": [
        1
      ]
    },
    {
      "tapTimeFrame": [
        93.321
      ],
      "railNumbers": [
        0
      ]
    },
    {
      "tapTimeFrame": [
        93.50675
      ],
      "railNumbers": [
        1
      ]
    }
  ]
}