{
  "noteSteps": [
    {
      "tapTimeFrame": [
        1.021678
      ],
      "railNumbers": [
        1
      ]
    },
    {
      "tapTimeFrame": [
        1.27709746
      ],
      "railNumbers": [
        1
      ]
    },
    {
      "tapTimeFrame": [
        1.48607707
      ],
      "railNumbers": [
        2
      ]
    },
    {
      "tapTimeFrame": [
        1.88081634
      ],
      "railNumbers": [
        1
      ]
    },
    {
      "tapTimeFrame": [
        2.13623571
      ],
      "railNumbers": [
        1
      ]
    },
    {
      "tapTimeFrame": [
        2.36843538
      ],
      "railNumbers": [
        2
      ]
    },
    {
      "tapTimeFrame": [
        2.67029476
      ],
      "railNumbers": [
        1
      ]
    },
    {
      "tapTimeFrame": [
        2.9953742
      ],
      "railNumbers": [
        1
      ]
    },
    {
      "tapTimeFrame": [
        3.22757363
      ],
      "railNumbers": [
        1
      ]
    },
    {
      "tapTimeFrame": [
        3.599093
      ],
      "railNumbers": [
        0
      ]
    },
    {
      "tapTimeFrame": [
        3.85451245
      ],
      "railNumbers": [
        2
      ]
    },
    {
      "tapTimeFrame": [
        4.109932
      ],
      "railNumbers": [
        2
      ]
    },
    {
      "tapTimeFrame": [
        4.365351
      ],
      "railNumbers": [
        2
      ]
    },
    {
      "tapTimeFrame": [
        4.597551
      ],
      "railNumbers": [
        2
      ]
    },
    {
      "tapTimeFrame": [
        4.94585037
      ],
      "railNumbers": [
        1
      ]
    },
    {
      "tapTimeFrame": [
        5.20126963
      ],
      "railNumbers": [
        2
      ]
    },
    {
      "tapTimeFrame": [
        5.572789
      ],
      "railNumbers": [
        1
      ]
    },
    {
      "tapTimeFrame": [
        5.80498838
      ],
      "railNumbers": [
        1
      ]
    },
    {
      "tapTimeFrame": [
        6.083628
      ],
      "railNumbers": [
        2
      ]
    },
    {
      "tapTimeFrame": [
        6.26938772
      ],
      "railNumbers": [
        0
      ]
    },
    {
      "tapTimeFrame": [
        6.548027
      ],
      "railNumbers": [
        0
      ]
    },
    {
      "tapTimeFrame": [
        6.78022671
      ],
      "railNumbers": [
        2
      ]
    },
    {
      "tapTimeFrame": [
        7.12852573
      ],
      "railNumbers": [
        1
      ]
    },
    {
      "tapTimeFrame": [
        7.52326536
      ],
      "railNumbers": [
        0
      ]
    },
    {
      "tapTimeFrame": [
        7.732245
      ],
      "railNumbers": [
        1
      ]
    },
    {
      "tapTimeFrame": [
        7.964444
      ],
      "railNumbers": [
        1
      ]
    },
    {
      "tapTimeFrame": [
        8.196644
      ],
      "railNumbers": [
        2
      ]
    },
    {
      "tapTimeFrame": [
        8.498504
      ],
      "railNumbers": [
        0
      ]
    },
    {
      "tapTimeFrame": [
        8.846803
      ],
      "railNumbers": [
        2
      ]
    },
    {
      "tapTimeFrame": [
        9.079002
      ],
      "railNumbers": [
        1
      ]
    },
    {
      "tapTimeFrame": [
        9.450521
      ],
      "railNumbers": [
        1
      ]
    },
    {
      "tapTimeFrame": [
        9.705941
      ],
      "railNumbers": [
        2
      ]
    },
    {
      "tapTimeFrame": [
        9.96136
      ],
      "railNumbers": [
        0
      ]
    },
    {
      "tapTimeFrame": [
        10.4489794
      ],
      "railNumbers": [
        1
      ]
    },
    {
      "tapTimeFrame": [
        10.8204985
      ],
      "railNumbers": [
        0
      ]
    },
    {
      "tapTimeFrame": [
        11.0759182
      ],
      "railNumbers": [
        1
      ]
    },
    {
      "tapTimeFrame": [
        11.4474373
      ],
      "railNumbers": [
        0
      ]
    },
    {
      "tapTimeFrame": [
        11.8421764
      ],
      "railNumbers": [
        2
      ]
    },
    {
      "tapTimeFrame": [
        12.0975962
      ],
      "railNumbers": [
        2
      ]
    },
    {
      "tapTimeFrame": [
        12.4226751
      ],
      "railNumbers": [
        0
      ]
    },
    {
      "tapTimeFrame": [
        12.7709751
      ],
      "railNumbers": [
        0
      ]
    },
    {
      "tapTimeFrame": [
        13.049614
      ],
      "railNumbers": [
        2
      ]
    },
    {
      "tapTimeFrame": [
        13.3979139
      ],
      "railNumbers": [
        0
      ]
    },
    {
      "tapTimeFrame": [
        13.6301136
      ],
      "railNumbers": [
        2
      ]
    },
    {
      "tapTimeFrame": [
        13.8623123
      ],
      "railNumbers": [
        0
      ]
    },
    {
      "tapTimeFrame": [
        14.0712919
      ],
      "railNumbers": [
        0
      ]
    },
    {
      "tapTimeFrame": [
        14.3499317
      ],
      "railNumbers": [
        0
      ]
    },
    {
      "tapTimeFrame": [
        14.5589113
      ],
      "railNumbers": [
        2
      ]
    },
    {
      "tapTimeFrame": [
        14.8143311
      ],
      "railNumbers": [
        0
      ]
    },
    {
      "tapTimeFrame": [
        15.2787294
      ],
      "railNumbers": [
        1
      ]
    },
    {
      "tapTimeFrame": [
        15.7663488
      ],
      "railNumbers": [
        2
      ]
    },
    {
      "tapTimeFrame": [
        16.2307472
      ],
      "railNumbers": [
        2
      ]
    },
    {
      "tapTimeFrame": [
        16.532608
      ],
      "railNumbers": [
        2
      ]
    },
    {
      "tapTimeFrame": [
        16.7183666
      ],
      "railNumbers": [
        1
      ]
    },
    {
      "tapTimeFrame": [
        16.9273472
      ],
      "railNumbers": [
        1
      ]
    },
    {
      "tapTimeFrame": [
        17.2292061
      ],
      "railNumbers": [
        1
      ]
    },
    {
      "tapTimeFrame": [
        17.6703854
      ],
      "railNumbers": [
        2
      ]
    },
    {
      "tapTimeFrame": [
        17.9025841
      ],
      "railNumbers": [
        1
      ]
    },
    {
      "tapTimeFrame": [
        18.1812248
      ],
      "railNumbers": [
        0
      ]
    },
    {
      "tapTimeFrame": [
        18.5295238
      ],
      "railNumbers": [
        0
      ]
    },
    {
      "tapTimeFrame": [
        18.8546028
      ],
      "railNumbers": [
        1
      ]
    },
    {
      "tapTimeFrame": [
        19.1332417
      ],
      "railNumbers": [
        0
      ]
    },
    {
      "tapTimeFrame": [
        19.597641
      ],
      "railNumbers": [
        1
      ]
    },
    {
      "tapTimeFrame": [
        20.0156
      ],
      "railNumbers": [
        2
      ]
    },
    {
      "tapTimeFrame": [
        20.38712
      ],
      "railNumbers": [
        2
      ]
    },
    {
      "tapTimeFrame": [
        20.61932
      ],
      "railNumbers": [
        2
      ]
    },
    {
      "tapTimeFrame": [
        20.8050785
      ],
      "railNumbers": [
        2
      ]
    },
    {
      "tapTimeFrame": [
        21.0605
      ],
      "railNumbers": [
        0
      ]
    },
    {
      "tapTimeFrame": [
        21.5248966
      ],
      "railNumbers": [
        2
      ]
    },
    {
      "tapTimeFrame": [
        21.7338772
      ],
      "railNumbers": [
        0
      ]
    },
    {
      "tapTimeFrame": [
        22.012516
      ],
      "railNumbers": [
        1
      ]
    },
    {
      "tapTimeFrame": [
        22.3375969
      ],
      "railNumbers": [
        0
      ]
    },
    {
      "tapTimeFrame": [
        22.709116
      ],
      "railNumbers": [
        1
      ]
    },
    {
      "tapTimeFrame": [
        22.9645348
      ],
      "railNumbers": [
        0
      ]
    },
    {
      "tapTimeFrame": [
        23.4289341
      ],
      "railNumbers": [
        1
      ]
    },
    {
      "tapTimeFrame": [
        23.6146927
      ],
      "railNumbers": [
        2
      ]
    },
    {
      "tapTimeFrame": [
        23.8933334
      ],
      "railNumbers": [
        0
      ]
    },
    {
      "tapTimeFrame": [
        24.2416325
      ],
      "railNumbers": [
        2
      ]
    },
    {
      "tapTimeFrame": [
        24.5434914
      ],
      "railNumbers": [
        2
      ]
    },
    {
      "tapTimeFrame": [
        24.86857
      ],
      "railNumbers": [
        0
      ]
    },
    {
      "tapTimeFrame": [
        25.21687
      ],
      "railNumbers": [
        2
      ]
    },
    {
      "tapTimeFrame": [
        25.54195
      ],
      "railNumbers": [
        2
      ]
    },
    {
      "tapTimeFrame": [
        25.82059
      ],
      "railNumbers": [
        0
      ]
    },
    {
      "tapTimeFrame": [
        26.1688881
      ],
      "railNumbers": [
        0
      ]
    },
    {
      "tapTimeFrame": [
        26.4939671
      ],
      "railNumbers": [
        2
      ]
    },
    {
      "tapTimeFrame": [
        26.7958279
      ],
      "railNumbers": [
        1
      ]
    },
    {
      "tapTimeFrame": [
        27.2602272
      ],
      "railNumbers": [
        0
      ]
    },
    {
      "tapTimeFrame": [
        27.7478447
      ],
      "railNumbers": [
        0
      ]
    },
    {
      "tapTimeFrame": [
        28.0032654
      ],
      "railNumbers": [
        2
      ]
    },
    {
      "tapTimeFrame": [
        28.212244
      ],
      "railNumbers": [
        2
      ]
    },
    {
      "tapTimeFrame": [
        28.4212246
      ],
      "railNumbers": [
        2
      ]
    },
    {
      "tapTimeFrame": [
        28.6998634
      ],
      "railNumbers": [
        0
      ]
    },
    {
      "tapTimeFrame": [
        29.1642628
      ],
      "railNumbers": [
        1
      ]
    },
    {
      "tapTimeFrame": [
        29.3964615
      ],
      "railNumbers": [
        0
      ]
    },
    {
      "tapTimeFrame": [
        29.6751022
      ],
      "railNumbers": [
        1
      ]
    },
    {
      "tapTimeFrame": [
        29.86086
      ],
      "railNumbers": [
        2
      ]
    },
    {
      "tapTimeFrame": [
        30.0930614
      ],
      "railNumbers": [
        2
      ]
    },
    {
      "tapTimeFrame": [
        30.603899
      ],
      "railNumbers": [
        0
      ]
    },
    {
      "tapTimeFrame": [
        31.0915184
      ],
      "railNumbers": [
        2
      ]
    },
    {
      "tapTimeFrame": [
        31.5791378
      ],
      "railNumbers": [
        0
      ]
    },
    {
      "tapTimeFrame": [
        31.9506569
      ],
      "railNumbers": [
        1
      ]
    },
    {
      "tapTimeFrame": [
        32.1828575
      ],
      "railNumbers": [
        0
      ]
    },
    {
      "tapTimeFrame": [
        32.5311546
      ],
      "railNumbers": [
        2
      ]
    },
    {
      "tapTimeFrame": [
        33.0187759
      ],
      "railNumbers": [
        1
      ]
    },
    {
      "tapTimeFrame": [
        33.2974129
      ],
      "railNumbers": [
        2
      ]
    },
    {
      "tapTimeFrame": [
        33.5296135
      ],
      "railNumbers": [
        0
      ]
    },
    {
      "tapTimeFrame": [
        33.9011345
      ],
      "railNumbers": [
        1
      ]
    },
    {
      "tapTimeFrame": [
        34.13333
      ],
      "railNumbers": [
        0
      ]
    },
    {
      "tapTimeFrame": [
        34.5280724
      ],
      "railNumbers": [
        1
      ]
    },
    {
      "tapTimeFrame": [
        34.7370529
      ],
      "railNumbers": [
        2
      ]
    },
    {
      "tapTimeFrame": [
        34.99247
      ],
      "railNumbers": [
        0
      ]
    },
    {
      "tapTimeFrame": [
        35.20145
      ],
      "railNumbers": [
        2
      ]
    },
    {
      "tapTimeFrame": [
        35.48009
      ],
      "railNumbers": [
        0
      ]
    },
    {
      "tapTimeFrame": [
        35.85161
      ],
      "railNumbers": [
        1
      ]
    },
    {
      "tapTimeFrame": [
        36.08381
      ],
      "railNumbers": [
        0
      ]
    },
    {
      "tapTimeFrame": [
        36.45533
      ],
      "railNumbers": [
        0
      ]
    },
    {
      "tapTimeFrame": [
        36.6875267
      ],
      "railNumbers": [
        1
      ]
    },
    {
      "tapTimeFrame": [
        36.9197273
      ],
      "railNumbers": [
        1
      ]
    },
    {
      "tapTimeFrame": [
        37.1519279
      ],
      "railNumbers": [
        1
      ]
    },
    {
      "tapTimeFrame": [
        37.4073448
      ],
      "railNumbers": [
        0
      ]
    },
    {
      "tapTimeFrame": [
        37.6163254
      ],
      "railNumbers": [
        2
      ]
    },
    {
      "tapTimeFrame": [
        38.0110664
      ],
      "railNumbers": [
        0
      ]
    },
    {
      "tapTimeFrame": [
        38.3825836
      ],
      "railNumbers": [
        0
      ]
    },
    {
      "tapTimeFrame": [
        38.8469849
      ],
      "railNumbers": [
        1
      ]
    },
    {
      "tapTimeFrame": [
        39.07918
      ],
      "railNumbers": [
        2
      ]
    },
    {
      "tapTimeFrame": [
        39.3346024
      ],
      "railNumbers": [
        0
      ]
    },
    {
      "tapTimeFrame": [
        39.7061234
      ],
      "railNumbers": [
        0
      ]
    },
    {
      "tapTimeFrame": [
        39.93832
      ],
      "railNumbers": [
        0
      ]
    },
    {
      "tapTimeFrame": [
        40.30984
      ],
      "railNumbers": [
        0
      ]
    },
    {
      "tapTimeFrame": [
        40.77424
      ],
      "railNumbers": [
        1
      ]
    },
    {
      "tapTimeFrame": [
        41.02966
      ],
      "railNumbers": [
        1
      ]
    },
    {
      "tapTimeFrame": [
        41.28508
      ],
      "railNumbers": [
        0
      ]
    },
    {
      "tapTimeFrame": [
        41.6333771
      ],
      "railNumbers": [
        2
      ]
    },
    {
      "tapTimeFrame": [
        41.9120178
      ],
      "railNumbers": [
        1
      ]
    },
    {
      "tapTimeFrame": [
        42.283535
      ],
      "railNumbers": [
        1
      ]
    },
    {
      "tapTimeFrame": [
        42.7247162
      ],
      "railNumbers": [
        1
      ]
    },
    {
      "tapTimeFrame": [
        42.9569168
      ],
      "railNumbers": [
        2
      ]
    },
    {
      "tapTimeFrame": [
        43.2355537
      ],
      "railNumbers": [
        0
      ]
    },
    {
      "tapTimeFrame": [
        43.5838547
      ],
      "railNumbers": [
        0
      ]
    },
    {
      "tapTimeFrame": [
        43.7928352
      ],
      "railNumbers": [
        2
      ]
    },
    {
      "tapTimeFrame": [
        44.1875725
      ],
      "railNumbers": [
        0
      ]
    },
    {
      "tapTimeFrame": [
        44.4429932
      ],
      "railNumbers": [
        2
      ]
    },
    {
      "tapTimeFrame": [
        44.6751938
      ],
      "railNumbers": [
        0
      ]
    },
    {
      "tapTimeFrame": [
        44.90739
      ],
      "railNumbers": [
        1
      ]
    },
    {
      "tapTimeFrame": [
        45.13959
      ],
      "railNumbers": [
        0
      ]
    },
    {
      "tapTimeFrame": [
        45.51111
      ],
      "railNumbers": [
        1
      ]
    },
    {
      "tapTimeFrame": [
        45.76653
      ],
      "railNumbers": [
        1
      ]
    },
    {
      "tapTimeFrame": [
        46.11483
      ],
      "railNumbers": [
        0
      ]
    },
    {
      "tapTimeFrame": [
        46.5560074
      ],
      "railNumbers": [
        0
      ]
    },
    {
      "tapTimeFrame": [
        46.8114281
      ],
      "railNumbers": [
        2
      ]
    },
    {
      "tapTimeFrame": [
        47.02041
      ],
      "railNumbers": [
        2
      ]
    },
    {
      "tapTimeFrame": [
        47.3454857
      ],
      "railNumbers": [
        2
      ]
    },
    {
      "tapTimeFrame": [
        47.6937866
      ],
      "railNumbers": [
        2
      ]
    },
    {
      "tapTimeFrame": [
        47.9956436
      ],
      "railNumbers": [
        0
      ]
    },
    {
      "tapTimeFrame": [
        48.2742844
      ],
      "railNumbers": [
        2
      ]
    },
    {
      "tapTimeFrame": [
        48.4600449
      ],
      "railNumbers": [
        1
      ]
    },
    {
      "tapTimeFrame": [
        48.7386856
      ],
      "railNumbers": [
        2
      ]
    },
    {
      "tapTimeFrame": [
        48.9708824
      ],
      "railNumbers": [
        0
      ]
    },
    {
      "tapTimeFrame": [
        49.203083
      ],
      "railNumbers": [
        2
      ]
    },
    {
      "tapTimeFrame": [
        49.4352837
      ],
      "railNumbers": [
        1
      ]
    },
    {
      "tapTimeFrame": [
        49.9229
      ],
      "railNumbers": [
        0
      ]
    },
    {
      "tapTimeFrame": [
        50.3873024
      ],
      "railNumbers": [
        1
      ]
    },
    {
      "tapTimeFrame": [
        50.64272
      ],
      "railNumbers": [
        1
      ]
    },
    {
      "tapTimeFrame": [
        50.87492
      ],
      "railNumbers": [
        1
      ]
    },
    {
      "tapTimeFrame": [
        51.2464371
      ],
      "railNumbers": [
        1
      ]
    },
    {
      "tapTimeFrame": [
        51.4786377
      ],
      "railNumbers": [
        2
      ]
    },
    {
      "tapTimeFrame": [
        51.85016
      ],
      "railNumbers": [
        0
      ]
    },
    {
      "tapTimeFrame": [
        52.1984558
      ],
      "railNumbers": [
        2
      ]
    },
    {
      "tapTimeFrame": [
        52.5467567
      ],
      "railNumbers": [
        2
      ]
    },
    {
      "tapTimeFrame": [
        52.7789574
      ],
      "railNumbers": [
        0
      ]
    },
    {
      "tapTimeFrame": [
        53.1504745
      ],
      "railNumbers": [
        0
      ]
    },
    {
      "tapTimeFrame": [
        53.3594551
      ],
      "railNumbers": [
        1
      ]
    },
    {
      "tapTimeFrame": [
        53.7541924
      ],
      "railNumbers": [
        0
      ]
    },
    {
      "tapTimeFrame": [
        54.1953735
      ],
      "railNumbers": [
        1
      ]
    },
    {
      "tapTimeFrame": [
        54.4507942
      ],
      "railNumbers": [
        1
      ]
    },
    {
      "tapTimeFrame": [
        54.65977
      ],
      "railNumbers": [
        2
      ]
    },
    {
      "tapTimeFrame": [
        54.91519
      ],
      "railNumbers": [
        2
      ]
    },
    {
      "tapTimeFrame": [
        55.1706123
      ],
      "railNumbers": [
        2
      ]
    },
    {
      "tapTimeFrame": [
        55.65823
      ],
      "railNumbers": [
        0
      ]
    },
    {
      "tapTimeFrame": [
        55.91365
      ],
      "railNumbers": [
        2
      ]
    },
    {
      "tapTimeFrame": [
        56.09941
      ],
      "railNumbers": [
        1
      ]
    },
    {
      "tapTimeFrame": [
        56.3780479
      ],
      "railNumbers": [
        2
      ]
    },
    {
      "tapTimeFrame": [
        56.61025
      ],
      "railNumbers": [
        0
      ]
    },
    {
      "tapTimeFrame": [
        56.95855
      ],
      "railNumbers": [
        1
      ]
    },
    {
      "tapTimeFrame": [
        57.2139664
      ],
      "railNumbers": [
        2
      ]
    },
    {
      "tapTimeFrame": [
        57.5622673
      ],
      "railNumbers": [
        0
      ]
    },
    {
      "tapTimeFrame": [
        57.7944679
      ],
      "railNumbers": [
        1
      ]
    },
    {
      "tapTimeFrame": [
        58.0034447
      ],
      "railNumbers": [
        1
      ]
    },
    {
      "tapTimeFrame": [
        58.2588654
      ],
      "railNumbers": [
        1
      ]
    },
    {
      "tapTimeFrame": [
        58.514286
      ],
      "railNumbers": [
        0
      ]
    },
    {
      "tapTimeFrame": [
        58.7232628
      ],
      "railNumbers": [
        1
      ]
    },
    {
      "tapTimeFrame": [
        58.9786835
      ],
      "railNumbers": [
        1
      ]
    },
    {
      "tapTimeFrame": [
        59.4663
      ],
      "railNumbers": [
        0
      ]
    },
    {
      "tapTimeFrame": [
        59.9307022
      ],
      "railNumbers": [
        1
      ]
    },
    {
      "tapTimeFrame": [
        60.1629028
      ],
      "railNumbers": [
        1
      ]
    },
    {
      "tapTimeFrame": [
        60.44154
      ],
      "railNumbers": [
        0
      ]
    },
    {
      "tapTimeFrame": [
        60.76662
      ],
      "railNumbers": [
        1
      ]
    },
    {
      "tapTimeFrame": [
        61.34712
      ],
      "railNumbers": [
        1
      ]
    },
    {
      "tapTimeFrame": [
        61.76508
      ],
      "railNumbers": [
        2
      ]
    },
    {
      "tapTimeFrame": [
        62.3455772
      ],
      "railNumbers": [
        0
      ]
    },
    {
      "tapTimeFrame": [
        62.67066
      ],
      "railNumbers": [
        2
      ]
    },
    {
      "tapTimeFrame": [
        62.926075
      ],
      "railNumbers": [
        1
      ]
    },
    {
      "tapTimeFrame": [
        63.297596
      ],
      "railNumbers": [
        1
      ]
    },
    {
      "tapTimeFrame": [
        63.7387733
      ],
      "railNumbers": [
        2
      ]
    },
    {
      "tapTimeFrame": [
        63.9477539
      ],
      "railNumbers": [
        2
      ]
    },
    {
      "tapTimeFrame": [
        64.3192749
      ],
      "railNumbers": [
        1
      ]
    },
    {
      "tapTimeFrame": [
        64.66757
      ],
      "railNumbers": [
        0
      ]
    },
    {
      "tapTimeFrame": [
        64.92299
      ],
      "railNumbers": [
        0
      ]
    },
    {
      "tapTimeFrame": [
        65.29451
      ],
      "railNumbers": [
        0
      ]
    },
    {
      "tapTimeFrame": [
        65.75891
      ],
      "railNumbers": [
        0
      ]
    },
    {
      "tapTimeFrame": [
        66.01433
      ],
      "railNumbers": [
        2
      ]
    },
    {
      "tapTimeFrame": [
        66.26975
      ],
      "railNumbers": [
        0
      ]
    },
    {
      "tapTimeFrame": [
        66.57161
      ],
      "railNumbers": [
        2
      ]
    },
    {
      "tapTimeFrame": [
        66.80381
      ],
      "railNumbers": [
        2
      ]
    },
    {
      "tapTimeFrame": [
        67.22177
      ],
      "railNumbers": [
        1
      ]
    },
    {
      "tapTimeFrame": [
        67.4539642
      ],
      "railNumbers": [
        2
      ]
    },
    {
      "tapTimeFrame": [
        67.70939
      ],
      "railNumbers": [
        1
      ]
    },
    {
      "tapTimeFrame": [
        67.9183655
      ],
      "railNumbers": [
        0
      ]
    },
    {
      "tapTimeFrame": [
        68.19701
      ],
      "railNumbers": [
        0
      ]
    },
    {
      "tapTimeFrame": [
        68.52209
      ],
      "railNumbers": [
        2
      ]
    },
    {
      "tapTimeFrame": [
        68.75429
      ],
      "railNumbers": [
        2
      ]
    },
    {
      "tapTimeFrame": [
        69.17224
      ],
      "railNumbers": [
        0
      ]
    },
    {
      "tapTimeFrame": [
        69.61343
      ],
      "railNumbers": [
        0
      ]
    },
    {
      "tapTimeFrame": [
        69.86884
      ],
      "railNumbers": [
        2
      ]
    },
    {
      "tapTimeFrame": [
        70.12426
      ],
      "railNumbers": [
        0
      ]
    },
    {
      "tapTimeFrame": [
        70.4725647
      ],
      "railNumbers": [
        1
      ]
    },
    {
      "tapTimeFrame": [
        70.70476
      ],
      "railNumbers": [
        1
      ]
    },
    {
      "tapTimeFrame": [
        71.0995
      ],
      "railNumbers": [
        0
      ]
    },
    {
      "tapTimeFrame": [
        71.58712
      ],
      "railNumbers": [
        0
      ]
    },
    {
      "tapTimeFrame": [
        71.84254
      ],
      "railNumbers": [
        2
      ]
    },
    {
      "tapTimeFrame": [
        72.07474
      ],
      "railNumbers": [
        0
      ]
    },
    {
      "tapTimeFrame": [
        72.4230347
      ],
      "railNumbers": [
        0
      ]
    },
    {
      "tapTimeFrame": [
        72.67846
      ],
      "railNumbers": [
        0
      ]
    },
    {
      "tapTimeFrame": [
        73.04997
      ],
      "railNumbers": [
        0
      ]
    },
    {
      "tapTimeFrame": [
        73.51437
      ],
      "railNumbers": [
        0
      ]
    },
    {
      "tapTimeFrame": [
        73.7465744
      ],
      "railNumbers": [
        2
      ]
    },
    {
      "tapTimeFrame": [
        74.00199
      ],
      "railNumbers": [
        0
      ]
    },
    {
      "tapTimeFrame": [
        74.350296
      ],
      "railNumbers": [
        1
      ]
    },
    {
      "tapTimeFrame": [
        74.60571
      ],
      "railNumbers": [
        0
      ]
    },
    {
      "tapTimeFrame": [
        74.9772339
      ],
      "railNumbers": [
        0
      ]
    },
    {
      "tapTimeFrame": [
        75.18621
      ],
      "railNumbers": [
        1
      ]
    },
    {
      "tapTimeFrame": [
        75.44163
      ],
      "railNumbers": [
        0
      ]
    },
    {
      "tapTimeFrame": [
        75.65061
      ],
      "railNumbers": [
        2
      ]
    },
    {
      "tapTimeFrame": [
        75.92925
      ],
      "railNumbers": [
        0
      ]
    },
    {
      "tapTimeFrame": [
        76.27755
      ],
      "railNumbers": [
        2
      ]
    },
    {
      "tapTimeFrame": [
        76.50975
      ],
      "railNumbers": [
        1
      ]
    },
    {
      "tapTimeFrame": [
        76.85805
      ],
      "railNumbers": [
        0
      ]
    },
    {
      "tapTimeFrame": [
        77.345665
      ],
      "railNumbers": [
        1
      ]
    },
    {
      "tapTimeFrame": [
        77.81007
      ],
      "railNumbers": [
        0
      ]
    },
    {
      "tapTimeFrame": [
        78.18159
      ],
      "railNumbers": [
        0
      ]
    },
    {
      "tapTimeFrame": [
        78.55311
      ],
      "railNumbers": [
        2
      ]
    },
    {
      "tapTimeFrame": [
        78.7853
      ],
      "railNumbers": [
        0
      ]
    },
    {
      "tapTimeFrame": [
        79.22649
      ],
      "railNumbers": [
        2
      ]
    },
    {
      "tapTimeFrame": [
        79.50513
      ],
      "railNumbers": [
        1
      ]
    },
    {
      "tapTimeFrame": [
        79.73732
      ],
      "railNumbers": [
        0
      ]
    },
    {
      "tapTimeFrame": [
        80.0856247
      ],
      "railNumbers": [
        0
      ]
    },
    {
      "tapTimeFrame": [
        80.34104
      ],
      "railNumbers": [
        0
      ]
    },
    {
      "tapTimeFrame": [
        80.71256
      ],
      "railNumbers": [
        0
      ]
    },
    {
      "tapTimeFrame": [
        80.92154
      ],
      "railNumbers": [
        1
      ]
    },
    {
      "tapTimeFrame": [
        81.1769562
      ],
      "railNumbers": [
        2
      ]
    },
    {
      "tapTimeFrame": [
        81.40916
      ],
      "railNumbers": [
        2
      ]
    },
    {
      "tapTimeFrame": [
        81.66458
      ],
      "railNumbers": [
        0
      ]
    },
    {
      "tapTimeFrame": [
        82.01288
      ],
      "railNumbers": [
        0
      ]
    },
    {
      "tapTimeFrame": [
        82.2682953
      ],
      "railNumbers": [
        0
      ]
    },
    {
      "tapTimeFrame": [
        82.63982
      ],
      "railNumbers": [
        0
      ]
    },
    {
      "tapTimeFrame": [
        82.9649
      ],
      "railNumbers": [
        2
      ]
    },
    {
      "tapTimeFrame": [
        83.33642
      ],
      "railNumbers": [
        1
      ]
    },
    {
      "tapTimeFrame": [
        83.591835
      ],
      "railNumbers": [
        0
      ]
    },
    {
      "tapTimeFrame": [
        83.94013
      ],
      "railNumbers": [
        0
      ]
    },
    {
      "tapTimeFrame": [
        84.14912
      ],
      "railNumbers": [
        2
      ]
    },
    {
      "tapTimeFrame": [
        84.54385
      ],
      "railNumbers": [
        0
      ]
    },
    {
      "tapTimeFrame": [
        84.89215
      ],
      "railNumbers": [
        2
      ]
    },
    {
      "tapTimeFrame": [
        85.49587
      ],
      "railNumbers": [
        0
      ]
    },
    {
      "tapTimeFrame": [
        85.86739
      ],
      "railNumbers": [
        0
      ]
    },
    {
      "tapTimeFrame": [
        86.09959
      ],
      "railNumbers": [
        1
      ]
    },
    {
      "tapTimeFrame": [
        86.47111
      ],
      "railNumbers": [
        0
      ]
    },
    {
      "tapTimeFrame": [
        86.81941
      ],
      "railNumbers": [
        2
      ]
    },
    {
      "tapTimeFrame": [
        87.16771
      ],
      "railNumbers": [
        2
      ]
    },
    {
      "tapTimeFrame": [
        87.44635
      ],
      "railNumbers": [
        0
      ]
    },
    {
      "tapTimeFrame": [
        87.79465
      ],
      "railNumbers": [
        1
      ]
    },
    {
      "tapTimeFrame": [
        88.0500641
      ],
      "railNumbers": [
        1
      ]
    },
    {
      "tapTimeFrame": [
        88.39837
      ],
      "railNumbers": [
        0
      ]
    },
    {
      "tapTimeFrame": [
        88.6073456
      ],
      "railNumbers": [
        1
      ]
    },
    {
      "tapTimeFrame": [
        88.86276
      ],
      "railNumbers": [
        2
      ]
    },
    {
      "tapTimeFrame": [
        89.09496
      ],
      "railNumbers": [
        2
      ]
    },
    {
      "tapTimeFrame": [
        89.28072
      ],
      "railNumbers": [
        2
      ]
    },
    {
      "tapTimeFrame": [
        89.6986847
      ],
      "railNumbers": [
        0
      ]
    },
    {
      "tapTimeFrame": [
        89.9541
      ],
      "railNumbers": [
        1
      ]
    },
    {
      "tapTimeFrame": [
        90.3024
      ],
      "railNumbers": [
        0
      ]
    },
    {
      "tapTimeFrame": [
        90.67392
      ],
      "railNumbers": [
        2
      ]
    },
    {
      "tapTimeFrame": [
        90.9757843
      ],
      "railNumbers": [
        2
      ]
    },
    {
      "tapTimeFrame": [
        91.25442
      ],
      "railNumbers": [
        0
      ]
    },
    {
      "tapTimeFrame": [
        91.4634
      ],
      "railNumbers": [
        1
      ]
    },
    {
      "tapTimeFrame": [
        91.6956
      ],
      "railNumbers": [
        1
      ]
    },
    {
      "tapTimeFrame": [
        92.159996
      ],
      "railNumbers": [
        2
      ]
    },
    {
      "tapTimeFrame": [
        92.69405
      ],
      "railNumbers": [
        2
      ]
    },
    {
      "tapTimeFrame": [
        92.8798141
      ],
      "railNumbers": [
        2
      ]
    },
    {
      "tapTimeFrame": [
        93.0888
      ],
      "railNumbers": [
        2
      ]
    },
    {
      "tapTimeFrame": [
        93.5299759
      ],
      "railNumbers": [
        0
      ]
    },
    {
      "tapTimeFrame": [
        93.83183
      ],
      "railNumbers": [
        2
      ]
    },
    {
      "tapTimeFrame": [
        94.1337
      ],
      "railNumbers": [
        0
      ]
    },
    {
      "tapTimeFrame": [
        94.59809
      ],
      "railNumbers": [
        1
      ]
    },
    {
      "tapTimeFrame": [
        94.8070755
      ],
      "railNumbers": [
        2
      ]
    },
    {
      "tapTimeFrame": [
        95.08572
      ],
      "railNumbers": [
        0
      ]
    },
    {
      "tapTimeFrame": [
        95.45723
      ],
      "railNumbers": [
        1
      ]
    },
    {
      "tapTimeFrame": [
        95.68943
      ],
      "railNumbers": [
        2
      ]
    },
    {
      "tapTimeFrame": [
        96.06095
      ],
      "railNumbers": [
        0
      ]
    },
    {
      "tapTimeFrame": [
        96.50213
      ],
      "railNumbers": [
        2
      ]
    },
    {
      "tapTimeFrame": [
        96.92009
      ],
      "railNumbers": [
        2
      ]
    },
    {
      "tapTimeFrame": [
        97.26839
      ],
      "railNumbers": [
        2
      ]
    },
    {
      "tapTimeFrame": [
        97.45415
      ],
      "railNumbers": [
        2
      ]
    },
    {
      "tapTimeFrame": [
        97.63991
      ],
      "railNumbers": [
        2
      ]
    },
    {
      "tapTimeFrame": [
        97.96499
      ],
      "railNumbers": [
        0
      ]
    },
    {
      "tapTimeFrame": [
        98.4061661
      ],
      "railNumbers": [
        2
      ]
    },
    {
      "tapTimeFrame": [
        98.63837
      ],
      "railNumbers": [
        1
      ]
    },
    {
      "tapTimeFrame": [
        98.91701
      ],
      "railNumbers": [
        0
      ]
    },
    {
      "tapTimeFrame": [
        99.2653046
      ],
      "railNumbers": [
        0
      ]
    },
    {
      "tapTimeFrame": [
        99.4975052
      ],
      "railNumbers": [
        1
      ]
    },
    {
      "tapTimeFrame": [
        99.8690262
      ],
      "railNumbers": [
        0
      ]
    },
    {
      "tapTimeFrame": [
        100.3102
      ],
      "railNumbers": [
        2
      ]
    },
    {
      "tapTimeFrame": [
        100.728165
      ],
      "railNumbers": [
        2
      ]
    },
    {
      "tapTimeFrame": [
        101.146118
      ],
      "railNumbers": [
        0
      ]
    },
    {
      "tapTimeFrame": [
        101.4712
      ],
      "railNumbers": [
        2
      ]
    },
    {
      "tapTimeFrame": [
        101.74984
      ],
      "railNumbers": [
        1
      ]
    },
    {
      "tapTimeFrame": [
        102.214241
      ],
      "railNumbers": [
        2
      ]
    },
    {
      "tapTimeFrame": [
        102.423218
      ],
      "railNumbers": [
        2
      ]
    },
    {
      "tapTimeFrame": [
        102.701859
      ],
      "railNumbers": [
        0
      ]
    },
    {
      "tapTimeFrame": [
        103.050156
      ],
      "railNumbers": [
        0
      ]
    },
    {
      "tapTimeFrame": [
        103.235916
      ],
      "railNumbers": [
        2
      ]
    },
    {
      "tapTimeFrame": [
        103.653877
      ],
      "railNumbers": [
        0
      ]
    },
    {
      "tapTimeFrame": [
        104.095055
      ],
      "railNumbers": [
        1
      ]
    },
    {
      "tapTimeFrame": [
        104.582672
      ],
      "railNumbers": [
        1
      ]
    },
    {
      "tapTimeFrame": [
        104.930977
      ],
      "railNumbers": [
        0
      ]
    },
    {
      "tapTimeFrame": [
        105.279274
      ],
      "railNumbers": [
        2
      ]
    },
    {
      "tapTimeFrame": [
        105.534691
      ],
      "railNumbers": [
        0
      ]
    },
    {
      "tapTimeFrame": [
        105.999092
      ],
      "railNumbers": [
        1
      ]
    },
    {
      "tapTimeFrame": [
        106.208069
      ],
      "railNumbers": [
        0
      ]
    },
    {
      "tapTimeFrame": [
        106.463493
      ],
      "railNumbers": [
        1
      ]
    },
    {
      "tapTimeFrame": [
        106.835007
      ],
      "railNumbers": [
        1
      ]
    },
    {
      "tapTimeFrame": [
        107.043991
      ],
      "railNumbers": [
        2
      ]
    },
    {
      "tapTimeFrame": [
        107.438728
      ],
      "railNumbers": [
        0
      ]
    },
    {
      "tapTimeFrame": [
        107.647705
      ],
      "railNumbers": [
        2
      ]
    },
    {
      "tapTimeFrame": [
        107.90313
      ],
      "railNumbers": [
        1
      ]
    },
    {
      "tapTimeFrame": [
        108.413963
      ],
      "railNumbers": [
        0
      ]
    },
    {
      "tapTimeFrame": [
        108.739044
      ],
      "railNumbers": [
        1
      ]
    },
    {
      "tapTimeFrame": [
        109.017685
      ],
      "railNumbers": [
        1
      ]
    },
    {
      "tapTimeFrame": [
        109.365982
      ],
      "railNumbers": [
        1
      ]
    },
    {
      "tapTimeFrame": [
        109.807167
      ],
      "railNumbers": [
        2
      ]
    },
    {
      "tapTimeFrame": [
        110.016144
      ],
      "railNumbers": [
        2
      ]
    },
    {
      "tapTimeFrame": [
        110.387665
      ],
      "railNumbers": [
        0
      ]
    },
    {
      "tapTimeFrame": [
        110.735962
      ],
      "railNumbers": [
        0
      ]
    },
    {
      "tapTimeFrame": [
        110.944939
      ],
      "railNumbers": [
        2
      ]
    },
    {
      "tapTimeFrame": [
        111.339684
      ],
      "railNumbers": [
        2
      ]
    },
    {
      "tapTimeFrame": [
        111.8273
      ],
      "railNumbers": [
        1
      ]
    },
    {
      "tapTimeFrame": [
        112.105942
      ],
      "railNumbers": [
        2
      ]
    },
    {
      "tapTimeFrame": [
        112.338135
      ],
      "railNumbers": [
        0
      ]
    },
    {
      "tapTimeFrame": [
        112.68644
      ],
      "railNumbers": [
        0
      ]
    },
    {
      "tapTimeFrame": [
        112.941856
      ],
      "railNumbers": [
        1
      ]
    },
    {
      "tapTimeFrame": [
        113.313377
      ],
      "railNumbers": [
        1
      ]
    },
    {
      "tapTimeFrame": [
        113.545578
      ],
      "railNumbers": [
        2
      ]
    },
    {
      "tapTimeFrame": [
        113.754555
      ],
      "railNumbers": [
        1
      ]
    },
    {
      "tapTimeFrame": [
        113.986755
      ],
      "railNumbers": [
        1
      ]
    },
    {
      "tapTimeFrame": [
        114.265396
      ],
      "railNumbers": [
        0
      ]
    },
    {
      "tapTimeFrame": [
        114.613693
      ],
      "railNumbers": [
        2
      ]
    },
    {
      "tapTimeFrame": [
        114.86911
      ],
      "railNumbers": [
        1
      ]
    },
    {
      "tapTimeFrame": [
        115.194191
      ],
      "railNumbers": [
        0
      ]
    },
    {
      "tapTimeFrame": [
        115.681808
      ],
      "railNumbers": [
        2
      ]
    },
    {
      "tapTimeFrame": [
        116.169434
      ],
      "railNumbers": [
        1
      ]
    },
    {
      "tapTimeFrame": [
        116.540947
      ],
      "railNumbers": [
        1
      ]
    },
    {
      "tapTimeFrame": [
        116.773148
      ],
      "railNumbers": [
        0
      ]
    },
    {
      "tapTimeFrame": [
        117.167892
      ],
      "railNumbers": [
        1
      ]
    },
    {
      "tapTimeFrame": [
        117.353645
      ],
      "railNumbers": [
        2
      ]
    },
    {
      "tapTimeFrame": [
        117.60907
      ],
      "railNumbers": [
        0
      ]
    },
    {
      "tapTimeFrame": [
        117.84127
      ],
      "railNumbers": [
        2
      ]
    },
    {
      "tapTimeFrame": [
        118.1199
      ],
      "railNumbers": [
        0
      ]
    },
    {
      "tapTimeFrame": [
        118.444984
      ],
      "railNumbers": [
        1
      ]
    },
    {
      "tapTimeFrame": [
        118.723625
      ],
      "railNumbers": [
        0
      ]
    },
    {
      "tapTimeFrame": [
        119.095146
      ],
      "railNumbers": [
        0
      ]
    },
    {
      "tapTimeFrame": [
        119.327347
      ],
      "railNumbers": [
        2
      ]
    },
    {
      "tapTimeFrame": [
        119.536324
      ],
      "railNumbers": [
        0
      ]
    },
    {
      "tapTimeFrame": [
        119.79174
      ],
      "railNumbers": [
        2
      ]
    },
    {
      "tapTimeFrame": [
        120.047165
      ],
      "railNumbers": [
        0
      ]
    },
    {
      "tapTimeFrame": [
        120.395462
      ],
      "railNumbers": [
        0
      ]
    },
    {
      "tapTimeFrame": [
        120.650879
      ],
      "railNumbers": [
        0
      ]
    },
    {
      "tapTimeFrame": [
        120.97596
      ],
      "railNumbers": [
        1
      ]
    },
    {
      "tapTimeFrame": [
        121.231384
      ],
      "railNumbers": [
        2
      ]
    },
    {
      "tapTimeFrame": [
        121.463577
      ],
      "railNumbers": [
        1
      ]
    },
    {
      "tapTimeFrame": [
        121.672562
      ],
      "railNumbers": [
        0
      ]
    },
    {
      "tapTimeFrame": [
        121.9512
      ],
      "railNumbers": [
        0
      ]
    },
    {
      "tapTimeFrame": [
        122.276276
      ],
      "railNumbers": [
        1
      ]
    },
    {
      "tapTimeFrame": [
        122.5317
      ],
      "railNumbers": [
        1
      ]
    },
    {
      "tapTimeFrame": [
        122.903221
      ],
      "railNumbers": [
        0
      ]
    },
    {
      "tapTimeFrame": [
        123.3444
      ],
      "railNumbers": [
        0
      ]
    },
    {
      "tapTimeFrame": [
        123.855232
      ],
      "railNumbers": [
        0
      ]
    },
    {
      "tapTimeFrame": [
        124.203537
      ],
      "railNumbers": [
        0
      ]
    },
    {
      "tapTimeFrame": [
        124.458954
      ],
      "railNumbers": [
        2
      ]
    },
    {
      "tapTimeFrame": [
        124.807251
      ],
      "railNumbers": [
        0
      ]
    },
    {
      "tapTimeFrame": [
        125.039452
      ],
      "railNumbers": [
        2
      ]
    },
    {
      "tapTimeFrame": [
        125.271652
      ],
      "railNumbers": [
        0
      ]
    },
    {
      "tapTimeFrame": [
        125.782494
      ],
      "railNumbers": [
        0
      ]
    },
    {
      "tapTimeFrame": [
        125.968254
      ],
      "railNumbers": [
        2
      ]
    },
    {
      "tapTimeFrame": [
        126.223671
      ],
      "railNumbers": [
        2
      ]
    },
    {
      "tapTimeFrame": [
        126.711288
      ],
      "railNumbers": [
        0
      ]
    },
    {
      "tapTimeFrame": [
        126.966713
      ],
      "railNumbers": [
        2
      ]
    },
    {
      "tapTimeFrame": [
        127.198906
      ],
      "railNumbers": [
        1
      ]
    },
    {
      "tapTimeFrame": [
        127.686531
      ],
      "railNumbers": [
        0
      ]
    },
    {
      "tapTimeFrame": [
        127.941948
      ],
      "railNumbers": [
        2
      ]
    },
    {
      "tapTimeFrame": [
        128.174149
      ],
      "railNumbers": [
        2
      ]
    },
    {
      "tapTimeFrame": [
        128.429565
      ],
      "railNumbers": [
        2
      ]
    },
    {
      "tapTimeFrame": [
        128.63855
      ],
      "railNumbers": [
        0
      ]
    },
    {
      "tapTimeFrame": [
        128.893967
      ],
      "railNumbers": [
        2
      ]
    },
    {
      "tapTimeFrame": [
        129.12616
      ],
      "railNumbers": [
        2
      ]
    },
    {
      "tapTimeFrame": [
        129.31192
      ],
      "railNumbers": [
        1
      ]
    },
    {
      "tapTimeFrame": [
        129.590561
      ],
      "railNumbers": [
        0
      ]
    },
    {
      "tapTimeFrame": [
        129.938858
      ],
      "railNumbers": [
        0
      ]
    },
    {
      "tapTimeFrame": [
        130.171066
      ],
      "railNumbers": [
        2
      ]
    },
    {
      "tapTimeFrame": [
        130.426483
      ],
      "railNumbers": [
        2
      ]
    },
    {
      "tapTimeFrame": [
        130.798
      ],
      "railNumbers": [
        2
      ]
    },
    {
      "tapTimeFrame": [
        130.983765
      ],
      "railNumbers": [
        1
      ]
    },
    {
      "tapTimeFrame": [
        131.239182
      ],
      "railNumbers": [
        2
      ]
    },
    {
      "tapTimeFrame": [
        131.448166
      ],
      "railNumbers": [
        2
      ]
    },
    {
      "tapTimeFrame": [
        131.8429
      ],
      "railNumbers": [
        0
      ]
    },
    {
      "tapTimeFrame": [
        132.05188
      ],
      "railNumbers": [
        2
      ]
    },
    {
      "tapTimeFrame": [
        132.446625
      ],
      "railNumbers": [
        0
      ]
    },
    {
      "tapTimeFrame": [
        132.7717
      ],
      "railNumbers": [
        2
      ]
    },
    {
      "tapTimeFrame": [
        133.42186
      ],
      "railNumbers": [
        0
      ]
    },
    {
      "tapTimeFrame": [
        133.770157
      ],
      "railNumbers": [
        0
      ]
    },
    {
      "tapTimeFrame": [
        133.979141
      ],
      "railNumbers": [
        2
      ]
    },
    {
      "tapTimeFrame": [
        134.373871
      ],
      "railNumbers": [
        0
      ]
    },
    {
      "tapTimeFrame": [
        134.582855
      ],
      "railNumbers": [
        2
      ]
    },
    {
      "tapTimeFrame": [
        134.838272
      ],
      "railNumbers": [
        0
      ]
    },
    {
      "tapTimeFrame": [
        135.3259
      ],
      "railNumbers": [
        0
      ]
    },
    {
      "tapTimeFrame": [
        135.6742
      ],
      "railNumbers": [
        0
      ]
    },
    {
      "tapTimeFrame": [
        135.929611
      ],
      "railNumbers": [
        2
      ]
    },
    {
      "tapTimeFrame": [
        136.231476
      ],
      "railNumbers": [
        2
      ]
    },
    {
      "tapTimeFrame": [
        136.6262
      ],
      "railNumbers": [
        1
      ]
    },
    {
      "tapTimeFrame": [
        136.858414
      ],
      "railNumbers": [
        1
      ]
    },
    {
      "tapTimeFrame": [
        137.206711
      ],
      "railNumbers": [
        0
      ]
    },
    {
      "tapTimeFrame": [
        137.578232
      ],
      "railNumbers": [
        0
      ]
    },
    {
      "tapTimeFrame": [
        137.7872
      ],
      "railNumbers": [
        2
      ]
    },
    {
      "tapTimeFrame": [
        138.158722
      ],
      "railNumbers": [
        0
      ]
    },
    {
      "tapTimeFrame": [
        138.646347
      ],
      "railNumbers": [
        0
      ]
    },
    {
      "tapTimeFrame": [
        139.133972
      ],
      "railNumbers": [
        0
      ]
    },
    {
      "tapTimeFrame": [
        139.482269
      ],
      "railNumbers": [
        0
      ]
    },
    {
      "tapTimeFrame": [
        139.714462
      ],
      "railNumbers": [
        1
      ]
    },
    {
      "tapTimeFrame": [
        140.085983
      ],
      "railNumbers": [
        0
      ]
    },
    {
      "tapTimeFrame": [
        140.3414
      ],
      "railNumbers": [
        2
      ]
    },
    {
      "tapTimeFrame": [
        140.8058
      ],
      "railNumbers": [
        2
      ]
    },
    {
      "tapTimeFrame": [
        141.014786
      ],
      "railNumbers": [
        2
      ]
    },
    {
      "tapTimeFrame": [
        141.409515
      ],
      "railNumbers": [
        0
      ]
    },
    {
      "tapTimeFrame": [
        142.013245
      ],
      "railNumbers": [
        0
      ]
    },
    {
      "tapTimeFrame": [
        142.222214
      ],
      "railNumbers": [
        1
      ]
    },
    {
      "tapTimeFrame": [
        142.477646
      ],
      "railNumbers": [
        1
      ]
    },
    {
      "tapTimeFrame": [
        142.733063
      ],
      "railNumbers": [
        2
      ]
    },
    {
      "tapTimeFrame": [
        142.965256
      ],
      "railNumbers": [
        0
      ]
    },
    {
      "tapTimeFrame": [
        143.313553
      ],
      "railNumbers": [
        0
      ]
    },
    {
      "tapTimeFrame": [
        143.545761
      ],
      "railNumbers": [
        1
      ]
    },
    {
      "tapTimeFrame": [
        143.917282
      ],
      "railNumbers": [
        0
      ]
    },
    {
      "tapTimeFrame": [
        144.242355
      ],
      "railNumbers": [
        2
      ]
    },
    {
      "tapTimeFrame": [
        144.590652
      ],
      "railNumbers": [
        1
      ]
    },
    {
      "tapTimeFrame": [
        144.8693
      ],
      "railNumbers": [
        0
      ]
    },
    {
      "tapTimeFrame": [
        145.21759
      ],
      "railNumbers": [
        0
      ]
    },
    {
      "tapTimeFrame": [
        145.473
      ],
      "railNumbers": [
        0
      ]
    },
    {
      "tapTimeFrame": [
        145.751648
      ],
      "railNumbers": [
        2
      ]
    },
    {
      "tapTimeFrame": [
        146.076736
      ],
      "railNumbers": [
        2
      ]
    },
    {
      "tapTimeFrame": [
        146.2857
      ],
      "railNumbers": [
        1
      ]
    },
    {
      "tapTimeFrame": [
        146.541138
      ],
      "railNumbers": [
        1
      ]
    },
    {
      "tapTimeFrame": [
        146.773331
      ],
      "railNumbers": [
        0
      ]
    },
    {
      "tapTimeFrame": [
        147.144852
      ],
      "railNumbers": [
        0
      ]
    },
    {
      "tapTimeFrame": [
        147.377045
      ],
      "railNumbers": [
        2
      ]
    },
    {
      "tapTimeFrame": [
        147.748566
      ],
      "railNumbers": [
        0
      ]
    },
    {
      "tapTimeFrame": [
        148.003983
      ],
      "railNumbers": [
        1
      ]
    },
    {
      "tapTimeFrame": [
        148.212967
      ],
      "railNumbers": [
        1
      ]
    },
    {
      "tapTimeFrame": [
        148.468384
      ],
      "railNumbers": [
        2
      ]
    },
    {
      "tapTimeFrame": [
        148.700592
      ],
      "railNumbers": [
        0
      ]
    },
    {
      "tapTimeFrame": [
        148.979233
      ],
      "railNumbers": [
        2
      ]
    },
    {
      "tapTimeFrame": [
        149.6526
      ],
      "railNumbers": [
        0
      ]
    },
    {
      "tapTimeFrame": [
        149.977692
      ],
      "railNumbers": [
        2
      ]
    },
    {
      "tapTimeFrame": [
        150.325989
      ],
      "railNumbers": [
        1
      ]
    },
    {
      "tapTimeFrame": [
        150.558182
      ],
      "railNumbers": [
        2
      ]
    },
    {
      "tapTimeFrame": [
        150.952927
      ],
      "railNumbers": [
        0
      ]
    },
    {
      "tapTimeFrame": [
        151.301224
      ],
      "railNumbers": [
        2
      ]
    },
    {
      "tapTimeFrame": [
        151.533417
      ],
      "railNumbers": [
        0
      ]
    },
    {
      "tapTimeFrame": [
        151.904938
      ],
      "railNumbers": [
        0
      ]
    },
    {
      "tapTimeFrame": [
        152.160355
      ],
      "railNumbers": [
        1
      ]
    },
    {
      "tapTimeFrame": [
        152.485443
      ],
      "railNumbers": [
        0
      ]
    },
    {
      "tapTimeFrame": [
        152.83374
      ],
      "railNumbers": [
        1
      ]
    },
    {
      "tapTimeFrame": [
        153.065933
      ],
      "railNumbers": [
        1
      ]
    },
    {
      "tapTimeFrame": [
        153.437454
      ],
      "railNumbers": [
        0
      ]
    },
    {
      "tapTimeFrame": [
        153.785751
      ],
      "railNumbers": [
        2
      ]
    },
    {
      "tapTimeFrame": [
        154.412689
      ],
      "railNumbers": [
        1
      ]
    },
    {
      "tapTimeFrame": [
        154.761
      ],
      "railNumbers": [
        1
      ]
    },
    {
      "tapTimeFrame": [
        155.086075
      ],
      "railNumbers": [
        2
      ]
    },
    {
      "tapTimeFrame": [
        155.364716
      ],
      "railNumbers": [
        0
      ]
    },
    {
      "tapTimeFrame": [
        155.829117
      ],
      "railNumbers": [
        1
      ]
    },
    {
      "tapTimeFrame": [
        156.084534
      ],
      "railNumbers": [
        2
      ]
    },
    {
      "tapTimeFrame": [
        156.339951
      ],
      "railNumbers": [
        0
      ]
    },
    {
      "tapTimeFrame": [
        156.665024
      ],
      "railNumbers": [
        1
      ]
    },
    {
      "tapTimeFrame": [
        157.013336
      ],
      "railNumbers": [
        2
      ]
    },
    {
      "tapTimeFrame": [
        157.268753
      ],
      "railNumbers": [
        0
      ]
    },
    {
      "tapTimeFrame": [
        157.733154
      ],
      "railNumbers": [
        2
      ]
    },
    {
      "tapTimeFrame": [
        158.220764
      ],
      "railNumbers": [
        1
      ]
    },
    {
      "tapTimeFrame": [
        158.569061
      ],
      "railNumbers": [
        1
      ]
    },
    {
      "tapTimeFrame": [
        158.917374
      ],
      "railNumbers": [
        2
      ]
    },
    {
      "tapTimeFrame": [
        159.172791
      ],
      "railNumbers": [
        0
      ]
    },
    {
      "tapTimeFrame": [
        159.613968
      ],
      "railNumbers": [
        1
      ]
    },
    {
      "tapTimeFrame": [
        159.822952
      ],
      "railNumbers": [
        1
      ]
    },
    {
      "tapTimeFrame": [
        160.1248
      ],
      "railNumbers": [
        0
      ]
    },
    {
      "tapTimeFrame": [
        160.4731
      ],
      "railNumbers": [
        0
      ]
    },
    {
      "tapTimeFrame": [
        160.682083
      ],
      "railNumbers": [
        2
      ]
    },
    {
      "tapTimeFrame": [
        161.076828
      ],
      "railNumbers": [
        0
      ]
    },
    {
      "tapTimeFrame": [
        161.541214
      ],
      "railNumbers": [
        1
      ]
    },
    {
      "tapTimeFrame": [
        161.726974
      ],
      "railNumbers": [
        2
      ]
    },
    {
      "tapTimeFrame": [
        162.028839
      ],
      "railNumbers": [
        0
      ]
    },
    {
      "tapTimeFrame": [
        162.377136
      ],
      "railNumbers": [
        1
      ]
    },
    {
      "tapTimeFrame": [
        162.679
      ],
      "railNumbers": [
        1
      ]
    },
    {
      "tapTimeFrame": [
        162.980865
      ],
      "railNumbers": [
        0
      ]
    },
    {
      "tapTimeFrame": [
        163.398819
      ],
      "railNumbers": [
        2
      ]
    },
    {
      "tapTimeFrame": [
        163.67746
      ],
      "railNumbers": [
        2
      ]
    },
    {
      "tapTimeFrame": [
        163.932877
      ],
      "railNumbers": [
        0
      ]
    },
    {
      "tapTimeFrame": [
        164.281174
      ],
      "railNumbers": [
        1
      ]
    },
    {
      "tapTimeFrame": [
        164.629471
      ],
      "railNumbers": [
        2
      ]
    },
    {
      "tapTimeFrame": [
        164.884888
      ],
      "railNumbers": [
        0
      ]
    },
    {
      "tapTimeFrame": [
        165.349289
      ],
      "railNumbers": [
        2
      ]
    },
    {
      "tapTimeFrame": [
        165.836914
      ],
      "railNumbers": [
        0
      ]
    },
    {
      "tapTimeFrame": [
        166.092331
      ],
      "railNumbers": [
        2
      ]
    },
    {
      "tapTimeFrame": [
        166.301315
      ],
      "railNumbers": [
        1
      ]
    },
    {
      "tapTimeFrame": [
        166.788925
      ],
      "railNumbers": [
        0
      ]
    },
    {
      "tapTimeFrame": [
        167.253326
      ],
      "railNumbers": [
        1
      ]
    },
    {
      "tapTimeFrame": [
        167.485535
      ],
      "railNumbers": [
        1
      ]
    },
    {
      "tapTimeFrame": [
        167.740952
      ],
      "railNumbers": [
        0
      ]
    },
    {
      "tapTimeFrame": [
        167.949936
      ],
      "railNumbers": [
        2
      ]
    },
    {
      "tapTimeFrame": [
        168.205353
      ],
      "railNumbers": [
        1
      ]
    },
    {
      "tapTimeFrame": [
        168.437546
      ],
      "railNumbers": [
        0
      ]
    },
    {
      "tapTimeFrame": [
        168.716187
      ],
      "railNumbers": [
        1
      ]
    },
    {
      "tapTimeFrame": [
        168.9716
      ],
      "railNumbers": [
        2
      ]
    },
    {
      "tapTimeFrame": [
        169.157364
      ],
      "railNumbers": [
        2
      ]
    },
    {
      "tapTimeFrame": [
        169.621765
      ],
      "railNumbers": [
        0
      ]
    },
    {
      "tapTimeFrame": [
        169.993286
      ],
      "railNumbers": [
        0
      ]
    },
    {
      "tapTimeFrame": [
        170.2487
      ],
      "railNumbers": [
        0
      ]
    },
    {
      "tapTimeFrame": [
        170.597
      ],
      "railNumbers": [
        0
      ]
    },
    {
      "tapTimeFrame": [
        170.852417
      ],
      "railNumbers": [
        2
      ]
    },
    {
      "tapTimeFrame": [
        171.084625
      ],
      "railNumbers": [
        1
      ]
    },
    {
      "tapTimeFrame": [
        171.316818
      ],
      "railNumbers": [
        2
      ]
    },
    {
      "tapTimeFrame": [
        171.572235
      ],
      "railNumbers": [
        0
      ]
    },
    {
      "tapTimeFrame": [
        171.920547
      ],
      "railNumbers": [
        1
      ]
    },
    {
      "tapTimeFrame": [
        172.175964
      ],
      "railNumbers": [
        1
      ]
    },
    {
      "tapTimeFrame": [
        172.547485
      ],
      "railNumbers": [
        1
      ]
    },
    {
      "tapTimeFrame": [
        172.779678
      ],
      "railNumbers": [
        2
      ]
    },
    {
      "tapTimeFrame": [
        173.011871
      ],
      "railNumbers": [
        0
      ]
    },
    {
      "tapTimeFrame": [
        173.52272
      ],
      "railNumbers": [
        0
      ]
    },
    {
      "tapTimeFrame": [
        173.871017
      ],
      "railNumbers": [
        0
      ]
    },
    {
      "tapTimeFrame": [
        174.10321
      ],
      "railNumbers": [
        0
      ]
    },
    {
      "tapTimeFrame": [
        174.474731
      ],
      "railNumbers": [
        0
      ]
    },
    {
      "tapTimeFrame": [
        174.70694
      ],
      "railNumbers": [
        1
      ]
    },
    {
      "tapTimeFrame": [
        174.962357
      ],
      "railNumbers": [
        0
      ]
    },
    {
      "tapTimeFrame": [
        175.19455
      ],
      "railNumbers": [
        1
      ]
    },
    {
      "tapTimeFrame": [
        175.426758
      ],
      "railNumbers": [
        1
      ]
    },
    {
      "tapTimeFrame": [
        175.775055
      ],
      "railNumbers": [
        1
      ]
    },
    {
      "tapTimeFrame": [
        176.030472
      ],
      "railNumbers": [
        1
      ]
    },
    {
      "tapTimeFrame": [
        176.402
      ],
      "railNumbers": [
        0
      ]
    },
    {
      "tapTimeFrame": [
        176.84317
      ],
      "railNumbers": [
        1
      ]
    },
    {
      "tapTimeFrame": [
        177.121811
      ],
      "railNumbers": [
        2
      ]
    },
    {
      "tapTimeFrame": [
        177.354
      ],
      "railNumbers": [
        0
      ]
    },
    {
      "tapTimeFrame": [
        177.702316
      ],
      "railNumbers": [
        0
      ]
    },
    {
      "tapTimeFrame": [
        177.957733
      ],
      "railNumbers": [
        0
      ]
    },
    {
      "tapTimeFrame": [
        178.21315
      ],
      "railNumbers": [
        2
      ]
    },
    {
      "tapTimeFrame": [
        178.79364
      ],
      "railNumbers": [
        1
      ]
    },
    {
      "tapTimeFrame": [
        179.049072
      ],
      "railNumbers": [
        2
      ]
    },
    {
      "tapTimeFrame": [
        179.281265
      ],
      "railNumbers": [
        0
      ]
    },
    {
      "tapTimeFrame": [
        179.629562
      ],
      "railNumbers": [
        1
      ]
    },
    {
      "tapTimeFrame": [
        179.884979
      ],
      "railNumbers": [
        0
      ]
    },
    {
      "tapTimeFrame": [
        180.2565
      ],
      "railNumbers": [
        0
      ]
    },
    {
      "tapTimeFrame": [
        180.511917
      ],
      "railNumbers": [
        2
      ]
    },
    {
      "tapTimeFrame": [
        180.7209
      ],
      "railNumbers": [
        1
      ]
    },
    {
      "tapTimeFrame": [
        180.999542
      ],
      "railNumbers": [
        2
      ]
    },
    {
      "tapTimeFrame": [
        181.208527
      ],
      "railNumbers": [
        0
      ]
    },
    {
      "tapTimeFrame": [
        181.556824
      ],
      "railNumbers": [
        0
      ]
    },
    {
      "tapTimeFrame": [
        181.789017
      ],
      "railNumbers": [
        0
      ]
    },
    {
      "tapTimeFrame": [
        182.183762
      ],
      "railNumbers": [
        0
      ]
    },
    {
      "tapTimeFrame": [
        182.415955
      ],
      "railNumbers": [
        1
      ]
    },
    {
      "tapTimeFrame": [
        182.671387
      ],
      "railNumbers": [
        1
      ]
    },
    {
      "tapTimeFrame": [
        182.90358
      ],
      "railNumbers": [
        2
      ]
    },
    {
      "tapTimeFrame": [
        183.135773
      ],
      "railNumbers": [
        0
      ]
    },
    {
      "tapTimeFrame": [
        183.484085
      ],
      "railNumbers": [
        2
      ]
    },
    {
      "tapTimeFrame": [
        183.716278
      ],
      "railNumbers": [
        1
      ]
    },
    {
      "tapTimeFrame": [
        184.041351
      ],
      "railNumbers": [
        1
      ]
    },
    {
      "tapTimeFrame": [
        184.528976
      ],
      "railNumbers": [
        0
      ]
    },
    {
      "tapTimeFrame": [
        184.970154
      ],
      "railNumbers": [
        2
      ]
    },
    {
      "tapTimeFrame": [
        185.3649
      ],
      "railNumbers": [
        1
      ]
    },
    {
      "tapTimeFrame": [
        185.968613
      ],
      "railNumbers": [
        0
      ]
    },
    {
      "tapTimeFrame": [
        186.40979
      ],
      "railNumbers": [
        1
      ]
    },
    {
      "tapTimeFrame": [
        186.688431
      ],
      "railNumbers": [
        2
      ]
    },
    {
      "tapTimeFrame": [
        186.897415
      ],
      "railNumbers": [
        0
      ]
    },
    {
      "tapTimeFrame": [
        187.176056
      ],
      "railNumbers": [
        2
      ]
    },
    {
      "tapTimeFrame": [
        187.361816
      ],
      "railNumbers": [
        1
      ]
    },
    {
      "tapTimeFrame": [
        187.849426
      ],
      "railNumbers": [
        0
      ]
    },
    {
      "tapTimeFrame": [
        188.128067
      ],
      "railNumbers": [
        1
      ]
    },
    {
      "tapTimeFrame": [
        188.337051
      ],
      "railNumbers": [
        1
      ]
    },
    {
      "tapTimeFrame": [
        188.569244
      ],
      "railNumbers": [
        1
      ]
    },
    {
      "tapTimeFrame": [
        188.801453
      ],
      "railNumbers": [
        1
      ]
    },
    {
      "tapTimeFrame": [
        189.05687
      ],
      "railNumbers": [
        2
      ]
    },
    {
      "tapTimeFrame": [
        189.24263
      ],
      "railNumbers": [
        1
      ]
    },
    {
      "tapTimeFrame": [
        189.498047
      ],
      "railNumbers": [
        2
      ]
    },
    {
      "tapTimeFrame": [
        189.73024
      ],
      "railNumbers": [
        0
      ]
    },
    {
      "tapTimeFrame": [
        190.101761
      ],
      "railNumbers": [
        2
      ]
    },
    {
      "tapTimeFrame": [
        190.450058
      ],
      "railNumbers": [
        1
      ]
    },
    {
      "tapTimeFrame": [
        190.70549
      ],
      "railNumbers": [
        1
      ]
    },
    {
      "tapTimeFrame": [
        190.914459
      ],
      "railNumbers": [
        2
      ]
    },
    {
      "tapTimeFrame": [
        191.146667
      ],
      "railNumbers": [
        1
      ]
    },
    {
      "tapTimeFrame": [
        191.634277
      ],
      "railNumbers": [
        0
      ]
    },
    {
      "tapTimeFrame": [
        192.098679
      ],
      "railNumbers": [
        0
      ]
    },
    {
      "tapTimeFrame": [
        192.330887
      ],
      "railNumbers": [
        2
      ]
    },
    {
      "tapTimeFrame": [
        192.5863
      ],
      "railNumbers": [
        0
      ]
    },
    {
      "tapTimeFrame": [
        192.9346
      ],
      "railNumbers": [
        0
      ]
    },
    {
      "tapTimeFrame": [
        193.515091
      ],
      "railNumbers": [
        0
      ]
    },
    {
      "tapTimeFrame": [
        193.7473
      ],
      "railNumbers": [
        1
      ]
    },
    {
      "tapTimeFrame": [
        194.002716
      ],
      "railNumbers": [
        1
      ]
    },
    {
      "tapTimeFrame": [
        194.234924
      ],
      "railNumbers": [
        2
      ]
    },
    {
      "tapTimeFrame": [
        194.490341
      ],
      "railNumbers": [
        1
      ]
    },
    {
      "tapTimeFrame": [
        194.838638
      ],
      "railNumbers": [
        0
      ]
    },
    {
      "tapTimeFrame": [
        195.094055
      ],
      "railNumbers": [
        2
      ]
    },
    {
      "tapTimeFrame": [
        195.419128
      ],
      "railNumbers": [
        0
      ]
    },
    {
      "tapTimeFrame": [
        195.651337
      ],
      "railNumbers": [
        2
      ]
    },
    {
      "tapTimeFrame": [
        195.88353
      ],
      "railNumbers": [
        1
      ]
    },
    {
      "tapTimeFrame": [
        196.115738
      ],
      "railNumbers": [
        2
      ]
    },
    {
      "tapTimeFrame": [
        196.371155
      ],
      "railNumbers": [
        0
      ]
    },
    {
      "tapTimeFrame": [
        196.696228
      ],
      "railNumbers": [
        0
      ]
    },
    {
      "tapTimeFrame": [
        197.067749
      ],
      "railNumbers": [
        2
      ]
    },
    {
      "tapTimeFrame": [
        197.299957
      ],
      "railNumbers": [
        0
      ]
    },
    {
      "tapTimeFrame": [
        197.671463
      ],
      "railNumbers": [
        2
      ]
    },
    {
      "tapTimeFrame": [
        197.996552
      ],
      "railNumbers": [
        1
      ]
    },
    {
      "tapTimeFrame": [
        198.275192
      ],
      "railNumbers": [
        0
      ]
    },
    {
      "tapTimeFrame": [
        198.460953
      ],
      "railNumbers": [
        2
      ]
    },
    {
      "tapTimeFrame": [
        198.71637
      ],
      "railNumbers": [
        0
      ]
    },
    {
      "tapTimeFrame": [
        198.948563
      ],
      "railNumbers": [
        1
      ]
    },
    {
      "tapTimeFrame": [
        199.204
      ],
      "railNumbers": [
        1
      ]
    },
    {
      "tapTimeFrame": [
        199.505844
      ],
      "railNumbers": [
        0
      ]
    },
    {
      "tapTimeFrame": [
        199.6916
      ],
      "railNumbers": [
        2
      ]
    },
    {
      "tapTimeFrame": [
        199.877365
      ],
      "railNumbers": [
        2
      ]
    },
    {
      "tapTimeFrame": [
        200.132782
      ],
      "railNumbers": [
        0
      ]
    },
    {
      "tapTimeFrame": [
        200.5043
      ],
      "railNumbers": [
        1
      ]
    },
    {
      "tapTimeFrame": [
        200.75972
      ],
      "railNumbers": [
        1
      ]
    },
    {
      "tapTimeFrame": [
        201.084808
      ],
      "railNumbers": [
        1
      ]
    },
    {
      "tapTimeFrame": [
        201.363449
      ],
      "railNumbers": [
        2
      ]
    },
    {
      "tapTimeFrame": [
        201.54921
      ],
      "railNumbers": [
        2
      ]
    },
    {
      "tapTimeFrame": [
        201.851059
      ],
      "railNumbers": [
        2
      ]
    },
    {
      "tapTimeFrame": [
        202.083267
      ],
      "railNumbers": [
        0
      ]
    },
    {
      "tapTimeFrame": [
        202.454788
      ],
      "railNumbers": [
        0
      ]
    },
    {
      "tapTimeFrame": [
        202.663757
      ],
      "railNumbers": [
        1
      ]
    },
    {
      "tapTimeFrame": [
        203.035278
      ],
      "railNumbers": [
        2
      ]
    },
    {
      "tapTimeFrame": [
        203.546112
      ],
      "railNumbers": [
        1
      ]
    },
    {
      "tapTimeFrame": [
        203.7551
      ],
      "railNumbers": [
        2
      ]
    },
    {
      "tapTimeFrame": [
        204.033737
      ],
      "railNumbers": [
        0
      ]
    },
    {
      "tapTimeFrame": [
        204.382034
      ],
      "railNumbers": [
        1
      ]
    },
    {
      "tapTimeFrame": [
        204.614243
      ],
      "railNumbers": [
        0
      ]
    },
    {
      "tapTimeFrame": [
        205.008972
      ],
      "railNumbers": [
        0
      ]
    },
    {
      "tapTimeFrame": [
        205.217957
      ],
      "railNumbers": [
        1
      ]
    },
    {
      "tapTimeFrame": [
        205.473373
      ],
      "railNumbers": [
        1
      ]
    },
    {
      "tapTimeFrame": [
        205.682358
      ],
      "railNumbers": [
        1
      ]
    },
    {
      "tapTimeFrame": [
        205.961
      ],
      "railNumbers": [
        0
      ]
    },
    {
      "tapTimeFrame": [
        206.169968
      ],
      "railNumbers": [
        2
      ]
    },
    {
      "tapTimeFrame": [
        206.51828
      ],
      "railNumbers": [
        2
      ]
    },
    {
      "tapTimeFrame": [
        206.91301
      ],
      "railNumbers": [
        0
      ]
    },
    {
      "tapTimeFrame": [
        207.168427
      ],
      "railNumbers": [
        2
      ]
    },
    {
      "tapTimeFrame": [
        207.354187
      ],
      "railNumbers": [
        1
      ]
    },
    {
      "tapTimeFrame": [
        207.6096
      ],
      "railNumbers": [
        2
      ]
    },
    {
      "tapTimeFrame": [
        207.865036
      ],
      "railNumbers": [
        0
      ]
    },
    {
      "tapTimeFrame": [
        208.213333
      ],
      "railNumbers": [
        0
      ]
    },
    {
      "tapTimeFrame": [
        208.46875
      ],
      "railNumbers": [
        0
      ]
    },
    {
      "tapTimeFrame": [
        208.840271
      ],
      "railNumbers": [
        1
      ]
    },
    {
      "tapTimeFrame": [
        209.072464
      ],
      "railNumbers": [
        2
      ]
    },
    {
      "tapTimeFrame": [
        209.281448
      ],
      "railNumbers": [
        1
      ]
    },
    {
      "tapTimeFrame": [
        209.792282
      ],
      "railNumbers": [
        0
      ]
    },
    {
      "tapTimeFrame": [
        210.140579
      ],
      "railNumbers": [
        1
      ]
    },
    {
      "tapTimeFrame": [
        210.372787
      ],
      "railNumbers": [
        0
      ]
    },
    {
      "tapTimeFrame": [
        210.767517
      ],
      "railNumbers": [
        0
      ]
    },
    {
      "tapTimeFrame": [
        211.20871
      ],
      "railNumbers": [
        1
      ]
    },
    {
      "tapTimeFrame": [
        211.719543
      ],
      "railNumbers": [
        0
      ]
    },
    {
      "tapTimeFrame": [
        212.044617
      ],
      "railNumbers": [
        1
      ]
    },
    {
      "tapTimeFrame": [
        212.300049
      ],
      "railNumbers": [
        1
      ]
    },
    {
      "tapTimeFrame": [
        212.671555
      ],
      "railNumbers": [
        0
      ]
    },
    {
      "tapTimeFrame": [
        212.903763
      ],
      "railNumbers": [
        1
      ]
    },
    {
      "tapTimeFrame": [
        213.112747
      ],
      "railNumbers": [
        0
      ]
    },
    {
      "tapTimeFrame": [
        213.368164
      ],
      "railNumbers": [
        1
      ]
    },
    {
      "tapTimeFrame": [
        213.600357
      ],
      "railNumbers": [
        0
      ]
    },
    {
      "tapTimeFrame": [
        213.948654
      ],
      "railNumbers": [
        0
      ]
    },
    {
      "tapTimeFrame": [
        214.180862
      ],
      "railNumbers": [
        1
      ]
    },
    {
      "tapTimeFrame": [
        214.552383
      ],
      "railNumbers": [
        0
      ]
    },
    {
      "tapTimeFrame": [
        214.993561
      ],
      "railNumbers": [
        1
      ]
    },
    {
      "tapTimeFrame": [
        215.5044
      ],
      "railNumbers": [
        1
      ]
    },
    {
      "tapTimeFrame": [
        215.875916
      ],
      "railNumbers": [
        0
      ]
    },
    {
      "tapTimeFrame": [
        216.4564
      ],
      "railNumbers": [
        0
      ]
    },
    {
      "tapTimeFrame": [
        216.8976
      ],
      "railNumbers": [
        1
      ]
    },
    {
      "tapTimeFrame": [
        217.176239
      ],
      "railNumbers": [
        2
      ]
    },
    {
      "tapTimeFrame": [
        217.408432
      ],
      "railNumbers": [
        0
      ]
    },
    {
      "tapTimeFrame": [
        217.756729
      ],
      "railNumbers": [
        0
      ]
    },
    {
      "tapTimeFrame": [
        218.105026
      ],
      "railNumbers": [
        2
      ]
    },
    {
      "tapTimeFrame": [
        218.360443
      ],
      "railNumbers": [
        0
      ]
    },
    {
      "tapTimeFrame": [
        218.778412
      ],
      "railNumbers": [
        1
      ]
    },
    {
      "tapTimeFrame": [
        219.080261
      ],
      "railNumbers": [
        2
      ]
    },
    {
      "tapTimeFrame": [
        219.312469
      ],
      "railNumbers": [
        1
      ]
    },
    {
      "tapTimeFrame": [
        219.660767
      ],
      "railNumbers": [
        0
      ]
    },
    {
      "tapTimeFrame": [
        220.009064
      ],
      "railNumbers": [
        2
      ]
    },
    {
      "tapTimeFrame": [
        220.241272
      ],
      "railNumbers": [
        0
      ]
    },
    {
      "tapTimeFrame": [
        220.705658
      ],
      "railNumbers": [
        2
      ]
    },
    {
      "tapTimeFrame": [
        220.914642
      ],
      "railNumbers": [
        1
      ]
    },
    {
      "tapTimeFrame": [
        221.146851
      ],
      "railNumbers": [
        2
      ]
    },
    {
      "tapTimeFrame": [
        221.402267
      ],
      "railNumbers": [
        0
      ]
    },
    {
      "tapTimeFrame": [
        221.680908
      ],
      "railNumbers": [
        0
      ]
    },
    {
      "tapTimeFrame": [
        221.889877
      ],
      "railNumbers": [
        0
      ]
    },
    {
      "tapTimeFrame": [
        222.122086
      ],
      "railNumbers": [
        2
      ]
    }
  ]
}