{
  "noteSteps": [
    {
      "tapTimeFrame": [
        1.20743763
      ],
      "railNumbers": [
        0
      ]
    },
    {
      "tapTimeFrame": [
        1.41641724
      ],
      "railNumbers": [
        2
      ]
    },
    {
      "tapTimeFrame": [
        2.08979583
      ],
      "railNumbers": [
        2
      ]
    },
    {
      "tapTimeFrame": [
        2.48453522
      ],
      "railNumbers": [
        2
      ]
    },
    {
      "tapTimeFrame": [
        2.80961442
      ],
      "railNumbers": [
        0
      ]
    },
    {
      "tapTimeFrame": [
        3.088254
      ],
      "railNumbers": [
        1
      ]
    },
    {
      "tapTimeFrame": [
        3.36689329
      ],
      "railNumbers": [
        2
      ]
    },
    {
      "tapTimeFrame": [
        3.97061229
      ],
      "railNumbers": [
        0
      ]
    },
    {
      "tapTimeFrame": [
        4.27247143
      ],
      "railNumbers": [
        0
      ]
    },
    {
      "tapTimeFrame": [
        4.574331
      ],
      "railNumbers": [
        1
      ]
    },
    {
      "tapTimeFrame": [
        4.87619
      ],
      "railNumbers": [
        0
      ]
    },
    {
      "tapTimeFrame": [
        5.20126963
      ],
      "railNumbers": [
        2
      ]
    },
    {
      "tapTimeFrame": [
        5.82820845
      ],
      "railNumbers": [
        0
      ]
    },
    {
      "tapTimeFrame": [
        6.013968
      ],
      "railNumbers": [
        2
      ]
    },
    {
      "tapTimeFrame": [
        6.45514727
      ],
      "railNumbers": [
        0
      ]
    },
    {
      "tapTimeFrame": [
        6.75700665
      ],
      "railNumbers": [
        0
      ]
    },
    {
      "tapTimeFrame": [
        7.38394547
      ],
      "railNumbers": [
        2
      ]
    },
    {
      "tapTimeFrame": [
        7.685805
      ],
      "railNumbers": [
        0
      ]
    },
    {
      "tapTimeFrame": [
        7.987664
      ],
      "railNumbers": [
        0
      ]
    },
    {
      "tapTimeFrame": [
        8.243084
      ],
      "railNumbers": [
        0
      ]
    },
    {
      "tapTimeFrame": [
        8.591383
      ],
      "railNumbers": [
        0
      ]
    },
    {
      "tapTimeFrame": [
        8.800363
      ],
      "railNumbers": [
        2
      ]
    },
    {
      "tapTimeFrame": [
        9.496962
      ],
      "railNumbers": [
        0
      ]
    },
    {
      "tapTimeFrame": [
        10.4257593
      ],
      "railNumbers": [
        0
      ]
    },
    {
      "tapTimeFrame": [
        11.354558
      ],
      "railNumbers": [
        0
      ]
    },
    {
      "tapTimeFrame": [
        11.6564169
      ],
      "railNumbers": [
        1
      ]
    },
    {
      "tapTimeFrame": [
        11.9582767
      ],
      "railNumbers": [
        1
      ]
    },
    {
      "tapTimeFrame": [
        12.2833557
      ],
      "railNumbers": [
        0
      ]
    },
    {
      "tapTimeFrame": [
        13.2353735
      ],
      "railNumbers": [
        0
      ]
    },
    {
      "tapTimeFrame": [
        13.5372334
      ],
      "railNumbers": [
        2
      ]
    },
    {
      "tapTimeFrame": [
        13.8390923
      ],
      "railNumbers": [
        1
      ]
    },
    {
      "tapTimeFrame": [
        14.1641722
      ],
      "railNumbers": [
        0
      ]
    },
    {
      "tapTimeFrame": [
        14.7678909
      ],
      "railNumbers": [
        2
      ]
    },
    {
      "tapTimeFrame": [
        15.09297
      ],
      "railNumbers": [
        0
      ]
    },
    {
      "tapTimeFrame": [
        15.39483
      ],
      "railNumbers": [
        0
      ]
    },
    {
      "tapTimeFrame": [
        15.6270294
      ],
      "railNumbers": [
        2
      ]
    },
    {
      "tapTimeFrame": [
        16.0217686
      ],
      "railNumbers": [
        0
      ]
    },
    {
      "tapTimeFrame": [
        16.5558281
      ],
      "railNumbers": [
        2
      ]
    },
    {
      "tapTimeFrame": [
        16.9273472
      ],
      "railNumbers": [
        0
      ]
    },
    {
      "tapTimeFrame": [
        17.205986
      ],
      "railNumbers": [
        2
      ]
    },
    {
      "tapTimeFrame": [
        17.4846249
      ],
      "railNumbers": [
        1
      ]
    },
    {
      "tapTimeFrame": [
        17.7864857
      ],
      "railNumbers": [
        0
      ]
    },
    {
      "tapTimeFrame": [
        18.3669834
      ],
      "railNumbers": [
        2
      ]
    },
    {
      "tapTimeFrame": [
        18.6456242
      ],
      "railNumbers": [
        0
      ]
    },
    {
      "tapTimeFrame": [
        18.9939232
      ],
      "railNumbers": [
        2
      ]
    },
    {
      "tapTimeFrame": [
        19.2957821
      ],
      "railNumbers": [
        0
      ]
    },
    {
      "tapTimeFrame": [
        19.6208611
      ],
      "railNumbers": [
        0
      ]
    },
    {
      "tapTimeFrame": [
        20.20136
      ],
      "railNumbers": [
        0
      ]
    },
    {
      "tapTimeFrame": [
        20.50322
      ],
      "railNumbers": [
        1
      ]
    },
    {
      "tapTimeFrame": [
        21.10694
      ],
      "railNumbers": [
        0
      ]
    },
    {
      "tapTimeFrame": [
        21.4552383
      ],
      "railNumbers": [
        1
      ]
    },
    {
      "tapTimeFrame": [
        22.0357361
      ],
      "railNumbers": [
        0
      ]
    },
    {
      "tapTimeFrame": [
        22.3840351
      ],
      "railNumbers": [
        1
      ]
    },
    {
      "tapTimeFrame": [
        23.3360538
      ],
      "railNumbers": [
        0
      ]
    },
    {
      "tapTimeFrame": [
        24.3112926
      ],
      "railNumbers": [
        0
      ]
    },
    {
      "tapTimeFrame": [
        24.5202713
      ],
      "railNumbers": [
        1
      ]
    },
    {
      "tapTimeFrame": [
        24.91501
      ],
      "railNumbers": [
        0
      ]
    },
    {
      "tapTimeFrame": [
        25.1704311
      ],
      "railNumbers": [
        1
      ]
    },
    {
      "tapTimeFrame": [
        26.122448
      ],
      "railNumbers": [
        0
      ]
    },
    {
      "tapTimeFrame": [
        26.3314285
      ],
      "railNumbers": [
        2
      ]
    },
    {
      "tapTimeFrame": [
        26.7493877
      ],
      "railNumbers": [
        0
      ]
    },
    {
      "tapTimeFrame": [
        27.0512466
      ],
      "railNumbers": [
        0
      ]
    },
    {
      "tapTimeFrame": [
        27.3763256
      ],
      "railNumbers": [
        2
      ]
    },
    {
      "tapTimeFrame": [
        27.6781845
      ],
      "railNumbers": [
        1
      ]
    },
    {
      "tapTimeFrame": [
        27.9336052
      ],
      "railNumbers": [
        1
      ]
    },
    {
      "tapTimeFrame": [
        28.2819042
      ],
      "railNumbers": [
        1
      ]
    },
    {
      "tapTimeFrame": [
        28.5605431
      ],
      "railNumbers": [
        0
      ]
    },
    {
      "tapTimeFrame": [
        28.8624039
      ],
      "railNumbers": [
        0
      ]
    },
    {
      "tapTimeFrame": [
        29.1642628
      ],
      "railNumbers": [
        1
      ]
    },
    {
      "tapTimeFrame": [
        29.4429016
      ],
      "railNumbers": [
        2
      ]
    },
    {
      "tapTimeFrame": [
        29.74476
      ],
      "railNumbers": [
        0
      ]
    },
    {
      "tapTimeFrame": [
        29.9537411
      ],
      "railNumbers": [
        2
      ]
    },
    {
      "tapTimeFrame": [
        30.32526
      ],
      "railNumbers": [
        0
      ]
    },
    {
      "tapTimeFrame": [
        30.65034
      ],
      "railNumbers": [
        0
      ]
    },
    {
      "tapTimeFrame": [
        31.5559177
      ],
      "railNumbers": [
        0
      ]
    },
    {
      "tapTimeFrame": [
        32.4847145
      ],
      "railNumbers": [
        1
      ]
    },
    {
      "tapTimeFrame": [
        33.4367332
      ],
      "railNumbers": [
        1
      ]
    },
    {
      "tapTimeFrame": [
        33.7385941
      ],
      "railNumbers": [
        1
      ]
    },
    {
      "tapTimeFrame": [
        34.34231
      ],
      "railNumbers": [
        1
      ]
    },
    {
      "tapTimeFrame": [
        35.24789
      ],
      "railNumbers": [
        2
      ]
    },
    {
      "tapTimeFrame": [
        35.52653
      ],
      "railNumbers": [
        2
      ]
    },
    {
      "tapTimeFrame": [
        35.89805
      ],
      "railNumbers": [
        0
      ]
    },
    {
      "tapTimeFrame": [
        36.19991
      ],
      "railNumbers": [
        0
      ]
    },
    {
      "tapTimeFrame": [
        36.47855
      ],
      "railNumbers": [
        2
      ]
    },
    {
      "tapTimeFrame": [
        37.0822678
      ],
      "railNumbers": [
        0
      ]
    },
    {
      "tapTimeFrame": [
        37.3841248
      ],
      "railNumbers": [
        1
      ]
    },
    {
      "tapTimeFrame": [
        37.6859856
      ],
      "railNumbers": [
        0
      ]
    },
    {
      "tapTimeFrame": [
        37.9878464
      ],
      "railNumbers": [
        0
      ]
    },
    {
      "tapTimeFrame": [
        38.7541046
      ],
      "railNumbers": [
        2
      ]
    },
    {
      "tapTimeFrame": [
        39.12562
      ],
      "railNumbers": [
        1
      ]
    },
    {
      "tapTimeFrame": [
        39.4274826
      ],
      "railNumbers": [
        1
      ]
    },
    {
      "tapTimeFrame": [
        39.6829033
      ],
      "railNumbers": [
        0
      ]
    },
    {
      "tapTimeFrame": [
        40.21696
      ],
      "railNumbers": [
        2
      ]
    },
    {
      "tapTimeFrame": [
        40.54204
      ],
      "railNumbers": [
        0
      ]
    },
    {
      "tapTimeFrame": [
        40.77424
      ],
      "railNumbers": [
        1
      ]
    },
    {
      "tapTimeFrame": [
        41.09932
      ],
      "railNumbers": [
        0
      ]
    },
    {
      "tapTimeFrame": [
        41.4476166
      ],
      "railNumbers": [
        1
      ]
    },
    {
      "tapTimeFrame": [
        42.02812
      ],
      "railNumbers": [
        0
      ]
    },
    {
      "tapTimeFrame": [
        42.3531952
      ],
      "railNumbers": [
        1
      ]
    },
    {
      "tapTimeFrame": [
        42.9104767
      ],
      "railNumbers": [
        1
      ]
    },
    {
      "tapTimeFrame": [
        43.2123337
      ],
      "railNumbers": [
        0
      ]
    },
    {
      "tapTimeFrame": [
        43.699955
      ],
      "railNumbers": [
        1
      ]
    },
    {
      "tapTimeFrame": [
        44.1179123
      ],
      "railNumbers": [
        0
      ]
    },
    {
      "tapTimeFrame": [
        44.396553
      ],
      "railNumbers": [
        0
      ]
    },
    {
      "tapTimeFrame": [
        44.5823135
      ],
      "railNumbers": [
        2
      ]
    },
    {
      "tapTimeFrame": [
        45.00027
      ],
      "railNumbers": [
        1
      ]
    },
    {
      "tapTimeFrame": [
        45.32535
      ],
      "railNumbers": [
        2
      ]
    },
    {
      "tapTimeFrame": [
        45.95229
      ],
      "railNumbers": [
        0
      ]
    },
    {
      "tapTimeFrame": [
        46.13805
      ],
      "railNumbers": [
        2
      ]
    },
    {
      "tapTimeFrame": [
        46.6024475
      ],
      "railNumbers": [
        1
      ]
    },
    {
      "tapTimeFrame": [
        46.90431
      ],
      "railNumbers": [
        0
      ]
    },
    {
      "tapTimeFrame": [
        47.1829453
      ],
      "railNumbers": [
        1
      ]
    },
    {
      "tapTimeFrame": [
        47.4848061
      ],
      "railNumbers": [
        2
      ]
    },
    {
      "tapTimeFrame": [
        47.7866669
      ],
      "railNumbers": [
        0
      ]
    },
    {
      "tapTimeFrame": [
        48.0885239
      ],
      "railNumbers": [
        1
      ]
    },
    {
      "tapTimeFrame": [
        48.3671646
      ],
      "railNumbers": [
        1
      ]
    },
    {
      "tapTimeFrame": [
        48.6922455
      ],
      "railNumbers": [
        0
      ]
    },
    {
      "tapTimeFrame": [
        49.2959633
      ],
      "railNumbers": [
        0
      ]
    },
    {
      "tapTimeFrame": [
        49.87646
      ],
      "railNumbers": [
        1
      ]
    },
    {
      "tapTimeFrame": [
        50.3873024
      ],
      "railNumbers": [
        2
      ]
    },
    {
      "tapTimeFrame": [
        50.57306
      ],
      "railNumbers": [
        1
      ]
    },
    {
      "tapTimeFrame": [
        51.3857574
      ],
      "railNumbers": [
        1
      ]
    },
    {
      "tapTimeFrame": [
        51.6644
      ],
      "railNumbers": [
        1
      ]
    },
    {
      "tapTimeFrame": [
        51.96626
      ],
      "railNumbers": [
        1
      ]
    },
    {
      "tapTimeFrame": [
        52.2913361
      ],
      "railNumbers": [
        1
      ]
    },
    {
      "tapTimeFrame": [
        53.1736946
      ],
      "railNumbers": [
        2
      ]
    },
    {
      "tapTimeFrame": [
        54.009613
      ],
      "railNumbers": [
        2
      ]
    },
    {
      "tapTimeFrame": [
        54.1953735
      ],
      "railNumbers": [
        2
      ]
    },
    {
      "tapTimeFrame": [
        55.1009521
      ],
      "railNumbers": [
        0
      ]
    },
    {
      "tapTimeFrame": [
        55.3099327
      ],
      "railNumbers": [
        2
      ]
    },
    {
      "tapTimeFrame": [
        55.68145
      ],
      "railNumbers": [
        1
      ]
    },
    {
      "tapTimeFrame": [
        55.93687
      ],
      "railNumbers": [
        2
      ]
    },
    {
      "tapTimeFrame": [
        56.58703
      ],
      "railNumbers": [
        2
      ]
    },
    {
      "tapTimeFrame": [
        56.86567
      ],
      "railNumbers": [
        0
      ]
    },
    {
      "tapTimeFrame": [
        57.1675262
      ],
      "railNumbers": [
        2
      ]
    },
    {
      "tapTimeFrame": [
        57.446167
      ],
      "railNumbers": [
        1
      ]
    },
    {
      "tapTimeFrame": [
        57.7248077
      ],
      "railNumbers": [
        2
      ]
    },
    {
      "tapTimeFrame": [
        58.3517456
      ],
      "railNumbers": [
        2
      ]
    },
    {
      "tapTimeFrame": [
        58.6768227
      ],
      "railNumbers": [
        0
      ]
    },
    {
      "tapTimeFrame": [
        58.8858032
      ],
      "railNumbers": [
        2
      ]
    },
    {
      "tapTimeFrame": [
        59.2573242
      ],
      "railNumbers": [
        2
      ]
    },
    {
      "tapTimeFrame": [
        59.60562
      ],
      "railNumbers": [
        2
      ]
    },
    {
      "tapTimeFrame": [
        60.1629028
      ],
      "railNumbers": [
        1
      ]
    },
    {
      "tapTimeFrame": [
        60.48798
      ],
      "railNumbers": [
        0
      ]
    },
    {
      "tapTimeFrame": [
        60.76662
      ],
      "railNumbers": [
        1
      ]
    },
    {
      "tapTimeFrame": [
        60.99882
      ],
      "railNumbers": [
        2
      ]
    },
    {
      "tapTimeFrame": [
        61.39356
      ],
      "railNumbers": [
        1
      ]
    },
    {
      "tapTimeFrame": [
        61.9740562
      ],
      "railNumbers": [
        1
      ]
    },
    {
      "tapTimeFrame": [
        62.2759171
      ],
      "railNumbers": [
        0
      ]
    },
    {
      "tapTimeFrame": [
        62.5777779
      ],
      "railNumbers": [
        1
      ]
    },
    {
      "tapTimeFrame": [
        62.7635345
      ],
      "railNumbers": [
        2
      ]
    },
    {
      "tapTimeFrame": [
        63.1582756
      ],
      "railNumbers": [
        0
      ]
    },
    {
      "tapTimeFrame": [
        63.7619934
      ],
      "railNumbers": [
        0
      ]
    },
    {
      "tapTimeFrame": [
        64.11029
      ],
      "railNumbers": [
        2
      ]
    },
    {
      "tapTimeFrame": [
        64.6443558
      ],
      "railNumbers": [
        1
      ]
    },
    {
      "tapTimeFrame": [
        64.94621
      ],
      "railNumbers": [
        1
      ]
    },
    {
      "tapTimeFrame": [
        65.27129
      ],
      "railNumbers": [
        2
      ]
    },
    {
      "tapTimeFrame": [
        65.4570541
      ],
      "railNumbers": [
        1
      ]
    },
    {
      "tapTimeFrame": [
        65.87501
      ],
      "railNumbers": [
        1
      ]
    },
    {
      "tapTimeFrame": [
        66.36263
      ],
      "railNumbers": [
        1
      ]
    },
    {
      "tapTimeFrame": [
        66.7341461
      ],
      "railNumbers": [
        2
      ]
    },
    {
      "tapTimeFrame": [
        67.08245
      ],
      "railNumbers": [
        2
      ]
    },
    {
      "tapTimeFrame": [
        67.38431
      ],
      "railNumbers": [
        1
      ]
    },
    {
      "tapTimeFrame": [
        67.6861649
      ],
      "railNumbers": [
        0
      ]
    },
    {
      "tapTimeFrame": [
        67.9648056
      ],
      "railNumbers": [
        1
      ]
    },
    {
      "tapTimeFrame": [
        68.28989
      ],
      "railNumbers": [
        1
      ]
    },
    {
      "tapTimeFrame": [
        68.56853
      ],
      "railNumbers": [
        0
      ]
    },
    {
      "tapTimeFrame": [
        69.149025
      ],
      "railNumbers": [
        1
      ]
    },
    {
      "tapTimeFrame": [
        69.4276657
      ],
      "railNumbers": [
        0
      ]
    },
    {
      "tapTimeFrame": [
        69.7063
      ],
      "railNumbers": [
        0
      ]
    },
    {
      "tapTimeFrame": [
        70.2868042
      ],
      "railNumbers": [
        1
      ]
    },
    {
      "tapTimeFrame": [
        70.89052
      ],
      "railNumbers": [
        0
      ]
    },
    {
      "tapTimeFrame": [
        71.4710159
      ],
      "railNumbers": [
        2
      ]
    },
    {
      "tapTimeFrame": [
        72.0283
      ],
      "railNumbers": [
        1
      ]
    },
    {
      "tapTimeFrame": [
        73.02676
      ],
      "railNumbers": [
        0
      ]
    },
    {
      "tapTimeFrame": [
        73.39828
      ],
      "railNumbers": [
        0
      ]
    },
    {
      "tapTimeFrame": [
        73.9323349
      ],
      "railNumbers": [
        0
      ]
    },
    {
      "tapTimeFrame": [
        74.86113
      ],
      "railNumbers": [
        1
      ]
    },
    {
      "tapTimeFrame": [
        75.83637
      ],
      "railNumbers": [
        1
      ]
    },
    {
      "tapTimeFrame": [
        76.78839
      ],
      "railNumbers": [
        2
      ]
    },
    {
      "tapTimeFrame": [
        77.1134644
      ],
      "railNumbers": [
        2
      ]
    },
    {
      "tapTimeFrame": [
        77.36889
      ],
      "railNumbers": [
        2
      ]
    },
    {
      "tapTimeFrame": [
        77.7636261
      ],
      "railNumbers": [
        2
      ]
    },
    {
      "tapTimeFrame": [
        78.64599
      ],
      "railNumbers": [
        1
      ]
    },
    {
      "tapTimeFrame": [
        79.55156
      ],
      "railNumbers": [
        1
      ]
    },
    {
      "tapTimeFrame": [
        80.5268
      ],
      "railNumbers": [
        1
      ]
    },
    {
      "tapTimeFrame": [
        80.71256
      ],
      "railNumbers": [
        2
      ]
    },
    {
      "tapTimeFrame": [
        81.08408
      ],
      "railNumbers": [
        1
      ]
    },
    {
      "tapTimeFrame": [
        81.54848
      ],
      "railNumbers": [
        1
      ]
    },
    {
      "tapTimeFrame": [
        82.4540558
      ],
      "railNumbers": [
        2
      ]
    },
    {
      "tapTimeFrame": [
        83.4525146
      ],
      "railNumbers": [
        2
      ]
    },
    {
      "tapTimeFrame": [
        84.47419
      ],
      "railNumbers": [
        1
      ]
    }
  ]
}