%YAML 1.1
%TAG !u! tag:unity3d.com,2011:
--- !u!1001 &8701873809363462782
PrefabInstance:
  m_ObjectHideFlags: 0
  serializedVersion: 2
  m_Modification:
    m_TransformParent: {fileID: 0}
    m_Modifications:
    - target: {fileID: 5675848071278899488, guid: 6f43b6c5e656777408b2b0d771ec3114,
        type: 3}
      propertyPath: m_Name
      value: GalaxyEffect
      objectReference: {fileID: 0}
    - target: {fileID: 5675848071278899495, guid: 6f43b6c5e656777408b2b0d771ec3114,
        type: 3}
      propertyPath: m_LocalPosition.x
      value: -0.575
      objectReference: {fileID: 0}
    - target: {fileID: 5675848071278899495, guid: 6f43b6c5e656777408b2b0d771ec3114,
        type: 3}
      propertyPath: m_LocalPosition.y
      value: 0.077
      objectReference: {fileID: 0}
    - target: {fileID: 5675848071278899495, guid: 6f43b6c5e656777408b2b0d771ec3114,
        type: 3}
      propertyPath: m_LocalPosition.z
      value: -3.18
      objectReference: {fileID: 0}
    - target: {fileID: 5675848071278899495, guid: 6f43b6c5e656777408b2b0d771ec3114,
        type: 3}
      propertyPath: m_LocalRotation.x
      value: -0.7071068
      objectReference: {fileID: 0}
    - target: {fileID: 5675848071278899495, guid: 6f43b6c5e656777408b2b0d771ec3114,
        type: 3}
      propertyPath: m_LocalRotation.y
      value: 0
      objectReference: {fileID: 0}
    - target: {fileID: 5675848071278899495, guid: 6f43b6c5e656777408b2b0d771ec3114,
        type: 3}
      propertyPath: m_LocalRotation.z
      value: 0
      objectReference: {fileID: 0}
    - target: {fileID: 5675848071278899495, guid: 6f43b6c5e656777408b2b0d771ec3114,
        type: 3}
      propertyPath: m_LocalRotation.w
      value: 0.7071068
      objectReference: {fileID: 0}
    - target: {fileID: 5675848071278899495, guid: 6f43b6c5e656777408b2b0d771ec3114,
        type: 3}
      propertyPath: m_RootOrder
      value: 0
      objectReference: {fileID: 0}
    - target: {fileID: 5675848071278899495, guid: 6f43b6c5e656777408b2b0d771ec3114,
        type: 3}
      propertyPath: m_LocalEulerAnglesHint.x
      value: -90
      objectReference: {fileID: 0}
    - target: {fileID: 5675848071278899495, guid: 6f43b6c5e656777408b2b0d771ec3114,
        type: 3}
      propertyPath: m_LocalEulerAnglesHint.y
      value: 0
      objectReference: {fileID: 0}
    - target: {fileID: 5675848071278899495, guid: 6f43b6c5e656777408b2b0d771ec3114,
        type: 3}
      propertyPath: m_LocalEulerAnglesHint.z
      value: 0
      objectReference: {fileID: 0}
    m_RemovedComponents: []
  m_SourcePrefab: {fileID: 100100000, guid: 6f43b6c5e656777408b2b0d771ec3114, type: 3}
