%YAML 1.1
%TAG !u! tag:unity3d.com,2011:
--- !u!1045 &1
EditorBuildSettings:
  m_ObjectHideFlags: 0
  serializedVersion: 2
  m_Scenes:
  - enabled: 1
    path: Assets/Scenes/MainMenu.unity
    guid: 9fc0d4010bbf28b4594072e72b8655ab
  - enabled: 1
    path: Assets/Scenes/SelectASong.unity
    guid: a4b0112e171b58844b3865533e409852
  - enabled: 1
    path: Assets/Scenes/SelectDeviceSong.unity
    guid: 165e279bc6c2ea24a84e8014fe23fc7a
  - enabled: 1
    path: Assets/Scenes/HowToPlay.unity
    guid: ab52d257b55dd0c468f60a8158292de4
  - enabled: 1
    path: Assets/Scenes/Credits.unity
    guid: cef47bb9786dae4448ab1860d533ede5
  - enabled: 1
    path: Assets/Scenes/GameSceneNormal.unity
    guid: 79ddfae79a35fc84d8f8a4b51a5cac4a
  - enabled: 1
    path: Assets/Scenes/GameSceneHard.unity
    guid: 7f2958ed85f55624aa9b4eaf050d9ba9
  - enabled: 1
    path: Assets/Scenes/Loading.unity
    guid: 64a2a8e628649ab4c84ec7b2b55f5282
  m_configObjects: {}
