%YAML 1.1
%TAG !u! tag:unity3d.com,2011:
--- !u!21 &2100000
Material:
  serializedVersion: 6
  m_ObjectHideFlags: 0
  m_CorrespondingSourceObject: {fileID: 0}
  m_PrefabInstance: {fileID: 0}
  m_PrefabAsset: {fileID: 0}
  m_Name: Green_Tap_Mat
  m_Shader: {fileID: 46, guid: 0000000000000000f000000000000000, type: 0}
  m_ShaderKeywords: _DETAIL_MULX2 _EMISSION _METALLICGLOSSMAP _NORMALMAP _PARALLAXMAP
  m_LightmapFlags: 2
  m_EnableInstancingVariants: 0
  m_DoubleSidedGI: 0
  m_CustomRenderQueue: -1
  stringTagMap: {}
  disabledShaderPasses: []
  m_SavedProperties:
    serializedVersion: 3
    m_TexEnvs:
    - _BumpMap:
        m_Texture: {fileID: 2800000, guid: 6711a6f408dca5b41b938ec249d8d444, type: 3}
        m_Scale: {x: 1, y: 1}
        m_Offset: {x: 0, y: 0}
    - _DetailAlbedoMap:
        m_Texture: {fileID: 0}
        m_Scale: {x: 0.1, y: 0.1}
        m_Offset: {x: 0.1, y: 0.1}
    - _DetailMask:
        m_Texture: {fileID: 2800000, guid: 9875bf7345d4ac04ab35f3b9ed63a954, type: 3}
        m_Scale: {x: 1, y: 1}
        m_Offset: {x: 0, y: 0}
    - _DetailNormalMap:
        m_Texture: {fileID: 2800000, guid: 6711a6f408dca5b41b938ec249d8d444, type: 3}
        m_Scale: {x: 1, y: 1}
        m_Offset: {x: 0, y: 0}
    - _EmissionMap:
        m_Texture: {fileID: 2800000, guid: 61098c9cc2361da40bdcfe8dfa529a2a, type: 3}
        m_Scale: {x: 1, y: 1}
        m_Offset: {x: 0.25, y: 0.25}
    - _MainTex:
        m_Texture: {fileID: 2800000, guid: 573c7bc99dcbc0f4ea88b3ac63b42402, type: 3}
        m_Scale: {x: 1, y: 1}
        m_Offset: {x: 0.25, y: 0.25}
    - _MetallicGlossMap:
        m_Texture: {fileID: 2800000, guid: fb1c850a227a62544b63c6626cfa8ba8, type: 3}
        m_Scale: {x: 1, y: 1}
        m_Offset: {x: 0, y: 0}
    - _OcclusionMap:
        m_Texture: {fileID: 2800000, guid: 1626b1dd9f03a1a4d87b2440d41208a8, type: 3}
        m_Scale: {x: 1, y: 1}
        m_Offset: {x: 0, y: 0}
    - _ParallaxMap:
        m_Texture: {fileID: 2800000, guid: 3397c7f4a7562e546bcfc9faa71e1659, type: 3}
        m_Scale: {x: 1, y: 1}
        m_Offset: {x: 0, y: 0}
    m_Floats:
    - _BumpScale: 1
    - _Cutoff: 0.5
    - _DetailNormalMapScale: 1
    - _DstBlend: 0
    - _GlossMapScale: 0.544
    - _Glossiness: 0.5
    - _GlossyReflections: 1
    - _Metallic: 0
    - _Mode: 0
    - _OcclusionStrength: 1
    - _Parallax: 0.08
    - _SmoothnessTextureChannel: 0
    - _SpecularHighlights: 1
    - _SrcBlend: 1
    - _UVSec: 0
    - _ZWrite: 1
    m_Colors:
    - _Color: {r: 0, g: 0.3584906, b: 0, a: 1}
    - _EmissionColor: {r: 0.81854063, g: 1, b: 0.8160377, a: 1}
  m_BuildTextureStacks: []
